{"success":true,"query":"baby toddler","searchTerms":"baby toddler","extractedParams":{"keywords":["baby","toddler"],"category":"baby products"},"totalCount":1024,"offset":10,"limit":10,"hasMore":true,"count":10,"products":[{"id":"36374905545","name":"Ride on Sliding Car Baby Toddler Horn Music Working Lights Storage No Power","description":"Ride in style with this fancy foot to floor ride-on from HOMCOM. Its red body and snazzy rims resemble a real car. Ideal for ages 18-36 months, the PP seats and high backrest allow young riders to use","price":41.99,"currency":"GBP","merchant":"Debenhams UK","brand":"Debenhams UK","category":"Toys","imageUrl":"https://media.debenhams.com/i/debenhams/m5056534527600_red_xl.jpg","affiliateLink":"https://www.awin1.com/pclick.php?p=36374905545&a=511345&m=22735","inStock":true},{"id":"36374906832","name":"Kids Ride-on Push Car 3 in 1 Benz G350 Baby Walker Toddler Foot to Floor Slider","description":"Exhausted from searching for a fun-filled Ride-on Sliding Car? Then search no more! This Licensed Ride on Push Car features a moving steering wheel and horn gives your child a realistic and fun experi","price":63.99,"currency":"GBP","merchant":"Debenhams UK","brand":"Debenhams UK","category":"Toys","imageUrl":"https://media.debenhams.com/i/debenhams/m5056534501495_white_xl.jpg","affiliateLink":"https://www.awin1.com/pclick.php?p=36374906832&a=511345&m=22735","inStock":true},{"id":"36374906835","name":"Kids Ride-on Push Car 3 in 1 Benz G350 Baby Walker Toddler Foot to Floor Slider","description":"Exhausted from searching for a fun-filled Ride-on Sliding Car? Then search no more! This Licensed Ride on Push Car features a moving steering wheel and horn gives your child a realistic and fun experi","price":74.99,"currency":"GBP","merchant":"Debenhams UK","brand":"Debenhams UK","category":"Toys","imageUrl":"https://media.debenhams.com/i/debenhams/m5056534551568_black_xl.jpg","affiliateLink":"https://www.awin1.com/pclick.php?p=36374906835&a=511345&m=22735","inStock":true},{"id":"36374900630","name":"Baby Balance Bike Toddler Safe Training 4 Smooth Rubber Wheels w/Storage Bin","description":"Introduce them to cycling in the easiest way possible with this pink and purple baby balance bike from HOMCOM. Made for children aged between 18 and 36 months, its lightweight and sturdy design featur","price":27.99,"currency":"GBP","merchant":"Debenhams UK","brand":"Debenhams UK","category":"Toys","imageUrl":"https://media.debenhams.com/i/debenhams/m5056029872345_blue_xl.jpg","affiliateLink":"https://www.awin1.com/pclick.php?p=36374900630&a=511345&m=22735","inStock":true},{"id":"36374906834","name":"Kids Ride-on Push Car 3 in 1 Benz G350 Baby Walker Toddler Foot to Floor Slider","description":"Exhausted from searching for a fun-filled Ride-on Sliding Car? Then search no more! This Licensed Ride on Push Car features a moving steering wheel and horn gives your child a realistic and fun experi","price":56.99,"currency":"GBP","merchant":"Debenhams UK","brand":"Debenhams UK","category":"Toys","imageUrl":"https://media.debenhams.com/i/debenhams/m5056534546366_red_xl.jpg","affiliateLink":"https://www.awin1.com/pclick.php?p=36374906834&a=511345&m=22735","inStock":true},{"id":"36374905543","name":"Ride on Sliding Car Baby Toddler Horn Music Working Lights Storage No Power","description":"Ride in style with this fancy foot to floor ride-on from HOMCOM. Its red body and snazzy rims resemble a real car. Ideal for ages 18-36 months, the PP seats and high backrest allow young riders to use","price":42.99,"currency":"GBP","merchant":"Debenhams UK","brand":"Debenhams UK","category":"Toys","imageUrl":"https://media.debenhams.com/i/debenhams/m5056534527525_pink_xl.jpg","affiliateLink":"https://www.awin1.com/pclick.php?p=36374905543&a=511345&m=22735","inStock":true},{"id":"36374905544","name":"Ride on Sliding Car Baby Toddler Horn Music Working Lights Storage No Power","description":"Ride in style with this fancy foot to floor ride-on from HOMCOM. Its red body and snazzy rims resemble a real car. Ideal for ages 18-36 months, the PP seats and high backrest allow young riders to use","price":45.99,"currency":"GBP","merchant":"Debenhams UK","brand":"Debenhams UK","category":"Toys","imageUrl":"https://media.debenhams.com/i/debenhams/m5056534527563_white_xl.jpg","affiliateLink":"https://www.awin1.com/pclick.php?p=36374905544&a=511345&m=22735","inStock":true},{"id":"37724235410","name":"Kids Ride On Quads Boys Girls LED Lights Horn Music Toys Racing Car","description":"Let your little adventurer forge paths all their own with this Kids Ride On Quad from HOMCOM. Smooth, quiet and simple ride for your toddler or young child. Rugged tires let your child ride through di","price":38.99,"currency":"GBP","merchant":"Debenhams UK","brand":"Debenhams UK","category":"Toys","imageUrl":"https://mediahub.debenhams.com/m5056029809655_red_xl","affiliateLink":"https://www.awin1.com/pclick.php?p=37724235410&a=511345&m=22735","inStock":true},{"id":"37724293601","name":"Children's Ride on Push Car Licensed Jeep Toddler","description":"Impress your little one with this Jeep licensed ride on push car! With striking stylish appearance and luxury details, toddlers will be attracted by this push ride-on car. It features 2 ways to use, a","price":39.95,"currency":"GBP","merchant":"Debenhams UK","brand":"Debenhams UK","category":"Toys","imageUrl":"https://mediahub.debenhams.com/m798470007055_pink_xl","affiliateLink":"https://www.awin1.com/pclick.php?p=37724293601&a=511345&m=22735","inStock":true},{"id":"41395996475","name":"Bugaboo Fox 5 Renew Essential 360 Travel & Nursery Bundle","description":"What's Included: Bugaboo Fox 5 Renew Pram Maxi Cosi Pebble 360 Car Seat Maxi Cosi FamilyFix 360 Base Bugaboo Fox 5 Car Seat Adaptors Babylo Cozi Sleeper 2 Bedside Crib Babylo Gravity Luxe Bouncer Buga","price":1499,"currency":"GBP","merchant":"Samuel Johnston","brand":"Samuel Johnston","category":"Baby Products","imageUrl":"https://cdn.shopify.com/s/files/1/0638/9199/6753/files/Indigo_8a3777fd-fb1d-4a20-b952-021a5cb0a616.jpg?v=1760010095","affiliateLink":"https://www.awin1.com/pclick.php?p=41395996475&a=511345&m=4888","inStock":true}]}