{"success":true,"query":"LEGO Star Wars","searchTerms":"LEGO lego star wars","extractedParams":{"keywords":["lego","star wars"],"brand":"LEGO"},"totalCount":133,"offset":10,"limit":10,"hasMore":true,"count":10,"products":[{"id":"25745749977","name":"LEGO Star Wars: Sith TIE Fighter Building Set (75272)","description":"IWOOT - Stuff you really, really wantLaunch a First Order mission with this super-fast Sith TIE Fighter! Prepare the starfighter at the docking tower. Leap into the cockpit and fly into battle. Hit to","price":64.99,"currency":"GBP","merchant":"Iwantoneofthose.com UK","brand":"LEGO","category":"Creative & Construction","imageUrl":"https://s4.thcdn.com/productimg/1600/1600/12385308-3924780553055672.jpg","affiliateLink":"https://www.awin1.com/pclick.php?p=25745749977&a=511345&m=1202","inStock":true},{"id":"25745749979","name":"LEGO Star Wars: Poe Dameron's X-wing Fighter Playset (75273)","description":"IWOOT - Stuff you really, really wantJoin the Resistance fleet with the awesome X-wing fighter! Climb into the cockpit with Poe Dameron. Make sure R2-D2 is sitting comfortably then launch! When you se","price":89.99,"currency":"GBP","merchant":"Iwantoneofthose.com UK","brand":"LEGO","category":"Creative & Construction","imageUrl":"https://s4.thcdn.com/productimg/1600/1600/12385309-2974887619293948.jpg","affiliateLink":"https://www.awin1.com/pclick.php?p=25745749979&a=511345&m=1202","inStock":true},{"id":"26372034213","name":"LEGO Star Wars: D-O Collectible Droid Building Set (75278)","description":"IWOOT - Stuff you really, really wantSpark memories of exciting Star Wars: The Rise of Skywalker movie scenes with this cool collectible LEGO Star Wars D-O (75278) droid building toy. Authentic detail","price":64.99,"currency":"GBP","merchant":"Iwantoneofthose.com UK","brand":"LEGO","category":"Creative & Construction","imageUrl":"https://s4.thcdn.com/productimg/1600/1600/12513810-1614757000639343.jpg","affiliateLink":"https://www.awin1.com/pclick.php?p=26372034213&a=511345&m=1202","inStock":true},{"id":"35346412443","name":"LEGO Star Wars: Imperial Light Cruiser Baby Yoda Set (75315)","description":"IWOOT - Stuff you really, really wantOpen up a galaxy of Star Wars: The Mandalorian Season 2 adventures for fans with this LEGO brick-built model of the Imperial Light Cruiser (75315) with The Child '","price":129.99,"currency":"GBP","merchant":"Iwantoneofthose.com UK","brand":"LEGO","category":"Creative & Construction","imageUrl":"https://s4.thcdn.com/productimg/1600/1600/13026568-1064876682704104.jpg","affiliateLink":"https://www.awin1.com/pclick.php?p=35346412443&a=511345&m=1202","inStock":true},{"id":"38240811499","name":"LEGO Star Wars Millennium Falcon Collector Series Set (75192)","description":"IWOOT - Stuff you really, really wantWelcome to the largest, most detailed LEGO® Star Wars Millennium Falcon model we've ever created-in fact, with 7,500 pieces it's one of our biggest LEGO models, pe","price":579.99,"currency":"GBP","merchant":"Iwantoneofthose.com UK","brand":"LEGO","category":"Creative & Construction","imageUrl":"https://s4.thcdn.com/productimg/1600/1600/12954858-1044857573163455.jpg","affiliateLink":"https://www.awin1.com/pclick.php?p=38240811499&a=511345&m=1202","inStock":true},{"id":"38934513395","name":"LEGO Star Wars: AT-TE Walker Set with Droid Figures (75337)","description":"IWOOT - Stuff you really, really wantYoung Padewans can recreate the Battle of Utapau with this fantastic LEGO Star Wars AT-TE Walker (75337). A great gift idea for Star Wars: Revenge of the Sith fans","price":99.99,"currency":"GBP","merchant":"Iwantoneofthose.com UK","brand":"LEGO","category":"Creative & Construction","imageUrl":"https://s4.thcdn.com/productimg/1600/1600/13882214-1584977309764052.jpg","affiliateLink":"https://www.awin1.com/pclick.php?p=38934513395&a=511345&m=1202","inStock":true},{"id":"42642710198","name":"LEGO Star Wars Venator-class Republic Attack Cruiser, Multi","description":"Measuring over 109 cm (43 in.) long, this buildable model makes a showstopping centrepiece in any room. It has a built-in display stand with an information plaque, special Clone Wars 20th-anniversary ","price":547.99,"currency":"GBP","merchant":"Robert Dyas","brand":"LEGO","category":"Other Toys","imageUrl":"https://www.robertdyas.co.uk/media/catalog/product/4/3/439908_2.jpg","affiliateLink":"https://www.awin1.com/pclick.php?p=42642710198&a=511345&m=1528","inStock":true},{"id":"35954400120","name":"LEGO Star Wars: Tenoo Jedi Temple 4+ Set with Yoda (75358)","description":"IWOOT - Stuff you really, really wantGive young fans an awesome first experience of building and playing in the LEGO Star Wars universe with this Tenoo Jedi Temple (75358) LEGO 4+ starter set. Become ","price":31.99,"currency":"GBP","merchant":"Iwantoneofthose.com UK","brand":"LEGO","category":"Creative & Construction","imageUrl":"https://s4.thcdn.com/productimg/1600/1600/14222758-3335059930944138.jpg","affiliateLink":"https://www.awin1.com/pclick.php?p=35954400120&a=511345&m=1202","inStock":true},{"id":"40690987942","name":"LEGO Star Wars The Dark Falcon Building Toy for Kids 75389","description":"","price":134.99,"currency":"GBP","merchant":"Iwantoneofthose.com UK","brand":"LEGO","category":"Creative & Construction","imageUrl":"https://s4.thcdn.com/productimg/1600/1600/15356769-3345161842036321.jpg","affiliateLink":"https://www.awin1.com/pclick.php?p=40690987942&a=511345&m=1202","inStock":true},{"id":"40690987961","name":"LEGO Star Wars Ambush on Mandalore Battle Pack Set 75373","description":"","price":19.99,"currency":"GBP","merchant":"Iwantoneofthose.com UK","brand":"LEGO","category":"Creative & Construction","imageUrl":"https://s4.thcdn.com/productimg/1600/1600/15356814-1135161868810175.jpg","affiliateLink":"https://www.awin1.com/pclick.php?p=40690987961&a=511345&m=1202","inStock":true}]}