{"success":true,"query":"Disney toys","searchTerms":"Disney disney toys","extractedParams":{"keywords":["disney","toys"],"brand":"Disney"},"totalCount":197,"offset":10,"limit":10,"hasMore":true,"count":10,"products":[{"id":"42997986957","name":"LEGO Brick Sketches Mickey Mouse 40456, Multi","description":"Incredible LEGO brick-built Disney Mickey Mouse portraitFans of Disney&#146;s iconic characters can build and display their own Mickey Mouse illustration with this LEGO Brick Sketches&#153; Mickey Mou","price":29.99,"currency":"GBP","merchant":"Robert Dyas","brand":"LEGO","category":"Other Toys","imageUrl":"https://www.robertdyas.co.uk/media/catalog/product/7/9/793925_1.jpg","affiliateLink":"https://www.awin1.com/pclick.php?p=42997986957&a=511345&m=1528","inStock":true},{"id":"42997986958","name":"LEGO Minnie Mouse Brick Sketches 40457, Multi","description":"Fabulous LEGO brick-built Disney Minnie Mouse portraitFans of Disney&#146;s iconic characters can build and display their own Minnie Mouse illustration with this LEGO Brick Sketches&#153; Minnie Mouse","price":29.99,"currency":"GBP","merchant":"Robert Dyas","brand":"LEGO","category":"Other Toys","imageUrl":"https://www.robertdyas.co.uk/media/catalog/product/7/9/793926_1.jpg","affiliateLink":"https://www.awin1.com/pclick.php?p=42997986958&a=511345&m=1528","inStock":true},{"id":"42997987014","name":"LEGO Disney King Magnifico&#146;s Castle 43224 Building Toy Set &#40;613 Pieces&#41;, Multi","description":"What will you find when you explore the castle of Rosas with Asha? This detailed LEGO | Disney set, based on the upcoming film from Walt Disney Animation Studios, Wish, lets you see what&#146;s going ","price":82.99,"currency":"GBP","merchant":"Robert Dyas","brand":"LEGO","category":"Other Toys","imageUrl":"https://www.robertdyas.co.uk/media/catalog/product/7/9/793982_1.jpg","affiliateLink":"https://www.awin1.com/pclick.php?p=42997987014&a=511345&m=1528","inStock":true},{"id":"42997987017","name":"LEGO Disney 100Th Years Celebration Gwp Exclusive Set 40600, Multi","description":"Wow any kid or fan aged 8+ with a gift celebrating Disney&#146;s 100th anniversary of magic, wonder and beloved animated characters. This LEGO | Disney: Disney 100 Years Celebration (40600) set featur","price":58.99,"currency":"GBP","merchant":"Robert Dyas","brand":"LEGO","category":"Other Toys","imageUrl":"https://www.robertdyas.co.uk/media/catalog/product/7/9/793985_1.jpg","affiliateLink":"https://www.awin1.com/pclick.php?p=42997987017&a=511345&m=1528","inStock":true},{"id":"42997987075","name":"LEGO Star Wars The Dark Falcon Buildable Toy Vehicle 75389, Multi","description":"Cool LEGO Star Wars&#153; set to rebuild the galaxy!Turn the LEGO Star Wars&#153; universe upside down with The Dark Falcon buildable toy vehicle set for kids (75389), which features a dark version of","price":154.99,"currency":"GBP","merchant":"Robert Dyas","brand":"LEGO","category":"Other Toys","imageUrl":"https://www.robertdyas.co.uk/media/catalog/product/7/9/794043_1.jpg","affiliateLink":"https://www.awin1.com/pclick.php?p=42997987075&a=511345&m=1528","inStock":true},{"id":"42997987074","name":"LEGO Star Wars Jedi Bob's Starfighter Building Toy Set 75388, Multi","description":"A legendary character and a Star Wars&#153; buildable toy vehicleIntroduce kids to the mystery character from a 2002 LEGO Star Wars&#153; set who became a fan favourite with Jedi Bob&#146;s Starfighte","price":38.99,"currency":"GBP","merchant":"Robert Dyas","brand":"LEGO","category":"Other Toys","imageUrl":"https://www.robertdyas.co.uk/media/catalog/product/7/9/794042_1.jpg","affiliateLink":"https://www.awin1.com/pclick.php?p=42997987074&a=511345&m=1528","inStock":true},{"id":"42997987274","name":"LEGO Disney Frozen Advent Calendar 43273 &#40;2025&#41;, Multi","description":"Advent calendar and a fun game for LEGO | Disney fansStart the Christmas countdown for girls, boys and fans aged 5 plus with an exciting Disney&#146;s Frozen Advent Calendar 2025 (43273) building kit,","price":32.99,"currency":"GBP","merchant":"Robert Dyas","brand":"LEGO","category":"Other Toys","imageUrl":"https://www.robertdyas.co.uk/media/catalog/product/7/9/794164_1.jpg","affiliateLink":"https://www.awin1.com/pclick.php?p=42997987274&a=511345&m=1528","inStock":true},{"id":"42997987286","name":"LEGO Disney Lilo And Stitch Beach House Building Kit Playset 43268, Multi","description":"LEGO Disney Lilo and Stitch Beach House Building Kit, Detailed Buildable Playset for Kids and Fans, Fun Pretend-Play Options for Girls and Boys Who Love the Characters and Spaceships 43268Hang out at ","price":75.99,"currency":"GBP","merchant":"Robert Dyas","brand":"LEGO","category":"Other Toys","imageUrl":"https://www.robertdyas.co.uk/media/catalog/product/7/9/794176_1.jpg","affiliateLink":"https://www.awin1.com/pclick.php?p=42997987286&a=511345&m=1528","inStock":true},{"id":"42997987287","name":"LEGO Disney 101 Dalmatians Puppy 43269, Multi","description":"LEGO | Disney adult building set with a rebuildable puppyEmbrace your love of puppies with this 101 Dalmatians Puppy (43269) LEGO | Disney building set. Celebrate a classic Disney hit and customize yo","price":128.99,"currency":"GBP","merchant":"Robert Dyas","brand":"LEGO","category":"Other Toys","imageUrl":"https://www.robertdyas.co.uk/media/catalog/product/7/9/794177_1.jpg","affiliateLink":"https://www.awin1.com/pclick.php?p=42997987287&a=511345&m=1528","inStock":true},{"id":"42997987290","name":"LEGO Disney Minnie&#146;s Pet Hotel Mickey Mouse Clubhouse 43274, Multi","description":"2-level LEGO | Disney building, 2 minifigures and 3 animalsFans of Disney&#146;s Mickey Mouse Clubhouse aged 4 years old and up can embrace nurturing play as they learn to build with this LEGO | Disne","price":38.99,"currency":"GBP","merchant":"Robert Dyas","brand":"LEGO","category":"Other Toys","imageUrl":"https://www.robertdyas.co.uk/media/catalog/product/7/9/794180_1.jpg","affiliateLink":"https://www.awin1.com/pclick.php?p=42997987290&a=511345&m=1528","inStock":true}]}