{"success":true,"query":"Nike trainers","searchTerms":"Nike nike trainers","extractedParams":{"keywords":["nike","trainers"],"brand":"Nike"},"totalCount":388,"offset":10,"limit":10,"hasMore":true,"count":10,"products":[{"id":"40889137667","name":"Nike Air Force 1 Embroidered Swoosh Junior - Grey","description":"From a court classic to a street legend, the AF1 is always evolving. Lace up in a JD-exclusive take with these juniors' Air Force 1 Embroidered Swoosh trainers from Nike. In a Sail and Light Bone colo","price":50,"currency":"GBP","merchant":"JD Sports UK","brand":"JD Sports UK","category":"Children's Footwear","imageUrl":"https://cdn.media.amplience.net/t/jpl/jd_product_list?plu=jd_752650_a&w=600&h=425&resmode=sharp&qlt=80&v=2&exclusive=0","affiliateLink":"https://www.awin1.com/pclick.php?p=40889137667&a=511345&m=1431","inStock":true},{"id":"40332342422","name":"Nike Cosmic Runner 4 Children - Black","description":"Upgrade your little one's rotation with these children's Cosmic Runner 4 trainers from Nike. In a Black colourway, these kicks have a coated mesh upper with synthetic elements for durable wear. They f","price":35,"currency":"GBP","merchant":"JD Sports UK","brand":"JD Sports UK","category":"Children's Footwear","imageUrl":"https://cdn.media.amplience.net/t/jpl/jd_product_list?plu=jd_727412_a&w=600&h=425&resmode=sharp&qlt=80&v=2","affiliateLink":"https://www.awin1.com/pclick.php?p=40332342422&a=511345&m=1431","inStock":true},{"id":"34110287899","name":"Nike  Air Force 1 Older Kids' Shoe - White - Kids","description":"Reimagining legendary style, these juniors' Air Force 1 Low sneaks from Nike are a modern take on the '82 icon. In a fresh white colourway, these downsized kicks are built with a smooth leather and sy","price":70,"currency":"GBP","merchant":"JD Sports UK","brand":"JD Sports UK","category":"Children's Footwear","imageUrl":"https://cdn.media.amplience.net/t/jpl/jd_product_list?plu=jd_027536_a&w=600&h=425&resmode=sharp&qlt=80&v=2","affiliateLink":"https://www.awin1.com/pclick.php?p=34110287899&a=511345&m=1431","inStock":true},{"id":"41396075230","name":"Nike Air Force 1 LV8 Junior - White","description":"Step into style that last with these juniors' Air Force 1 LV8 trainers from Nike. In a White colourway, these low-cut kicks keep the signature design lines with a leather and synthetic upper. They fea","price":50,"currency":"GBP","merchant":"JD Sports UK","brand":"JD Sports UK","category":"Children's Footwear","imageUrl":"https://cdn.media.amplience.net/t/jpl/jd_product_list?plu=jd_751974_a&w=600&h=425&resmode=sharp&qlt=80&v=2","affiliateLink":"https://www.awin1.com/pclick.php?p=41396075230&a=511345&m=1431","inStock":true},{"id":"42123927353","name":"Nike Air Max 95 Junior - Black","description":"A Swoosh legend. Only at JD. Don't miss these juniors' Air Max 95s. Combining the legendary design lines with an exclusive colourway, these trainers ride high on visible Air. Expect panels of textile ","price":80,"currency":"GBP","merchant":"JD Sports UK","brand":"JD Sports UK","category":"Children's Footwear","imageUrl":"https://cdn.media.amplience.net/t/jpl/jd_product_list?plu=jd_773183_a&w=600&h=425&resmode=sharp&qlt=80&v=2&exclusive=0","affiliateLink":"https://www.awin1.com/pclick.php?p=42123927353&a=511345&m=1431","inStock":true},{"id":"42184418902","name":"Nike Pegasus 41 Junior - Black","description":"Rack up the miles in these juniors' Pegasus 41 trainers from Nike. In a Black and White colourway, these treads have an airy engineered mesh upper with synthetic elements for durable wear. They have a","price":75,"currency":"GBP","merchant":"JD Sports UK","brand":"JD Sports UK","category":"Children's Footwear","imageUrl":"https://cdn.media.amplience.net/t/jpl/jd_product_list?plu=jd_700403_a&w=600&h=425&resmode=sharp&qlt=80&v=2","affiliateLink":"https://www.awin1.com/pclick.php?p=42184418902&a=511345&m=1431","inStock":true},{"id":"42285318641","name":"Nike Air Max 95 Recraft Infant - Black - Kids","description":"30 years of an icon. Now made for a new generation. These infants' Air Max 95 Recraft trainers from Nike are only at JD. Layers of mesh, textile, leather and synthetic leather take inspo from human mu","price":60,"currency":"GBP","merchant":"JD Sports UK","brand":"JD Sports UK","category":"Children's Footwear","imageUrl":"https://cdn.media.amplience.net/t/jpl/jd_product_list?plu=jd_773431_a&w=600&h=425&resmode=sharp&qlt=80&v=2&exclusive=0","affiliateLink":"https://www.awin1.com/pclick.php?p=42285318641&a=511345&m=1431","inStock":true},{"id":"43119295091","name":"Nike Air Max Phoenix Children - Black - Kids","description":"Add a bouny hit to their rotation with these children's Nike Air Max Phoenix trainers. Landing in black, these runners have an airy esh upper with a textured print. Elastic laces and a pull loop make ","price":70,"currency":"GBP","merchant":"JD Sports UK","brand":"JD Sports UK","category":"Children's Footwear","imageUrl":"https://cdn.media.amplience.net/t/jpl/jd_product_list?plu=jd_773445_a&w=600&h=425&resmode=sharp&qlt=80&v=2","affiliateLink":"https://www.awin1.com/pclick.php?p=43119295091&a=511345&m=1431","inStock":true},{"id":"41757711906","name":"Nike Air Force 1 '07 LV8 Children - Black","description":"Lace em up in a fan fave with these children's Air Force 1 '07 LV8 trainers from Nike. In an all-Black colourway, these kicks have a genuine and synthetic leather upper for a durable wear. They have a","price":55,"currency":"GBP","merchant":"JD Sports UK","brand":"JD Sports UK","category":"Children's Footwear","imageUrl":"https://cdn.media.amplience.net/t/jpl/jd_product_list?plu=jd_763518_a&w=600&h=425&resmode=sharp&qlt=80&v=2","affiliateLink":"https://www.awin1.com/pclick.php?p=41757711906&a=511345&m=1431","inStock":true},{"id":"35071405865","name":"Nike Air Force 1 Older Kids' Shoe - Black - Kids","description":"Reimagining legendary style, these juniors' Air Force 1 Low sneaks from Nike are a modern take on the '82 icon. Keeping Bruce Kilgore's OG design lines, these downsized kicks are built with a smooth l","price":70,"currency":"GBP","merchant":"JD Sports UK","brand":"JD Sports UK","category":"Children's Footwear","imageUrl":"https://cdn.media.amplience.net/t/jpl/jd_product_list?plu=jd_014125_a&w=600&h=425&resmode=sharp&qlt=80&v=2","affiliateLink":"https://www.awin1.com/pclick.php?p=35071405865&a=511345&m=1431","inStock":true}]}