{"success":true,"query":"kids books","searchTerms":"kids books","extractedParams":{"keywords":["kids","books"]},"totalCount":368,"offset":10,"limit":10,"hasMore":true,"count":10,"products":[{"id":"37931869488","name":"House-shaped Bookshelf Wooden Dollhouse Book Shelves Toy Cabinet Organizer","description":"Our cute house-shaped kids storage cabinet is perfect for providing an adorable and functional storage solution for your little one's treasures. Featuring ample storage space with 4 top storage slots ","price":49.95,"currency":"GBP","merchant":"Debenhams UK","brand":"Debenhams UK","category":"Toys","imageUrl":"https://mediahub.debenhams.com/m7984700911084_multi_xl","affiliateLink":"https://www.awin1.com/pclick.php?p=37931869488&a=511345&m=22735","inStock":true},{"id":"38443561973","name":"3 in 1 Art Easel Double-Sided Children Magnetic Dry Erase Board w/ Stool","description":"Description: Our 3-in-1 kids easel with stool is a perfect choice to inspire toddlers creativity and offer enough drawing or studying space. It has a book rack, dry-eraser board and a writing desktop,","price":54.95,"currency":"GBP","merchant":"Debenhams UK","brand":"Debenhams UK","category":"Toys","imageUrl":"https://mediahub.debenhams.com/m7984700582864_navy_xl","affiliateLink":"https://www.awin1.com/pclick.php?p=38443561973&a=511345&m=22735","inStock":true},{"id":"38871623425","name":"Squillions of Amazing Facts to Knock Your Socks Off!","description":"What do you buy the person who has everything? Squillions of Amazing Facts to Knock Your Socks Off!The perfect gift to captivate curious minds, Squillions of Amazing Facts to Knock Your Socks Off! is ","price":8.99,"currency":"GBP","merchant":"TGJones","brand":"TGJones","category":"Books","imageUrl":"https://whs.dmmserver.com/media/640/97818049/9781804953709.jpg","affiliateLink":"https://www.awin1.com/pclick.php?p=38871623425&a=511345&m=3017","inStock":true},{"id":"38871623316","name":"Only and Forever","description":"'A stunning mix of hilarious tropes, swoony romance and lovable, relatable characters.A must read for every romance lover!!' Ali Hazelwood, author of The Love Hypothesis_____A room-mance for the books","price":9.99,"currency":"GBP","merchant":"TGJones","brand":"TGJones","category":"Books","imageUrl":"https://whs.dmmserver.com/media/640/97818049/9781804944738.jpg","affiliateLink":"https://www.awin1.com/pclick.php?p=38871623316&a=511345&m=3017","inStock":true},{"id":"38871623284","name":"Fight For Your Life","description":"'Very open and honest' talkSPORTSome people are born to be sports stars.I wasn't one of them. I was born to be . . . actually what was I born to be? Probably, like most Asian kids growing up in the la","price":12.99,"currency":"GBP","merchant":"TGJones","brand":"TGJones","category":"Books","imageUrl":"https://whs.dmmserver.com/media/640/97818049/9781804944509.jpg","affiliateLink":"https://www.awin1.com/pclick.php?p=38871623284&a=511345&m=3017","inStock":true},{"id":"38882070003","name":"In Universes","description":"'An explosion of creative beauty and heart . . . a massively talented writer arriving ready to awe' NANA KWAME ADJEI-BRENYAH, author of CHAIN-GANG ALL-STARS'Dazzling and inventive . . . a breathtaking","price":9.99,"currency":"GBP","merchant":"TGJones","brand":"TGJones","category":"Books","imageUrl":"https://whs.dmmserver.com/media/640/97818049/9781804954072.jpg","affiliateLink":"https://www.awin1.com/pclick.php?p=38882070003&a=511345&m=3017","inStock":true},{"id":"38871592425","name":"An Astronomer's Tale : A Bricklayer’s Guide to the Galaxy","description":"A Bricklayer's Guide to the Galaxy . . . The inspirational memoir of a former brickie who followed his passion for the stars and built his own observatory.Perfect for readers of Robert Macfarlane, Hel","price":12.99,"currency":"GBP","merchant":"TGJones","brand":"TGJones","category":"Books","imageUrl":"https://whs.dmmserver.com/media/640/97817847/9781784754389.jpg","affiliateLink":"https://www.awin1.com/pclick.php?p=38871592425&a=511345&m=3017","inStock":true},{"id":"41226646988","name":"LEGO Harry Potter Book Nook: Hogwarts Express Toy Set 76450","description":"Bring wizardry to kids’ bookshelves with the first-ever LEGO Harry Potter book nook (76450), featuring a buildable section of the Hogwarts Express – a creative way to make an enchanting book display.T","price":74.99,"currency":"GBP","merchant":"Zavvi UK","brand":"LEGO","category":"Toys","imageUrl":"https://s4.thcdn.com/productimg/1600/1600/16717348-6365240132844909.jpg","affiliateLink":"https://www.awin1.com/pclick.php?p=41226646988&a=511345&m=2549","inStock":true},{"id":"43439774519","name":"LEGO Friends Horse Stable and Riding Academy Toy 42688","description":"Saddle up for fun times as nature fans explore the LEGO Friends Horse Stable and Riding Academy (42688) toy for 7+ year old girls and boys. Play out every stage of caring for horses as Liann and Aliya","price":69.99,"currency":"GBP","merchant":"Zavvi UK","brand":"LEGO","category":"Toys","imageUrl":"https://s4.thcdn.com/productimg/1600/1600/17650756-1995295637133598.jpg","affiliateLink":"https://www.awin1.com/pclick.php?p=43439774519&a=511345&m=2549","inStock":true},{"id":"42067919731","name":"Costway Kids Dress up Storage with Mirror-White, White","description":"Looking for a kid&#146;s wardrobe to reduce clutter? This kid&#146;s dress-up center can meet your needs. It features 1 solid wood clothes hanger, 1 upper storage shelf with baffles, 2 bottom storage ","price":64.99,"currency":"GBP","merchant":"Robert Dyas","brand":"Robert Dyas","category":"Decorations","imageUrl":"https://www.robertdyas.co.uk/media/catalog/product/7/1/717139_1.jpg","affiliateLink":"https://www.awin1.com/pclick.php?p=42067919731&a=511345&m=1528","inStock":true}]}