{"success":true,"query":"board games family","searchTerms":"board games family","extractedParams":{"keywords":["board","games","family"]},"totalCount":27,"offset":10,"limit":10,"hasMore":true,"count":10,"products":[{"id":"41690754458","name":"Premier Housewares Pun & Games Cheese Board with Glass Dome","description":"You can fulfil your dreams with this Pun & Games Cheese Board with Glass Dome from Premier Housewares. This is a trendy cheese board that's finished in white with black wording stating “sweet dreams a","price":25.99,"currency":"GBP","merchant":"Robert Dyas","brand":"Robert Dyas","category":"Decorations","imageUrl":"https://www.robertdyas.co.uk/media/catalog/product/u/n/untitled-1_0003_221304_12.jpg","affiliateLink":"https://www.awin1.com/pclick.php?p=41690754458&a=511345&m=1528","inStock":true},{"id":"40639251804","name":"Family Face-Off : The Ultimate Book of Family Games to Bring Everyone Together (or Tear Each Other Apart!)—150+ Games!","description":"Spend time with the ones you love . . . while kicking their butts! A play-anywhere collection of 150+ family challenges inspired by the party games and silly contests popular on social media. Gather t","price":14.99,"currency":"GBP","merchant":"TGJones","brand":"TGJones","category":"Books","imageUrl":"https://whs.dmmserver.com/media/640/97817972/9781797233994.jpg","affiliateLink":"https://www.awin1.com/pclick.php?p=40639251804&a=511345&m=3017","inStock":true},{"id":"37724342969","name":"Bean Bag Toss Portable Professional Cornhole Game Set 8 Bean Bags 2 Play Boards","description":"This aluminum alloy game board is made of high-density board and it's frame iswrapped with aluminum alloy makes it sturdy.And the scaffolding is also made of solid aluminium material that ensure the g","price":89.95,"currency":"GBP","merchant":"Debenhams UK","brand":"Debenhams UK","category":"Toys","imageUrl":"https://mediahub.debenhams.com/m9984709854564_black_xl","affiliateLink":"https://www.awin1.com/pclick.php?p=37724342969&a=511345&m=22735","inStock":true},{"id":"40639251861","name":"House of Novelties Backgammon","description":"Round up friends and family to play House of Novelties Backgammon from Ridley’s Games!This is the ultimate test of strategy and intelligence (mixed with a little bit of luck!). Keep your wits sharp as","price":14,"currency":"GBP","merchant":"TGJones","brand":"TGJones","category":"Books","imageUrl":"https://whs.dmmserver.com/media/640/97817972/9781797237978.jpg","affiliateLink":"https://www.awin1.com/pclick.php?p=40639251861&a=511345&m=3017","inStock":true},{"id":"40639251865","name":"House of Novelties Draughts","description":"Find a friend who’s up for the challenge, and let the tournament commence with this House of Novelties Draughts set from Ridley’s Games!Use logic, strategy, and ingenuity to capture your opponent’s pi","price":14,"currency":"GBP","merchant":"TGJones","brand":"TGJones","category":"Books","imageUrl":"https://whs.dmmserver.com/media/640/97817972/9781797238012.jpg","affiliateLink":"https://www.awin1.com/pclick.php?p=40639251865&a=511345&m=3017","inStock":true},{"id":"41969027140","name":"Costway Portable Round Blackjack Board Game Mat with Carrying Bag-Green, Green","description":"Our 120 cm 6-player foldable poker table top provides ample space for your friends and family to gather around and enjoy classic card games like Texas Hold&#146;em and Blackjack, play chess games, or ","price":74.99,"currency":"GBP","merchant":"Robert Dyas","brand":"Robert Dyas","category":"Games, Puzzles & Learning","imageUrl":"https://www.robertdyas.co.uk/media/catalog/product/7/0/707343_1.jpg","affiliateLink":"https://www.awin1.com/pclick.php?p=41969027140&a=511345&m=1528","inStock":true},{"id":"34862023831","name":"HOMCOM 1.2M/48Inch Foldable Poker Table, Green","description":"Have a great evening in with your friends and family with this poker table, it has the ability to be folded for easy storage or to take the game on the road, perfect for camping or parties. It&#146;s ","price":34.99,"currency":"GBP","merchant":"Robert Dyas","brand":"Robert Dyas","category":"Games, Puzzles & Learning","imageUrl":"https://www.robertdyas.co.uk/media/catalog/product/3/6/368470_1.jpg","affiliateLink":"https://www.awin1.com/pclick.php?p=34862023831&a=511345&m=1528","inStock":true},{"id":"42745998411","name":"LEGO Traditional Chess Set 40719, Multi","description":"A fun version of the beloved family board game, this buildable chess set includes chess and checkers pieces, so budding strategists can enjoy two games in one. Intricate details include minifigure sta","price":62.99,"currency":"GBP","merchant":"Robert Dyas","brand":"LEGO","category":"Other Toys","imageUrl":"https://www.robertdyas.co.uk/media/catalog/product/7/8/789911_1.jpg","affiliateLink":"https://www.awin1.com/pclick.php?p=42745998411&a=511345&m=1528","inStock":true},{"id":"38771171416","name":"6-In-1  & Adults Combo Game Table Multi Family Game Table w/ Basketball","description":"Enhance your family gatherings and create memorable moments with the versatile and entertaining 6-in-1 game table set. This combo game table is perfect for family gatherings, parties, or as a gift for","price":69.95,"currency":"GBP","merchant":"Debenhams UK","brand":"Debenhams UK","category":"Games, Puzzles & Learning","imageUrl":"https://mediahub.debenhams.com/m7984700616828_multi_xl","affiliateLink":"https://www.awin1.com/pclick.php?p=38771171416&a=511345&m=22735","inStock":true},{"id":"41674282440","name":"COSTWAY Folding Cardboard Game Table with 8 Cup Holders and Comfy Armrests-Green, Green","description":"It can be folded into a compact size when not in use, allowing you to easy to transport and store. Besides, this game table includes 8 built-in cup holders to keep your beverages secure, while the pad","price":112.99,"currency":"GBP","merchant":"Robert Dyas","brand":"Robert Dyas","category":"Games, Puzzles & Learning","imageUrl":"https://www.robertdyas.co.uk/media/catalog/product/6/8/688976_1.jpg","affiliateLink":"https://www.awin1.com/pclick.php?p=41674282440&a=511345&m=1528","inStock":true}]}