{"success":true,"query":"outdoor garden toys","searchTerms":"outdoor garden toys","extractedParams":{"keywords":["outdoor","garden","toys"]},"totalCount":182,"offset":10,"limit":10,"hasMore":true,"count":10,"products":[{"id":"40310041671","name":"Outsunny Garden Swing Set with Double Swings, Green","description":"Is your child missing their playground activities in school? With this outdoor baby swing from Outsunny, your family will spend more time engaging with the outdoors and establishing fundamental motor ","price":155.99,"currency":"GBP","merchant":"Robert Dyas","brand":"Robert Dyas","category":"Outdoor Toys","imageUrl":"https://www.robertdyas.co.uk/media/catalog/product/4/3/432308_1.jpg","affiliateLink":"https://www.awin1.com/pclick.php?p=40310041671&a=511345&m=1528","inStock":true},{"id":"36626403955","name":"Outsunny Round Multicoloured Saucer Swing, Multi","description":"Give the kids hours of fun with this saucer tree swing from Outsunny, ideal for encouraging them to get outside in the fresh summers air and play. The round shape is created by the metal frame for a s","price":34.99,"currency":"GBP","merchant":"Robert Dyas","brand":"Robert Dyas","category":"Outdoor Toys","imageUrl":"https://www.robertdyas.co.uk/media/catalog/product/2/6/261110_5.jpg","affiliateLink":"https://www.awin1.com/pclick.php?p=36626403955&a=511345&m=1528","inStock":true},{"id":"40741240693","name":"Outsunny Metal 2 Swings & Seesaw Set - Green, Purple","description":"Double the fun for children's playtime, thanks to this outdoor swing sets for kidsfrom Outsunny. The design comes with two swing seats and a double-seat glider, which breezes back and forth smoothly: ","price":79.99,"currency":"GBP","merchant":"Robert Dyas","brand":"Robert Dyas","category":"Outdoor Toys","imageUrl":"https://www.robertdyas.co.uk/media/catalog/product/4/3/432307_1.jpg","affiliateLink":"https://www.awin1.com/pclick.php?p=40741240693&a=511345&m=1528","inStock":true},{"id":"43047065700","name":"vidaXL Outdoor Playset Solid Wood Pine, Brown","description":"Do you want to give your children the freedom to play at home? This wooden outdoor playset transforms your backyard into a playground for imaginative adventures! Warning. Not suitable for children und","price":321.99,"currency":"GBP","merchant":"Robert Dyas","brand":"Robert Dyas","category":"Outdoor Toys","imageUrl":"https://www.robertdyas.co.uk/media/catalog/product/6/8/686927_1.jpg","affiliateLink":"https://www.awin1.com/pclick.php?p=43047065700&a=511345&m=1528","inStock":true},{"id":"37653789582","name":"Outsunny Kids Wooden Sandpit, Sandbox with Canopy, Seats, for Gardens - Grey, Grey","description":"Transform your outdoor space into a mini beach, where kids will enjoy playing, digging and making sandcastles. This Outsunny kids sandbox comes with an adjustable canopy-even if it's boiling hot, kids","price":85.99,"currency":"GBP","merchant":"Robert Dyas","brand":"Robert Dyas","category":"Outdoor Toys","imageUrl":"https://www.robertdyas.co.uk/media/catalog/product/4/5/451525_1.jpg","affiliateLink":"https://www.awin1.com/pclick.php?p=37653789582&a=511345&m=1528","inStock":true},{"id":"40104458185","name":"Outsunny 3 in 1 Metal Kids Swing Set - Orange, Orange","description":"Enjoy hours of fun with the Outsunny kids swing. A spacious disc shape, it fits two kids at once, so they can enjoy playing with friends or siblings. With UV-resistant metal pipes and water-resistant ","price":120.99,"currency":"GBP","merchant":"Robert Dyas","brand":"Robert Dyas","category":"Outdoor Toys","imageUrl":"https://www.robertdyas.co.uk/media/catalog/product/4/3/432311_1.jpg","affiliateLink":"https://www.awin1.com/pclick.php?p=40104458185&a=511345&m=1528","inStock":true},{"id":"40782925873","name":"Outsunny Sand Pit with Canopy, Blackboard, Toys, Sink, Seats, Flags for Kids, Grey","description":"With this Outsunny sandbox, kids can play, dig and make sandcastles, enjoying hours of fun. Great for the outdoors, its canopy shelters them from hot weather and light rain, whilst the bottomless desi","price":86.99,"currency":"GBP","merchant":"Robert Dyas","brand":"Robert Dyas","category":"Outdoor Toys","imageUrl":"https://www.robertdyas.co.uk/media/catalog/product/6/0/600128_1.jpg","affiliateLink":"https://www.awin1.com/pclick.php?p=40782925873&a=511345&m=1528","inStock":true},{"id":"37641221030","name":"vidaXL Kids Swing Seat Green, Green","description":"This swing seat will be perfect for children to enjoy themselves and relax in the garden or on the patio. With a heavy-duty steel frame, this swing bench is very sturdy and robust, which provides safe","price":95.99,"currency":"GBP","merchant":"Robert Dyas","brand":"Robert Dyas","category":"Outdoor Toys","imageUrl":"https://www.robertdyas.co.uk/media/catalog/product/3/3/339101_1.jpg","affiliateLink":"https://www.awin1.com/pclick.php?p=37641221030&a=511345&m=1528","inStock":true},{"id":"41612155707","name":"vidaXL Outdoor Swing Seat for Kids Single with Adjustable Rope Red, Red","description":"This outdoor swing seat is an ideal addition to any swing set or climbing frame. It's a great way for kids to have fun and stay active in their backyard. Warning. Not suitable for children under 3 yea","price":18.99,"currency":"GBP","merchant":"Robert Dyas","brand":"Robert Dyas","category":"Outdoor Toys","imageUrl":"https://www.robertdyas.co.uk/media/catalog/product/6/8/686889_1.jpg","affiliateLink":"https://www.awin1.com/pclick.php?p=41612155707&a=511345&m=1528","inStock":true},{"id":"41612155757","name":"vidaXL Outdoor Playset Solid Wood Douglas, Brown","description":"Do you want to give your children the freedom to play at home? This wooden outdoor playset transforms your backyard into a playground for imaginative adventures! Warning. Not suitable for children und","price":438.99,"currency":"GBP","merchant":"Robert Dyas","brand":"Robert Dyas","category":"Outdoor Toys","imageUrl":"https://www.robertdyas.co.uk/media/catalog/product/6/8/686977_1.jpg","affiliateLink":"https://www.awin1.com/pclick.php?p=41612155757&a=511345&m=1528","inStock":true}]}