{"success":true,"query":"Marvel superhero","searchTerms":"marvel superhero","extractedParams":{"keywords":["marvel","superhero"]},"totalCount":72,"offset":10,"limit":10,"hasMore":true,"count":10,"products":[{"id":"36642682526","name":"Superhero Puzzle Eraser Set Pack of 5 Figures","description":"Marvel Toys For Boys Age 3+, Pack Of 5 Collectable Action Figures Set With Superhero Spiderman Iron Man Captain America Hulk And 1 Surprise Character, Novelty Erasers For Kids, Official Avengers Gifts","price":10.49,"currency":"GBP","merchant":"Debenhams UK","brand":"Debenhams UK","category":"Gifts","imageUrl":"https://media.debenhams.com/i/debenhams/m5056219056364_multi_xl.jpg","affiliateLink":"https://www.awin1.com/pclick.php?p=36642682526&a=511345&m=22735","inStock":true},{"id":"36733548626","name":"Spiderman Pencil Case","description":"Marvel Spiderman Large Pencil Case, Filled Pencil Case with Coloured Pencils, Pencil Sharpener, Childrens Scissors, Colouring Pens, Triangle Ruler, Ruler, Protractor, Eraser, Pen, Marvel Gifts. SPIDER","price":16.29,"currency":"GBP","merchant":"Debenhams UK","brand":"Debenhams UK","category":"Gifts","imageUrl":"https://media.debenhams.com/i/debenhams/m5056225469790_multi_xl.jpg","affiliateLink":"https://www.awin1.com/pclick.php?p=36733548626&a=511345&m=22735","inStock":true},{"id":"36733548624","name":"Superheroes Print Pencil Case","description":"Marvel Large Pencil Case, Filled Pencil Cases with Avengers Stationary Sets, Marvel Gifts for Boys. AVENGERS PENCIL CASE. The ultimate Marvel gifts for kids! The cool filled pencil case is made with h","price":15.49,"currency":"GBP","merchant":"Debenhams UK","brand":"Debenhams UK","category":"Gifts","imageUrl":"https://media.debenhams.com/i/debenhams/m5056225469769_multi_xl.jpg","affiliateLink":"https://www.awin1.com/pclick.php?p=36733548624&a=511345&m=22735","inStock":true},{"id":"36733548630","name":"Superhero Pencil Case","description":"Marvel Pencil Case, Stationery Supplies Avengers Filled Pencil Case, Stationery Sets School Supplies. AVENGERS PENCIL CASE FOR BOYS official Marvel Avenger big pencil case featuring a superheroes desi","price":16.29,"currency":"GBP","merchant":"Debenhams UK","brand":"Debenhams UK","category":"Gifts","imageUrl":"https://media.debenhams.com/i/debenhams/m5056225490282_multi_xl.jpg","affiliateLink":"https://www.awin1.com/pclick.php?p=36733548630&a=511345&m=22735","inStock":true},{"id":"36733548635","name":"Spiderman Pencil Case","description":"Spiderman Pencil Case for Kids - Official Marvel Merch. With multiple compartments and a trendy comic style print, this Marvel pencil case is the perfect back to school gift. Double compartment school","price":14.99,"currency":"GBP","merchant":"Debenhams UK","brand":"Debenhams UK","category":"Gifts","imageUrl":"https://media.debenhams.com/i/debenhams/m5056225499322_multi_xl.jpg","affiliateLink":"https://www.awin1.com/pclick.php?p=36733548635&a=511345&m=22735","inStock":true},{"id":"36645740598","name":"Marvel Heroes 4 Pens Set","description":"Set of 4 Marvel pens. Make school a lot more fun with these Marvel stationary sets for boys Pens multipack of 4 Marvel superhero pens, black ink Includes Captain America, Hulk, Iron Man and Spiderman ","price":10.99,"currency":"GBP","merchant":"Debenhams UK","brand":"Marvel","category":"Gifts","imageUrl":"https://media.debenhams.com/i/debenhams/m5056225498868_multi_xl.jpg","affiliateLink":"https://www.awin1.com/pclick.php?p=36645740598&a=511345&m=22735","inStock":true},{"id":"36659073677","name":"Spiderman 3D Squishy Notebook","description":"Marvel Spiderman 3D Diary Stationery Set!. The Marvel Spiderman 3D Notebook is a must-have for kids who are fans of the iconic superhero! Not only does it feature an eye-catching 3D design of Spiderma","price":12.99,"currency":"GBP","merchant":"Debenhams UK","brand":"Debenhams UK","category":"Gifts","imageUrl":"https://media.debenhams.com/i/debenhams/m5056503828882_multi_xl.jpg","affiliateLink":"https://www.awin1.com/pclick.php?p=36659073677&a=511345&m=22735","inStock":true},{"id":"37724206389","name":"76156 Marvel Rise of the Domo","description":"LEGO Marvel Rise of the Domo (76156) lets kids explore the detailed interior of the Eternals spaceship then recreate the final battle with 6 superhero minifigures and 2 evil Deviants.. If youre lookin","price":93.99,"currency":"GBP","merchant":"Debenhams UK","brand":"Marvel","category":"Toys","imageUrl":"https://mediahub.debenhams.com/m5702016619362_multi_xl","affiliateLink":"https://www.awin1.com/pclick.php?p=37724206389&a=511345&m=22735","inStock":true},{"id":"37724354858","name":"76241 Super Heroes Hulk Mech","description":"Young superheroes can transform the mighty Hulk into a bigger battling machine with this LEGO Marvel Hulk Mech Armour figure building toy set.. This LEGO Avengers figure set includes a buildable Hulk ","price":17.99,"currency":"GBP","merchant":"Debenhams UK","brand":"Debenhams UK","category":"Toys","imageUrl":"https://mediahub.debenhams.com/m5702017419619_multi_xl","affiliateLink":"https://www.awin1.com/pclick.php?p=37724354858&a=511345&m=22735","inStock":true},{"id":"38871646342","name":"Pinewood: The Story of an Iconic Studio","description":"For eighty years, Pinewood Studios has made dreams a reality.Billions of people across the globe, of all ages, from all walks of life have read six words on cinema or television screens: 'Made at Pine","price":40,"currency":"GBP","merchant":"TGJones","brand":"TGJones","category":"Books","imageUrl":"https://whs.dmmserver.com/media/640/97818480/9781848094864.jpg","affiliateLink":"https://www.awin1.com/pclick.php?p=38871646342&a=511345&m=3017","inStock":true}]}