{"success":true,"query":"Harry Potter gifts","searchTerms":"harry potter gifts","extractedParams":{"keywords":["harry","potter","gifts"]},"totalCount":198,"offset":10,"limit":10,"hasMore":true,"count":10,"products":[{"id":"35631343057","name":"Harry Potter Golden Snitch Keyring and Pin Badge - Silver","description":"IWOOT - Stuff you really, really wantGolden snitch silver plated necklace & earring set. Necklace size (approx): 16inch. Charm size (approx): 0.3 x 1.45in. Come in a gift box. Official licensed produc","price":14.99,"currency":"GBP","merchant":"Iwantoneofthose.com UK","brand":"Iwantoneofthose.com UK","category":"Gifts","imageUrl":"https://s4.thcdn.com/productimg/1600/1600/12526740-3444857562399842.jpg","affiliateLink":"https://www.awin1.com/pclick.php?p=35631343057&a=511345&m=1202","inStock":true},{"id":"35613557751","name":"Harry Potter Rotating Time Turner Keyring","description":"IWOOT - Stuff you really, really wantOfficial Harry Potter Time Turner Keyring on a silver plated ring and clipWorn by Hermione Granger, the Time Turner played a huge part in the Prisoner of AzkabanTh","price":9.99,"currency":"GBP","merchant":"Iwantoneofthose.com UK","brand":"Iwantoneofthose.com UK","category":"Gifts","imageUrl":"https://s4.thcdn.com/productimg/1600/1600/12903413-3424858563535872.jpg","affiliateLink":"https://www.awin1.com/pclick.php?p=35613557751&a=511345&m=1202","inStock":true},{"id":"41084256211","name":"Harry Potter Sterling Silver Glasses and Lightning Bolt Necklace","description":"Official Silver Plated Harry Potter Merchandise by The Carat Shop Silver Plated Lightning Bolt with glasses Charm on a Necklace The Necklace is a silver plated chain which is 16 inches in length with ","price":39.99,"currency":"GBP","merchant":"Zavvi UK","brand":"Zavvi UK","category":"Gifts","imageUrl":"https://s4.thcdn.com/productimg/1600/1600/12526745-8624858583846055.jpg","affiliateLink":"https://www.awin1.com/pclick.php?p=41084256211&a=511345&m=2549","inStock":true},{"id":"35397105119","name":"Harry Potter Sterling Silver Platform 9 3/4 Necklace Embellished with Swarovski Crystals","description":"Set off on the Hogwarts Express in style with this beautiful Sterling Silver Clip on Charm. This Harry Potter Charm is officially licensed and makes a lovely addition to your Harry Potter Jewellery co","price":57.99,"currency":"GBP","merchant":"Zavvi UK","brand":"Zavvi UK","category":"Gifts","imageUrl":"https://s4.thcdn.com/productimg/1600/1600/12526744-1024763166827502.jpg","affiliateLink":"https://www.awin1.com/pclick.php?p=35397105119&a=511345&m=2549","inStock":true},{"id":"41638861646","name":"Harry Potter Time Turner Pen","description":"Official Harry Potter Metallic Time Turner Pen Silver Metallic Pen with Time Turner top. The Time Turner was given to Hermione so that she could attend more Hogwarts lessons than was physically possib","price":12.99,"currency":"GBP","merchant":"Zavvi UK","brand":"Zavvi UK","category":"Novelty Gifts","imageUrl":"https://s4.thcdn.com/productimg/1600/1600/12263554-1684858807181169.jpg","affiliateLink":"https://www.awin1.com/pclick.php?p=41638861646&a=511345&m=2549","inStock":true},{"id":"41215066745","name":"Harry Potter Hogwarts Acceptance Letter Necklace","description":"Official Harry Potter Acceptance Letter Necklace Hogwarts Acceptance Letter Charm on a silver plated Necklace This charm has been created using the official style guide from Warner Bros. The charm is ","price":9.99,"currency":"GBP","merchant":"Zavvi UK","brand":"Zavvi UK","category":"Gifts","imageUrl":"https://s4.thcdn.com/productimg/1600/1600/12263549-2504858624199364.jpg","affiliateLink":"https://www.awin1.com/pclick.php?p=41215066745&a=511345&m=2549","inStock":true},{"id":"39123946891","name":"Harry Potter &#40;platform 9 3&#47;4&#41; Gift Set &#40;mug&#44; Coaster &#38; Keychain&#41;, Multi","description":"Harry Potter has become one of the best-known fictional characters in the world. Based on the bestselling series of novels written by J.K. Rowling, the story takes place in a magical world of Wizards ","price":10.99,"currency":"GBP","merchant":"Robert Dyas","brand":"Robert Dyas","category":"Christmas Gifts","imageUrl":"https://www.robertdyas.co.uk/media/catalog/product/4/7/478312_1.jpg","affiliateLink":"https://www.awin1.com/pclick.php?p=39123946891&a=511345&m=1528","inStock":true},{"id":"39123946887","name":"Harry Potter &#40;classic Crest Slytherin&#41; Oval Mug, Multi","description":"Harry Potter has become one of the best-known fictional characters in the world. Based on the bestselling series of novels written by J.K. Rowling, the story takes place in a magical world of Wizards ","price":10.99,"currency":"GBP","merchant":"Robert Dyas","brand":"Robert Dyas","category":"Christmas Gifts","imageUrl":"https://www.robertdyas.co.uk/media/catalog/product/4/7/478306_1.jpg","affiliateLink":"https://www.awin1.com/pclick.php?p=39123946887&a=511345&m=1528","inStock":true},{"id":"39123946850","name":"Harry Potter &#40;dark&#41; Slim Plastic Bottle, Multi","description":"Harry Potter has become one of the best-known fictional characters in the world. Based on the bestselling series of novels written by J.K. Rowling, the story takes place in a magical world of Wizards ","price":7.99,"currency":"GBP","merchant":"Robert Dyas","brand":"Robert Dyas","category":"Christmas Gifts","imageUrl":"https://www.robertdyas.co.uk/media/catalog/product/4/7/478287_1.jpg","affiliateLink":"https://www.awin1.com/pclick.php?p=39123946850&a=511345&m=1528","inStock":true},{"id":"39123946902","name":"Harry Potter &#40;quidditch&#41; 3D Sculpted Mug, Multi","description":"Harry Potter has become one of the best-known fictional characters in the world. Based on the bestselling series of novels written by J.K. Rowling, the story takes place in a magical world of Wizards ","price":13.99,"currency":"GBP","merchant":"Robert Dyas","brand":"Robert Dyas","category":"Christmas Gifts","imageUrl":"https://www.robertdyas.co.uk/media/catalog/product/4/7/478326_1.jpg","affiliateLink":"https://www.awin1.com/pclick.php?p=39123946902&a=511345&m=1528","inStock":true}]}