{"success":true,"query":"LEGO Star Wars","searchTerms":"LEGO lego star wars","extractedParams":{"keywords":["lego","star wars"],"brand":"LEGO"},"totalCount":6573,"offset":10,"limit":10,"hasMore":true,"count":10,"products":[{"id":"41892931146","name":"Personalised My 1st Christmas 2025 Pink Star Sleepsuit","description":"CLet them sparkle and shine like the star they are in our personalised My 1st Christmas sleepsuit. This dreamy baby essential is sprinkled with all-over pink stars – perfect for capturing all those pr","price":28,"currency":"GBP","merchant":"My 1st Years","brand":"My 1st Years","category":"Gifts","imageUrl":"https://www.my1styears.com/media/catalog/product/s/e/se_60111844-first-christmas-2024---star-sleepsuit---pink-1.jpg","affiliateLink":"https://www.awin1.com/pclick.php?p=41892931146&a=511345&m=3964","inStock":true},{"id":"41892931150","name":"Personalised My 1st Christmas 2025 Blue Star Sleepsuit","description":"Let your little star shine bright in our personalised my 1st Christmas blue star sleepsuit. Sprinkled with twinkling blue stars like a dreamy night sky, this heavenly-soft outfit is perfect for captur","price":28,"currency":"GBP","merchant":"My 1st Years","brand":"My 1st Years","category":"Gifts","imageUrl":"https://www.my1styears.com/media/catalog/product/s/e/se_60111845-first-christmas-2024---star-sleepsuit---blue-1.jpg","affiliateLink":"https://www.awin1.com/pclick.php?p=41892931150&a=511345&m=3964","inStock":true},{"id":"36135047310","name":"Personalised Wooden Star Stacker Toy FSC®","description":"Delight curious tots with our personalised wooden star stacker toy. Little learners can get hours of fun and educational play out of this adorable wooden toy as they stack and remove the star-shaped r","price":27,"currency":"GBP","merchant":"My 1st Years","brand":"My 1st Years","category":"Gifts","imageUrl":"https://www.my1styears.com/media/catalog/product/5/0/50112062core-star-stacker-a_1_.jpg","affiliateLink":"https://www.awin1.com/pclick.php?p=36135047310&a=511345&m=3964","inStock":true},{"id":"37279201102","name":"Personalised Pink Star Jersey Sleepsuit","description":"Soothe a tiny tot into dreamland with our personalised pink star-design jersey sleepsuit. Designed with love in a calming ivory shade, this sleepsuit is embroidered with a smattering of pink stars. Th","price":28,"currency":"GBP","merchant":"My 1st Years","brand":"My 1st Years","category":"Children's Clothing","imageUrl":"https://www.my1styears.com/media/catalog/product/_/s/_se_30112316-jersey-sleepsuit-pink-star-model.jpg","affiliateLink":"https://www.awin1.com/pclick.php?p=37279201102&a=511345&m=3964","inStock":true},{"id":"39816619702","name":"Personalised Born in Collection Pink Star Design Sleepsuit","description":"Encourage sleeping superstars to settle down with this personalised pink star design jersey sleepsuit. Designed with love in a soothing ivory shade, this sleepsuit features adorable pink stars, embroi","price":28,"currency":"GBP","merchant":"My 1st Years","brand":"My 1st Years","category":"Gifts","imageUrl":"https://www.my1styears.com/media/catalog/product/s/e/se_30113602-born-in-2025---pink-star-sleepsuit-1.jpg","affiliateLink":"https://www.awin1.com/pclick.php?p=39816619702&a=511345&m=3964","inStock":true},{"id":"41892931119","name":"Personalised 1st Christmas as My… Tree Decoration","description":"Bring a smile to a special relative’s face this holiday season with our personalised 1st Christmas as My… tree decoration. This lovely white ceramic decoration is perfect for honouring a new parent, g","price":12,"currency":"GBP","merchant":"My 1st Years","brand":"My 1st Years","category":"Gifts","imageUrl":"https://www.my1styears.com/media/catalog/product/6/0/60111683_1st-christmas-as-my-...---ceramic-tree-decoration-a_1.jpg","affiliateLink":"https://www.awin1.com/pclick.php?p=41892931119&a=511345&m=3964","inStock":true},{"id":"41892931120","name":"Personalised My 1st Christmas Tree Decoration","description":"Cherish the magic of a newborn’s first Christmas with our personalised My 1st Christmas tree bauble. This lovely white bauble is decorated with an elegant ring of seasonal images, from a certain red-n","price":12,"currency":"GBP","merchant":"My 1st Years","brand":"My 1st Years","category":"Gifts","imageUrl":"https://www.my1styears.com/media/catalog/product/6/0/60111713my-1st-christmas---ceramic-tree-decoration-a.jpg","affiliateLink":"https://www.awin1.com/pclick.php?p=41892931120&a=511345&m=3964","inStock":true},{"id":"37685629436","name":"Personalised Noah’s Ark Christening Day Greetings Card","description":"Send a little one lots of love on their christening day with this personalised animal-themed greetings card. This square card is lovingly crafted from recycled materials and decorated with an illustra","price":3,"currency":"GBP","merchant":"My 1st Years","brand":"My 1st Years","category":"Gifts","imageUrl":"https://www.my1styears.com/media/catalog/product/4/0/40112025animal-on-your-christening-day-greeting-card-1.jpg","affiliateLink":"https://www.awin1.com/pclick.php?p=37685629436&a=511345&m=3964","inStock":true},{"id":"39243483584","name":"Personalised 1st Trip Around the Sun Greetings Card","description":"Send a terrific tot a whole lotta love for their first birthday with a thoughtful, personalised card. This greetings card features an adorable space-themed illustration, including planets, a rocket an","price":3,"currency":"GBP","merchant":"My 1st Years","brand":"My 1st Years","category":"Gifts","imageUrl":"https://www.my1styears.com/media/catalog/product/4/0/40113504_1st-trip-around-the-sun-birthday-card-1.jpg","affiliateLink":"https://www.awin1.com/pclick.php?p=39243483584&a=511345&m=3964","inStock":true},{"id":"41900568744","name":"Personalised 1st Trip Around The Sun Birthday Bodysuit","description":"Celebrate a whole year of smiles, snuggles and firsts with our personalised “1st trip around the sun” birthday bodysuit. We made this super soft and gentle essential with cotton that promises to be ge","price":16,"currency":"GBP","merchant":"My 1st Years","brand":"My 1st Years","category":"Gifts","imageUrl":"https://www.my1styears.com/media/catalog/product/3/0/30113525-1st-trip-around-the-sun-birthday---white-bodysuit-1.jpg","affiliateLink":"https://www.awin1.com/pclick.php?p=41900568744&a=511345&m=3964","inStock":true}]}