{"success":true,"query":"board games","searchTerms":"board games","extractedParams":{"keywords":["board","games"]},"totalCount":3259,"offset":10,"limit":10,"hasMore":true,"count":10,"products":[{"id":"38201407592","name":"88cm Folding Mahjong Table Portable Mahjong Table PVC Desktop Table Games","description":"Do you want to learn mahjong? Do you want to play various games on family nights or parties? This folding mahjong table is your perfect choice! Designed with 4 tile trays, our mahjong table is conveni","price":84.95,"currency":"GBP","merchant":"Debenhams UK","brand":"Debenhams UK","category":"Games, Puzzles & Learning","imageUrl":"https://mediahub.debenhams.com/m7984700529180_green_xl","affiliateLink":"https://www.awin1.com/pclick.php?p=38201407592&a=511345&m=22735","inStock":true},{"id":"34675849923","name":"Harry Potter Hogwarts Day to Night Scratch Off Puzzle","description":"Assemble the puzzle of the enchanted Hogwarts Castle, then scratch off the picture to reveal the magical Castle at night time! This Harry Potter 500-piece jigsaw puzzle of the impressive Hogwarts Cast","price":19.99,"currency":"GBP","merchant":"Debenhams UK","brand":"Debenhams UK","category":"Games, Puzzles & Learning","imageUrl":"https://media.debenhams.com/i/debenhams/m5056015085674_multi_xl.jpg","affiliateLink":"https://www.awin1.com/pclick.php?p=34675849923&a=511345&m=22735","inStock":true},{"id":"34533399395","name":"Harry Potter Wanted Double Sided Scratch Off Puzzle","description":"Assemble the puzzle and then scratch off the picture to magically see a hidden picture appear before your very eyes! This Harry Potter Wanted Poster 500-piece jigsaw puzzle really is a 2 in 1 puzzle a","price":19.99,"currency":"GBP","merchant":"Debenhams UK","brand":"Debenhams UK","category":"Games, Puzzles & Learning","imageUrl":"https://media.debenhams.com/i/debenhams/m5056015085681_multi_xl.jpg","affiliateLink":"https://www.awin1.com/pclick.php?p=34533399395&a=511345&m=22735","inStock":true},{"id":"36587004780","name":"Winning Moves  Trivial Pursuit Game","description":"featuring the magical world of Harry Potter - with questions based on both the books and movies.. Bite-size game comes with coloured dice, cards and easy-to-carry wedge case.. Fascinating, puzzling an","price":16.99,"currency":"GBP","merchant":"Debenhams UK","brand":"Debenhams UK","category":"Games, Puzzles & Learning","imageUrl":"https://media.debenhams.com/i/debenhams/m5036905036658_multi_xl.jpg","affiliateLink":"https://www.awin1.com/pclick.php?p=36587004780&a=511345&m=22735","inStock":true},{"id":"35621085104","name":"Ultimate Harry Potter Movie Quiz","description":"Hey there Harry Potter fanatics! Ready to flex your wizarding knowledge? Look no further than the Ultimate Harry Potter Movie Quiz! With 1600 cards packed with trivia from all 8 films, this game will ","price":22.5,"currency":"GBP","merchant":"Debenhams UK","brand":"Debenhams UK","category":"Games, Puzzles & Learning","imageUrl":"https://media.debenhams.com/i/debenhams/m5055964739645_multi_xl.jpg","affiliateLink":"https://www.awin1.com/pclick.php?p=35621085104&a=511345&m=22735","inStock":true},{"id":"35877465927","name":"Spiderman Climb Prime 3D 500 Piece Puzzle","description":"New Marvel range in Super 3D, 500 piece puzzle. Using the new Prime 3D lenses to give great depth and motion to the images.","price":18.99,"currency":"GBP","merchant":"Debenhams UK","brand":"Debenhams UK","category":"Games, Puzzles & Learning","imageUrl":"https://media.debenhams.com/i/debenhams/m0670889326470_multi_xl.jpg","affiliateLink":"https://www.awin1.com/pclick.php?p=35877465927&a=511345&m=22735","inStock":true},{"id":"37724333138","name":"Marvel Studios Avengers Tower 3D Puzzle","description":"For any fan of the Marvel Avengers, this detailed 3D Puzzle of the famous Avengers Tower, is the ultimate gift. This 3D puzzle model of the striking 10 floor, Manhattan-based high-rise building, can b","price":29.99,"currency":"GBP","merchant":"Debenhams UK","brand":"Marvel","category":"Games, Puzzles & Learning","imageUrl":"https://mediahub.debenhams.com/m5056015085537_multi_xl","affiliateLink":"https://www.awin1.com/pclick.php?p=37724333138&a=511345&m=22735","inStock":true},{"id":"38275454873","name":"38cm Spinning Wheel for PrizesTabletop Spinning Prize Wheel W/ Dry Erase Marker","description":"Add a touch of fun to your party! Do you want to liven up the event? Check our wheel for fortune! Fitted with an 38 cm big prize wheel which has 12 colorful slots on the plate, this attractive wheel w","price":39.95,"currency":"GBP","merchant":"Debenhams UK","brand":"Debenhams UK","category":"Games, Puzzles & Learning","imageUrl":"https://mediahub.debenhams.com/m7984700530902_multi_xl","affiliateLink":"https://www.awin1.com/pclick.php?p=38275454873&a=511345&m=22735","inStock":true},{"id":"38346917981","name":"14 Gram Texas Holdem Poker Chip Set 500 Pieces Claytec Chips w/ Aluminum Case","description":"This game set includes everything you need for a thrilling game of poker. Weights only 14g, our Full Poker Chips Set is designed with a unique metal insert layer that provides unparalleled durability ","price":69.95,"currency":"GBP","merchant":"Debenhams UK","brand":"Debenhams UK","category":"Games, Puzzles & Learning","imageUrl":"https://mediahub.debenhams.com/m7984700555134_black_xl","affiliateLink":"https://www.awin1.com/pclick.php?p=38346917981&a=511345&m=22735","inStock":true},{"id":"38680352845","name":"51cm Foosball Table Kids Adults Tabletop Football Table w/LED Lights","description":"Elevate your game nights with this 51cm table foosball table! This football game table integrates dazzling LED lights to illuminate play, making each match more exciting. Featuring realistically desig","price":34.95,"currency":"GBP","merchant":"Debenhams UK","brand":"Debenhams UK","category":"Games, Puzzles & Learning","imageUrl":"https://mediahub.debenhams.com/m7984700578072_natural_xl","affiliateLink":"https://www.awin1.com/pclick.php?p=38680352845&a=511345&m=22735","inStock":true}]}