{"success":true,"query":"outdoor toys","searchTerms":"outdoor toys","extractedParams":{"keywords":["outdoor","toys"]},"totalCount":8346,"offset":10,"limit":10,"hasMore":true,"count":10,"products":[{"id":"36829496455","name":"Wooden Foldable Triangle Climber Step Training Ladder Pikler Toddler With Ramp","description":"This climbing triangle ladder is a perfect gift for children to have fun! It is made of high-quality natural wood and metal connections, which is very sturdy and durable. This climbing triangle ladder","price":89.95,"currency":"GBP","merchant":"Debenhams UK","brand":"Debenhams UK","category":"Toys","imageUrl":"https://media.debenhams.com/i/debenhams/m7984700958782_natural_xl.jpg","affiliateLink":"https://www.awin1.com/pclick.php?p=36829496455&a=511345&m=22735","inStock":true},{"id":"37724321495","name":"Stitch Series 1 Bag Clip","description":"This blind bag product comes with an assortment of 11 different characters from the Disney Stitch Series 1 collection featuring Lilo, Stitch in various outfits, and Angel.. Each blind bag comes with 1","price":10.99,"currency":"GBP","merchant":"Debenhams UK","brand":"Debenhams UK","category":"Toys","imageUrl":"https://mediahub.debenhams.com/m0077764851506_multi_xl","affiliateLink":"https://www.awin1.com/pclick.php?p=37724321495&a=511345&m=22735","inStock":true},{"id":"37724172906","name":"Princess Doll Pochahontas","description":"?Inspired by the animated character in the beloved Disney movie, this Pocahontas doll is ready to forge her own path!. ?The posable fashion doll wears her signature fashion from the movie, including r","price":19.99,"currency":"GBP","merchant":"Debenhams UK","brand":"Debenhams UK","category":"Toys","imageUrl":"https://mediahub.debenhams.com/m0194735120369_multi_xl","affiliateLink":"https://www.awin1.com/pclick.php?p=37724172906&a=511345&m=22735","inStock":true},{"id":"37724230381","name":"Raya & Last Dragon Petite Human Sisu","description":"Disneys Raya and the Last Dragon Petite Human Sisu. When the lands of Kumandra are threatened, Raya has to find the last dragon and together they must save the world. Set in the beautiful and unique f","price":8.99,"currency":"GBP","merchant":"Debenhams UK","brand":"Debenhams UK","category":"Toys","imageUrl":"https://mediahub.debenhams.com/m0019299521462_multi_xl","affiliateLink":"https://www.awin1.com/pclick.php?p=37724230381&a=511345&m=22735","inStock":true},{"id":"37724365043","name":"Nano Metal Figure Blind Bag","description":"Disney fans will love the nano metal figures. . Based on favourite characters from Disney. . Each figure is made out of die-cast and is a true collectible.. Officially licensed nano metal figure.. 1:6","price":7.99,"currency":"GBP","merchant":"Debenhams UK","brand":"Debenhams UK","category":"Toys","imageUrl":"https://mediahub.debenhams.com/m4006333085239_multi_xl","affiliateLink":"https://www.awin1.com/pclick.php?p=37724365043&a=511345&m=22735","inStock":true},{"id":"38735219935","name":"Encanto Mirabel Fashion Doll","description":"Walt Disney Animation Studios 60th feature, Encanto, tells the tale of an extraordinary family, the Madrigals, who live hidden in the mountains of Colombia, in a magical house, in a vibrant town, in a","price":19.99,"currency":"GBP","merchant":"Debenhams UK","brand":"Debenhams UK","category":"Toys","imageUrl":"https://mediahub.debenhams.com/m0192995219403_multi_xl","affiliateLink":"https://www.awin1.com/pclick.php?p=38735219935&a=511345&m=22735","inStock":true},{"id":"37724319268","name":"Ron Weasley Collectible Vinyl Figure from Handmade By Robots","description":"Ron Weasley! Handmade by Robots produce unique, fresh takes on collectible vinyl figures. Now branching out into the wonderful wizarding world of Harry Potter, Handmade by Robots' Vinyl Figures are mo","price":19.99,"currency":"GBP","merchant":"Debenhams UK","brand":"Debenhams UK","category":"Toys","imageUrl":"https://mediahub.debenhams.com/m818730020652_multi_xl","affiliateLink":"https://www.awin1.com/pclick.php?p=37724319268&a=511345&m=22735","inStock":true},{"id":"37724234693","name":"Wizarding World 8 inch Tall Cho Chang Doll","description":"Create endless Wizarding World adventures with the Cho Chang 8-inch doll! Cute facial details, extra-long soft hair and five points of articulation bring this beloved Harry Potter character to life. C","price":15.99,"currency":"GBP","merchant":"Debenhams UK","brand":"Debenhams UK","category":"Toys","imageUrl":"https://mediahub.debenhams.com/m0778988397688_multi_xl","affiliateLink":"https://www.awin1.com/pclick.php?p=37724234693&a=511345&m=22735","inStock":true},{"id":"37724377935","name":"Hermione Granger Collectible Vinyl Figure from Handmade By Robots","description":"Handmade by Robots produce unique, fresh takes on collectible vinyl figures. Now branching out into the wonderful wizarding world of Harry Potter, Handmade by Robots' Vinyl Figures are moulded and pai","price":19.99,"currency":"GBP","merchant":"Debenhams UK","brand":"Debenhams UK","category":"Toys","imageUrl":"https://mediahub.debenhams.com/m818730020669_multi_xl","affiliateLink":"https://www.awin1.com/pclick.php?p=37724377935&a=511345&m=22735","inStock":true},{"id":"37896274998","name":"10995 DUPLO Marvel Spider-Man's House","description":"This LEGO DUPLO toy for toddlers aged 2+ brings the action from Disney+ TV show Spidey and His Amazing Friends into little super heroes hands. The Spider-Man building toy features a buildable house in","price":24.99,"currency":"GBP","merchant":"Debenhams UK","brand":"Marvel","category":"Toys","imageUrl":"https://mediahub.debenhams.com/m5702017417783_multi_xl","affiliateLink":"https://www.awin1.com/pclick.php?p=37896274998&a=511345&m=22735","inStock":true}]}