{"success":true,"query":"Marvel superhero","searchTerms":"marvel superhero","extractedParams":{"keywords":["marvel","superhero"]},"totalCount":1760,"offset":10,"limit":10,"hasMore":true,"count":10,"products":[{"id":"43277393931","name":"Marvel Spiderman Sock Christmas Crackers","description":"These unique Christmas crackers will add some extra fun and Disney magic to Christmas dinner. There are 6 crackers included in each set, and each cracker contains 1 pair of Disney socks, a paper hat a","price":16.49,"currency":"GBP","merchant":"Dorothy Perkins UK","brand":"Marvel","category":"Christmas Gifts","imageUrl":"https://mediahub.dorothyperkins.com/m5056503857653_multi_xl.jpeg?fmt=jpeg&qlt=72&w=1000","affiliateLink":"https://www.awin1.com/pclick.php?p=43277393931&a=511345&m=1134","inStock":true},{"id":"36402004891","name":"Marvel&#58; Advent Calendar Storybook Collection, Multi","description":"Count down to Christmas with 24 epic Marvel adventures! Join Earth's Mightiest Heroes as they team up to defeat evil super villains and keep the world safe. Unwrap a spectacular storybook every day! F","price":9.99,"currency":"GBP","merchant":"Robert Dyas","brand":"Marvel","category":"Other Occasions","imageUrl":"https://www.robertdyas.co.uk/media/catalog/product/3/4/342193_3.jpg","affiliateLink":"https://www.awin1.com/pclick.php?p=36402004891&a=511345&m=1528","inStock":true},{"id":"42997986951","name":"LEGO Marvel Eternals In Arishams Shadow Set 76155, Multi","description":"6 movie minifigures for Marvel Studios&#146; The Eternals action!Combine all the fun elements of the Marvel Studios&#146; The Eternals movie in one awesome LEGO playset. In Arishem&#146;s Shadow (7615","price":51.99,"currency":"GBP","merchant":"Robert Dyas","brand":"LEGO","category":"Other Toys","imageUrl":"https://www.robertdyas.co.uk/media/catalog/product/7/9/793919_1.jpg","affiliateLink":"https://www.awin1.com/pclick.php?p=42997986951&a=511345&m=1528","inStock":true},{"id":"42997986950","name":"LEGO Marvel Super Heroes Eternals&#58; Rise Of The Domos Set 76156, Multi","description":"Marvel Studios&#146; The Eternals&#146; spaceship toy and superhero minifiguresLEGO Marvel Rise of the Domo (76156) lets kids explore the detailed interior of the Eternals&#146; spaceship then recreat","price":86.99,"currency":"GBP","merchant":"Robert Dyas","brand":"LEGO","category":"Other Toys","imageUrl":"https://www.robertdyas.co.uk/media/catalog/product/7/9/793918_1.jpg","affiliateLink":"https://www.awin1.com/pclick.php?p=42997986950&a=511345&m=1528","inStock":true},{"id":"42997986970","name":"LEGO Marvel Super Heroes Shuri's Sunbird Set 76211, Multi","description":"Black Panther action with Shuri aboard the Sunbird aircraftLEGO Marvel Shuri's Sunbird (76211) looks as amazing as it is for kids to play with. Put this aircraft in the hands of a Black Panther fan ag","price":45.99,"currency":"GBP","merchant":"Robert Dyas","brand":"LEGO","category":"Other Toys","imageUrl":"https://www.robertdyas.co.uk/media/catalog/product/7/9/793938_1.jpg","affiliateLink":"https://www.awin1.com/pclick.php?p=42997986970&a=511345&m=1528","inStock":true},{"id":"42997986972","name":"LEGO Marvel Super Heroes King Namor's Throne Room Set 76213, Multi","description":"Underwater adventures aboard the Skirmisher submarineImaginative underwater action awaits young Super Heroes aged 7 and up in the LEGO Marvel King Namor&#146;s Throne Room (76213) set.Submarine advent","price":32.99,"currency":"GBP","merchant":"Robert Dyas","brand":"LEGO","category":"Other Toys","imageUrl":"https://www.robertdyas.co.uk/media/catalog/product/7/9/793940_1.jpg","affiliateLink":"https://www.awin1.com/pclick.php?p=42997986972&a=511345&m=1528","inStock":true},{"id":"42997987110","name":"LEGO Marvel Super Heroes Green Goblin Construction Figure 76284, Multi","description":"Posable Green Goblin and glider construction figure for kidsPut Marvel film adventures into kids&#146; hands with the posable LEGO Marvel Green Goblin Construction Figure (76284) &#150; the ultimate S","price":33.99,"currency":"GBP","merchant":"Robert Dyas","brand":"LEGO","category":"Other Toys","imageUrl":"https://www.robertdyas.co.uk/media/catalog/product/7/9/794078_1.jpg","affiliateLink":"https://www.awin1.com/pclick.php?p=42997987110&a=511345&m=1528","inStock":true},{"id":"42997986999","name":"LEGO Marvel Guardians Of The Galaxy Baby Rocket's Ship Set 76254, Multi","description":"Adjustable spaceship from Marvel Studios&#146; Guardians of the Galaxy Volume 3 featuring Rocket and Baby Rocket.Super Hero spacecraft from Marvel Studios&#146; Guardians of the Galaxy Volume 3. LEGO ","price":34.99,"currency":"GBP","merchant":"Robert Dyas","brand":"LEGO","category":"Other Toys","imageUrl":"https://www.robertdyas.co.uk/media/catalog/product/7/9/793967_1.jpg","affiliateLink":"https://www.awin1.com/pclick.php?p=42997986999&a=511345&m=1528","inStock":true},{"id":"42997987108","name":"LEGO Marvel X-men X-jet 76281, Multi","description":"X-Jet buildable fighter plane toy for X-Men fansLEGO Marvel X-Men X-Jet (76281) is the ultimate transportation for fans of supercool planes, buildable LEGO Marvel toys and Marvel Studios&#146; TV seri","price":73.99,"currency":"GBP","merchant":"Robert Dyas","brand":"LEGO","category":"Other Toys","imageUrl":"https://www.robertdyas.co.uk/media/catalog/product/7/9/794076_1.jpg","affiliateLink":"https://www.awin1.com/pclick.php?p=42997987108&a=511345&m=1528","inStock":true},{"id":"42997987101","name":"LEGO Marvel The Avengers Vs. The Leviathan Playset 76290, Multi","description":"Avengers gift featuring Loki and his Leviathan &#146;air whale&#146;!The LEGO Marvel The Avengers vs. The Leviathan (76290) collectible Super Hero playset recreates the final battle scene from Marvel ","price":46.99,"currency":"GBP","merchant":"Robert Dyas","brand":"LEGO","category":"Other Toys","imageUrl":"https://www.robertdyas.co.uk/media/catalog/product/7/9/794069_1.jpg","affiliateLink":"https://www.awin1.com/pclick.php?p=42997987101&a=511345&m=1528","inStock":true}]}