{"success":true,"query":"Harry Potter","searchTerms":"harry potter","extractedParams":{"keywords":["harry","potter"]},"totalCount":2040,"offset":10,"limit":10,"hasMore":true,"count":10,"products":[{"id":"42997987270","name":"LEGO Harry Potter Privet Drive&#58; Aunt Marge&#146;s Visit 76451, Multi","description":"Enchanting birthday gift idea for Harry Potter&#153; fansRelive Aunt Marge&#146;s visit to 4 Privet Drive in Harry Potter and the Prisoner of Azkaban&#153; with this LEGO Harry Potter&#153; collectibl","price":77.99,"currency":"GBP","merchant":"Robert Dyas","brand":"LEGO","category":"Other Toys","imageUrl":"https://www.robertdyas.co.uk/media/catalog/product/7/9/794160_1.jpg","affiliateLink":"https://www.awin1.com/pclick.php?p=42997987270&a=511345&m=1528","inStock":true},{"id":"43104097282","name":"LEGO DOTS Harry Potter Hogwarts Desktop Kit 41811, Multi","description":"Thrill a Harry Potter&#153; fan with this fun and useful desk set. Give creative kids and Harry Potter&#153; fans aged 8 and up fun ways to show off their Hogwarts&#153; house pride and keep their des","price":41.99,"currency":"GBP","merchant":"Robert Dyas","brand":"LEGO","category":"Other Toys","imageUrl":"https://www.robertdyas.co.uk/media/catalog/product/8/0/803822_1.jpg","affiliateLink":"https://www.awin1.com/pclick.php?p=43104097282&a=511345&m=1528","inStock":true},{"id":"43376181406","name":"Lego Harry Potter Village Of Hogsmeade Collector&#39;s Edition 76457, Multi","description":"Inspire memories of magical winter scenes at Hogsmeade Village with this spectacular LEGO Harry Potter Collectors' Edition model kit (76457) Features: The ultimate Harry Potter gift for adult fans, th","price":348.99,"currency":"GBP","merchant":"Robert Dyas","brand":"LEGO","category":"Other Toys","imageUrl":"https://www.robertdyas.co.uk/media/catalog/product/8/0/804616_2.jpg","affiliateLink":"https://www.awin1.com/pclick.php?p=43376181406&a=511345&m=1528","inStock":true},{"id":"43104097281","name":"LEGO DOTS Harry Potter Hogwarts Accessories Pack 41808, Multi","description":"A DOTS set full of magic and fun for kids&#146; creative play. Want a fun kit for Harry Potter&#153; fans and kids aged 8 and up? Give them this LEGO DOTS Hogwarts&#153; Accessories Pack (41808) kit a","price":17.99,"currency":"GBP","merchant":"Robert Dyas","brand":"LEGO","category":"Other Toys","imageUrl":"https://www.robertdyas.co.uk/media/catalog/product/8/0/803821_1.jpg","affiliateLink":"https://www.awin1.com/pclick.php?p=43104097281&a=511345&m=1528","inStock":true},{"id":"43104097346","name":"LEGO Harry Potter Dobby the House-Elf 76421, Multi","description":"Give your young Harry Potter&#153; fan the first LEGO brick-built model of Dobby&#153; the House-Elf, a beloved character in the Wizarding World. Delight Harry Potter&#153; fans with the first-ever LE","price":27.99,"currency":"GBP","merchant":"Robert Dyas","brand":"LEGO","category":"Other Toys","imageUrl":"https://www.robertdyas.co.uk/media/catalog/product/8/0/803886_1.jpg","affiliateLink":"https://www.awin1.com/pclick.php?p=43104097346&a=511345&m=1528","inStock":true},{"id":"43104097348","name":"LEGO Harry Potter Hogwarts Castle and Grounds 76419, Multi","description":"Enjoy a spellbinding creative adventure building the first LEGO brick model of the Hogwarts&#153; Castle and Grounds. Capture the magical atmosphere of the Hogwarts&#153; Castle and Grounds with this ","price":145.99,"currency":"GBP","merchant":"Robert Dyas","brand":"LEGO","category":"Other Toys","imageUrl":"https://www.robertdyas.co.uk/media/catalog/product/8/0/803888_1.jpg","affiliateLink":"https://www.awin1.com/pclick.php?p=43104097348&a=511345&m=1528","inStock":true},{"id":"43104097347","name":"LEGO Harry Potter Hedwig at 4 Privet Drive 76425, Multi","description":"Build, display and role-play with this LEGO Harry Potter&#153; set for animal-loving kids, featuring a brick-built, posable Hedwig&#153; owl toy figure. Nurture your youngster&#146;s love for the Wiza","price":21.99,"currency":"GBP","merchant":"Robert Dyas","brand":"LEGO","category":"Other Toys","imageUrl":"https://www.robertdyas.co.uk/media/catalog/product/8/0/803887_1.jpg","affiliateLink":"https://www.awin1.com/pclick.php?p=43104097347&a=511345&m=1528","inStock":true},{"id":"35416785641","name":"76402 Harry Potter Hogwarts: Dumbledore's Office","description":"This LEGO Hogwarts Castle set features the restricted section of Hogwarts library and Dumbledore's office, with lots of authentic accessories.. The set includes 6 LEGO Harry Potter minifigures: Harry ","price":84.99,"currency":"GBP","merchant":"Debenhams UK","brand":"Debenhams UK","category":"Gifts","imageUrl":"https://media.debenhams.com/i/debenhams/m5702017153438_multi_xl.jpg","affiliateLink":"https://www.awin1.com/pclick.php?p=35416785641&a=511345&m=22735","inStock":true},{"id":"37843363977","name":"Tea Towel Recycled Cotton - Harry Potter (Gryffindor)","description":"Tea Towel Recycled Cotton - Harry Potter (Gryffindor)","price":9.99,"currency":"GBP","merchant":"Debenhams UK","brand":"Debenhams UK","category":"Gifts","imageUrl":"https://mediahub.debenhams.com/m5055453410949_multi_xl","affiliateLink":"https://www.awin1.com/pclick.php?p=37843363977&a=511345&m=22735","inStock":true},{"id":"37843364429","name":"Mug Standard Boxed (400ml) - Harry Potter (Houses baubles)","description":"Mug Standard Boxed (400ml) - Harry Potter (Houses baubles)","price":11.99,"currency":"GBP","merchant":"Debenhams UK","brand":"Debenhams UK","category":"Gifts","imageUrl":"https://mediahub.debenhams.com/m5055453491382_multi_xl","affiliateLink":"https://www.awin1.com/pclick.php?p=37843364429&a=511345&m=22735","inStock":true}]}