{"success":true,"query":"baby toddler gifts","searchTerms":"baby toddler gifts","extractedParams":{"keywords":["baby","toddler","gifts"],"category":"gifts"},"totalCount":14129,"offset":10,"limit":10,"hasMore":true,"count":10,"products":[{"id":"32954915687","name":"Nike  SUNRAY PROTECT 2 TODDLER  girls's Children's Shoes (Trainers) in Black","description":"Nike  SUNRAY PROTECT 2 TODDLER  girls's Children's Shoes (Trainers) in Black Synthetic Textile","price":17.5,"currency":"GBP","merchant":"Spartoo.co.uk","brand":"Spartoo.co.uk","category":"Children's Footwear","imageUrl":"https://photos6.spartoo.co.uk/photos/634/6342727/6342727_350_A.jpg","affiliateLink":"https://www.awin1.com/pclick.php?p=32954915687&a=511345&m=2638","inStock":true},{"id":"32954915685","name":"Nike  SUNRAY PROTECT 2 TODDLER  boys's Children's Shoes (Trainers) in Black","description":"Nike  SUNRAY PROTECT 2 TODDLER  boys's Children's Shoes (Trainers) in Black Synthetic Textile","price":17.5,"currency":"GBP","merchant":"Spartoo.co.uk","brand":"Spartoo.co.uk","category":"Children's Footwear","imageUrl":"https://photos6.spartoo.co.uk/photos/634/6342727/6342727_350_A.jpg","affiliateLink":"https://www.awin1.com/pclick.php?p=32954915685&a=511345&m=2638","inStock":true},{"id":"39670817702","name":"The Last Gifts of the Universe","description":"Book","price":9.99,"currency":"GBP","merchant":"Waterstones","brand":"Waterstones","category":"Books","imageUrl":"https://images2.productserve.com/noimage.gif","affiliateLink":"https://www.awin1.com/pclick.php?p=39670817702&a=511345&m=3787","inStock":true},{"id":"40359749934","name":"Craft Factory Patch Motif Baby Blocks Blue","description":"Craft Factory Patch Motif Baby Blocks Blue","price":1.99,"currency":"GBP","merchant":"Minerva","brand":"Minerva","category":"Arts & Crafts","imageUrl":"https://cdn.minerva.com/products/1000000/normal/image-sa-1214540-54127.jpg","affiliateLink":"https://www.awin1.com/pclick.php?p=40359749934&a=511345&m=5270","inStock":true},{"id":"40359749939","name":"Craft Factory Patch Motif Baby Letters","description":"Colourful and attractive iron on motifs which are ideal for patching clothing or embellishing plain clothing and accessories. Fully washable. Instructions included on package.","price":1.89,"currency":"GBP","merchant":"Minerva","brand":"Minerva","category":"Arts & Crafts","imageUrl":"https://cdn.minerva.com/products/1000000/normal/image-sa-1259744-73080.jpg","affiliateLink":"https://www.awin1.com/pclick.php?p=40359749939&a=511345&m=5270","inStock":true},{"id":"40359754843","name":"Dill Round Plastic Buttons (Value Pack) Baby Blue","description":"Fabulous Quality Buttons from Dill. These collectable buttons are of the highest quality and will finish off any garment beautifully. Each button is slightly unique and will add character to any garme","price":16.99,"currency":"GBP","merchant":"Minerva","brand":"Minerva","category":"Arts & Crafts","imageUrl":"https://cdn.minerva.com/products/1000000/normal/image-sa-1110235-19750.jpg","affiliateLink":"https://www.awin1.com/pclick.php?p=40359754843&a=511345&m=5270","inStock":true},{"id":"40359755007","name":"Dill Round Plastic Buttons (Value Pack) Baby Blue","description":"Fabulous Quality Buttons from Dill. These collectable buttons are of the highest quality and will finish off any garment beautifully. Each button is slightly unique and will add character to any garme","price":17.99,"currency":"GBP","merchant":"Minerva","brand":"Minerva","category":"Arts & Crafts","imageUrl":"https://cdn.minerva.com/products/1000000/normal/image-sa-1110801-48259.jpg","affiliateLink":"https://www.awin1.com/pclick.php?p=40359755007&a=511345&m=5270","inStock":true},{"id":"36435234648","name":"Baby Red Panda: Finger Puppet Book","description":"Book","price":5.99,"currency":"GBP","merchant":"Waterstones","brand":"Waterstones","category":"Books","imageUrl":"https://images2.productserve.com/noimage.gif","affiliateLink":"https://www.awin1.com/pclick.php?p=36435234648&a=511345&m=3787","inStock":true},{"id":"39124857173","name":"Baby Sunflower: Finger Puppet Book","description":"Book","price":5.99,"currency":"GBP","merchant":"Waterstones","brand":"Waterstones","category":"Books","imageUrl":"https://images2.productserve.com/noimage.gif","affiliateLink":"https://www.awin1.com/pclick.php?p=39124857173&a=511345&m=3787","inStock":true},{"id":"39123525304","name":"Baby Alligator: Finger Puppet Book","description":"Book","price":5.99,"currency":"GBP","merchant":"Waterstones","brand":"Waterstones","category":"Books","imageUrl":"https://images2.productserve.com/noimage.gif","affiliateLink":"https://www.awin1.com/pclick.php?p=39123525304&a=511345&m=3787","inStock":true}]}