{"success":true,"query":"LEGO Star Wars","searchTerms":"LEGO lego star wars","extractedParams":{"keywords":["lego","star wars"],"brand":"LEGO"},"totalCount":6573,"offset":10,"limit":10,"hasMore":true,"count":10,"products":[{"id":"41690801829","name":"Premier Housewares Kids Ceramic Star Night Light","description":"It's not uncommon for children to be afraid of the dark or feel uneasy at night time, help your child to feel calm and reassured at bedtime with this gently glowing star night light. When it's your ch","price":41.99,"currency":"GBP","merchant":"Robert Dyas","brand":"Robert Dyas","category":"Novelty Gifts","imageUrl":"https://www.robertdyas.co.uk/media/catalog/product/2/1/212875_4_.jpg","affiliateLink":"https://www.awin1.com/pclick.php?p=41690801829&a=511345&m=1528","inStock":true},{"id":"41674282308","name":"COSTWAY Large Toddler Playhouse with Glow in the Dark Stars-Pink, Pink","description":"With glow-in-the-dark stars adorning the ceiling, the toddler play tent transforms any room into a dreamy world that will captivate your child's imagination. More than that, a light string and colorfu","price":43.99,"currency":"GBP","merchant":"Robert Dyas","brand":"Robert Dyas","category":"Other Toys","imageUrl":"https://www.robertdyas.co.uk/media/catalog/product/6/8/688844_1.jpg","affiliateLink":"https://www.awin1.com/pclick.php?p=41674282308&a=511345&m=1528","inStock":true},{"id":"37845413810","name":"Movie Stars Party Game","description":"Design: Cut Out, Movie Stars, Star, Text. Packaging: Retail Packaged.","price":9.99,"currency":"GBP","merchant":"Debenhams UK","brand":"Debenhams UK","category":"Decorations","imageUrl":"https://mediahub.debenhams.com/m5063527394514_off white_xl","affiliateLink":"https://www.awin1.com/pclick.php?p=37845413810&a=511345&m=22735","inStock":true},{"id":"41674282326","name":"COSTWAY Kids Ride-On Bumper Car with Colorful Flashing Lights and Music-Blue, Blue","description":"Redefine the ride-on vehicle with this interactive children's electric bumper car! The frame is made from durable safe PP plastic and steel, with a soft rubber bumper all-around offering protection wh","price":95.99,"currency":"GBP","merchant":"Robert Dyas","brand":"Robert Dyas","category":"Baby Toys","imageUrl":"https://www.robertdyas.co.uk/media/catalog/product/6/8/688862_1.jpg","affiliateLink":"https://www.awin1.com/pclick.php?p=41674282326&a=511345&m=1528","inStock":true},{"id":"41674282325","name":"COSTWAY Kids Ride-On Bumper Car with Colorful Flashing Lights and Music-Green, Green","description":"Redefine the ride-on vehicle with this interactive children's electric bumper car! The frame is made from durable safe PP plastic and steel, with a soft rubber bumper all-around offering protection wh","price":88.99,"currency":"GBP","merchant":"Robert Dyas","brand":"Robert Dyas","category":"Baby Toys","imageUrl":"https://www.robertdyas.co.uk/media/catalog/product/6/8/688861_1.jpg","affiliateLink":"https://www.awin1.com/pclick.php?p=41674282325&a=511345&m=1528","inStock":true},{"id":"41674282324","name":"COSTWAY Kids Ride-On Bumper Car with Colorful Flashing Lights and Music-Purple, Purple","description":"Redefine the ride-on vehicle with this interactive children's electric bumper car! The frame is made from durable safe PP plastic and steel, with a soft rubber bumper all-around offering protection wh","price":85.99,"currency":"GBP","merchant":"Robert Dyas","brand":"Robert Dyas","category":"Baby Toys","imageUrl":"https://www.robertdyas.co.uk/media/catalog/product/6/8/688860_1.jpg","affiliateLink":"https://www.awin1.com/pclick.php?p=41674282324&a=511345&m=1528","inStock":true},{"id":"41674282323","name":"COSTWAY Kids Ride-On Bumper Car with Colorful Flashing Lights and Music-Red, Red","description":"Redefine the ride-on vehicle with this interactive children's electric bumper car! The frame is made from durable safe PP plastic and steel, with a soft rubber bumper all-around offering protection wh","price":85.99,"currency":"GBP","merchant":"Robert Dyas","brand":"Robert Dyas","category":"Baby Toys","imageUrl":"https://www.robertdyas.co.uk/media/catalog/product/6/8/688859_1.jpg","affiliateLink":"https://www.awin1.com/pclick.php?p=41674282323&a=511345&m=1528","inStock":true},{"id":"41674282526","name":"COSTWAY Children's Wooden Play Kitchen with Cooking Pots and Utensils, White","description":"A great gift for children, this play kitchen is constructed from premium MDF, providing stability and durability. Designed to be used by children, the kitchen is finished to a high standard in non-tox","price":68.99,"currency":"GBP","merchant":"Robert Dyas","brand":"Robert Dyas","category":"Creative & Construction","imageUrl":"https://www.robertdyas.co.uk/media/catalog/product/6/8/689062_1.jpg","affiliateLink":"https://www.awin1.com/pclick.php?p=41674282526&a=511345&m=1528","inStock":true},{"id":"41674282440","name":"COSTWAY Folding Cardboard Game Table with 8 Cup Holders and Comfy Armrests-Green, Green","description":"It can be folded into a compact size when not in use, allowing you to easy to transport and store. Besides, this game table includes 8 built-in cup holders to keep your beverages secure, while the pad","price":112.99,"currency":"GBP","merchant":"Robert Dyas","brand":"Robert Dyas","category":"Games, Puzzles & Learning","imageUrl":"https://www.robertdyas.co.uk/media/catalog/product/6/8/688976_1.jpg","affiliateLink":"https://www.awin1.com/pclick.php?p=41674282440&a=511345&m=1528","inStock":true},{"id":"41674282729","name":"COSTWAY 4 in 1 Combo Game Table Set Foosball Table with Billiards-Natural, Brown","description":"Enhance your game nights with the 4-in-1 multi game table, offering foosball, billiards, table tennis, and hockey in one compact set. This game table can seamlessly transition between games with the s","price":61.99,"currency":"GBP","merchant":"Robert Dyas","brand":"Robert Dyas","category":"Games, Puzzles & Learning","imageUrl":"https://www.robertdyas.co.uk/media/catalog/product/6/8/689265_1.jpg","affiliateLink":"https://www.awin1.com/pclick.php?p=41674282729&a=511345&m=1528","inStock":true}]}