{"success":true,"query":"Disney toys","searchTerms":"Disney disney toys","extractedParams":{"keywords":["disney","toys"],"brand":"Disney"},"totalCount":14762,"offset":10,"limit":10,"hasMore":true,"count":10,"products":[{"id":"37724376938","name":"43234 Disney Princess Elsa's Frozen Treats","description":"Elsas Frozen Treats building toy set inspires creativity as kids imagine and play out their own stories.. The Frozen building toy includes an ice-cream cart, an Elsa LEGO Disney mini-doll figure and a","price":17.99,"currency":"GBP","merchant":"Debenhams UK","brand":"Disney","category":"Toys","imageUrl":"https://mediahub.debenhams.com/m5702017583464_multi_xl","affiliateLink":"https://www.awin1.com/pclick.php?p=37724376938&a=511345&m=22735","inStock":true},{"id":"37843363941","name":"Pot Shaped Small Boxed - Disney The Jungle Book (Baloo)","description":"Pot Shaped Small Boxed - Disney The Jungle Book (Baloo)","price":9.99,"currency":"GBP","merchant":"Debenhams UK","brand":"Disney","category":"Gifts","imageUrl":"https://mediahub.debenhams.com/m5055453494314_multi_xl","affiliateLink":"https://www.awin1.com/pclick.php?p=37843363941&a=511345&m=22735","inStock":true},{"id":"37724355607","name":"Mug Shaped Boxed (335ml) - Disney Villains (Ursula Crest)","description":"Mug Shaped Boxed (335ml) - Disney Villains (Ursula Crest)","price":14.99,"currency":"GBP","merchant":"Debenhams UK","brand":"Disney","category":"Gifts","imageUrl":"https://mediahub.debenhams.com/m5055453498107_multi_xl","affiliateLink":"https://www.awin1.com/pclick.php?p=37724355607&a=511345&m=22735","inStock":true},{"id":"37724195645","name":"Ceramic Trinket Box (6cm) - Disney Mickey Mouse","description":"Box Round Ceramic (6cm) - Disney Mickey Mouse","price":8.99,"currency":"GBP","merchant":"Debenhams UK","brand":"Disney","category":"Gifts","imageUrl":"https://mediahub.debenhams.com/m5055453494055_multi_xl","affiliateLink":"https://www.awin1.com/pclick.php?p=37724195645&a=511345&m=22735","inStock":true},{"id":"29991542995","name":"HOMCOM Kids 90-96cm Kick Scooter - Blue, Blue","description":"Glide outdoors in style with this kick scooter from Reiten. It's made with dual front and rear braking system, which allows you to stop immediately whilst riding along, with the low platform and two b","price":56.99,"currency":"GBP","merchant":"Robert Dyas","brand":"Robert Dyas","category":"Other Toys","imageUrl":"https://www.robertdyas.co.uk/media/catalog/product/2/5/258987_1.jpg","affiliateLink":"https://www.awin1.com/pclick.php?p=29991542995&a=511345&m=1528","inStock":true},{"id":"29991543007","name":"HOMCOM Kids 90-96cm Kick Scooter with Adjustable Handlebar, Inflatable Wheels & Brakes - Black, Black","description":"Glide outdoors in style with this light blue kick scooter from Reiten. It's made with a dual front and rear braking system, which allows you to stop immediately whilst riding along, with the low platf","price":60.99,"currency":"GBP","merchant":"Robert Dyas","brand":"Robert Dyas","category":"Other Toys","imageUrl":"https://www.robertdyas.co.uk/media/catalog/product/2/5/259058_1.jpg","affiliateLink":"https://www.awin1.com/pclick.php?p=29991543007&a=511345&m=1528","inStock":true},{"id":"29991543009","name":"HOMCOM Kids Foldable Height Adjustable Scooter - Black, Black","description":"The Reiten kids folding scooter is sure to light the way for nonstop fun! Constructed with an aluminium frame, the scooter can support a higher weight capacity of 70kg. The height can be easily adjust","price":37.99,"currency":"GBP","merchant":"Robert Dyas","brand":"Robert Dyas","category":"Other Toys","imageUrl":"https://www.robertdyas.co.uk/media/catalog/product/2/5/259068_1.jpg","affiliateLink":"https://www.awin1.com/pclick.php?p=29991543009&a=511345&m=1528","inStock":true},{"id":"29991543003","name":"HOMCOM Dual Brakes 12'' Metal Frame Kick Scooter  - White, White","description":"Boring to stay at home, Try on this Reiten kick scooter makes it better to spend more time outside and exercise and to master steering and riding and staying balanced. The scooter will be the perfect ","price":53.99,"currency":"GBP","merchant":"Robert Dyas","brand":"Robert Dyas","category":"Other Toys","imageUrl":"https://www.robertdyas.co.uk/media/catalog/product/2/5/259038_1.jpg","affiliateLink":"https://www.awin1.com/pclick.php?p=29991543003&a=511345&m=1528","inStock":true},{"id":"29991542991","name":"HOMCOM Kids 75-80cm Kick Scooter - Black/Red, Black","description":"Glide outdoors in style with this kick scooter from Reiten. It's made with dual front and rear braking system, which allows you to stop immediately whilst riding along, with the low platform and two b","price":58.99,"currency":"GBP","merchant":"Robert Dyas","brand":"Robert Dyas","category":"Other Toys","imageUrl":"https://www.robertdyas.co.uk/media/catalog/product/2/5/258985_1.jpg","affiliateLink":"https://www.awin1.com/pclick.php?p=29991542991&a=511345&m=1528","inStock":true},{"id":"31139253767","name":"HOMCOM Kids Kick Scooter Teen Ride On Adjustable Children Scooter with Brakes - Orange, Orange","description":"Glide outdoors in style with this kick scooter from HOMCOM. It's made with a dual front and rear braking system, which allows you to stop immediately whilst riding along, with the low platform and two","price":63.99,"currency":"GBP","merchant":"Robert Dyas","brand":"Robert Dyas","category":"Other Toys","imageUrl":"https://www.robertdyas.co.uk/media/catalog/product/2/8/281654_1.jpg","affiliateLink":"https://www.awin1.com/pclick.php?p=31139253767&a=511345&m=1528","inStock":true}]}