{"success":true,"query":"Nike trainers","searchTerms":"Nike nike trainers","extractedParams":{"keywords":["nike","trainers"],"brand":"Nike"},"totalCount":3901,"offset":10,"limit":10,"hasMore":true,"count":10,"products":[{"id":"34338433329","name":"Nike Zoom Mercurial Vapor 15 Elite CR7 FG Firm-Ground Football Boots - White","description":"Like Cristiano Ronaldo, Azulejo Tiles Are A Portuguese National Treasure. For The Nike Zoom Mercurial Vapor 15 Elite Cr7, We Took Visual Inspiration From The Portuguese Icons To Show What Can Be Achie","price":244.95,"currency":"GBP","merchant":"Nike UK","brand":"Nike UK","category":"Football","imageUrl":"http://images.nike.com/is/image/DotCom/DQ5299_182_A_PREM?wid=650&hei=650&qlt=90&fmt=png-alpha&op_sharpen=1","affiliateLink":"https://www.awin1.com/pclick.php?p=34338433329&a=511345&m=16327","inStock":true},{"id":"34338433259","name":"Nike Zoom Mercurial Vapor 15 Elite CR7 AG-Pro Artificial-Grass Football Boots - White","description":"Like Cristiano Ronaldo, Azulejo Tiles Are A Portuguese National Treasure. For The Nike Zoom Mercurial Vapor 15 Elite Cr7, We Took Visual Inspiration From The Portuguese Icons To Show What Can Be Achie","price":244.95,"currency":"GBP","merchant":"Nike UK","brand":"Nike UK","category":"Football","imageUrl":"http://images.nike.com/is/image/DotCom/DQ5298_182_A_PREM?wid=650&hei=650&qlt=90&fmt=png-alpha&op_sharpen=1","affiliateLink":"https://www.awin1.com/pclick.php?p=34338433259&a=511345&m=16327","inStock":true},{"id":"28643458369","name":"Nike Phantom GT Elite By You Custom Firm Ground Football Boot - Black","description":"Nike Phantom Gt Elite By You Custom Firm Ground Football Boot - Black","price":249.95,"currency":"GBP","merchant":"Nike UK","brand":"Nike UK","category":"Football","imageUrl":"http://static.nike.com/a/images/t_default/e962427f-2a19-4aad-849e-5ac10ce2924a/image.png","affiliateLink":"https://www.awin1.com/pclick.php?p=28643458369&a=511345&m=16327","inStock":true},{"id":"28643458327","name":"Nike Phantom GT Elite By You Custom Firm Ground Football Boot - White","description":"Nike Phantom Gt Elite By You Custom Firm Ground Football Boot - White","price":249.95,"currency":"GBP","merchant":"Nike UK","brand":"Nike UK","category":"Football","imageUrl":"http://static.nike.com/a/images/t_default/e8849966-f66c-47a7-b647-3a01ceda0389/image.png","affiliateLink":"https://www.awin1.com/pclick.php?p=28643458327&a=511345&m=16327","inStock":true},{"id":"28643458563","name":"Nike Phantom GT Elite By You Custom Firm Ground Football Boot - Grey","description":"Nike Phantom Gt Elite By You Custom Firm Ground Football Boot - Grey","price":249.95,"currency":"GBP","merchant":"Nike UK","brand":"Nike UK","category":"Football","imageUrl":"http://static.nike.com/a/images/t_default/3c49ad45-d77b-4933-80f8-72f09d01a0df/image.png","affiliateLink":"https://www.awin1.com/pclick.php?p=28643458563&a=511345&m=16327","inStock":true},{"id":"34338433191","name":"Nike Zoom Mercurial Superfly 9 Elite CR7 FG Firm-Ground Football Boot - White","description":"Like Cristiano Ronaldo, Azulejo Tiles Are A Portuguese National Treasure. For The Nike Zoom Mercurial Superfly 9 Elite Cr7, We Took Visual Inspiration From The Portuguese Icons To Show What Can Be Ach","price":259.95,"currency":"GBP","merchant":"Nike UK","brand":"Nike UK","category":"Football","imageUrl":"http://images.nike.com/is/image/DotCom/DQ5293_182_A_PREM?wid=650&hei=650&qlt=90&fmt=png-alpha&op_sharpen=1","affiliateLink":"https://www.awin1.com/pclick.php?p=34338433191&a=511345&m=16327","inStock":true},{"id":"31401600367","name":"Nike Jr. Streetgato Younger/Older Kids' Football Shoes - Black","description":"Rule The Streets In The Nike Jr. Streetgato.it Blends Performance Design Details With Streetwear Flair So That You Can Be Ready To Play At Any Moment. Redesigned Outsole Provides Non-Stop Traction For","price":54.95,"currency":"GBP","merchant":"Nike UK","brand":"Nike UK","category":"Football","imageUrl":"http://images.nike.com/is/image/DotCom/DH7723_010_A_PREM?wid=650&hei=650&qlt=90&fmt=png-alpha&op_sharpen=1","affiliateLink":"https://www.awin1.com/pclick.php?p=31401600367&a=511345&m=16327","inStock":true},{"id":"41969091321","name":"Nike Baby Unisex Kids Infants Core Padded Jacket in Black - Size 18-24M","description":"NIKE Hooded Chevron Puffer Jacket. - - . Features an all-over chevron stitch pattern and colour-block accent. - - . The full-zip closure makes layering easy and there are pockets to store your small e","price":45,"currency":"GBP","merchant":"Secret Sales","brand":"Secret Sales","category":"Children's Clothing","imageUrl":"https://media.secretsales.com/catalog/product/b/7/b79e07b33f394c0ebc0055d87a71df33.jpg","affiliateLink":"https://www.awin1.com/pclick.php?p=41969091321&a=511345&m=19215","inStock":true},{"id":"40922855999","name":"Nike Baby Unisex Kids Infants Core Padded Jacket in Black - Size 3-4Y","description":"NIKE Hooded Chevron Puffer Jacket. - - . Features an all-over chevron stitch pattern and colour-block accent. - - . The full-zip closure makes layering easy and there are pockets to store your small e","price":45,"currency":"GBP","merchant":"Secret Sales","brand":"Secret Sales","category":"Children's Clothing","imageUrl":"https://media.secretsales.com/catalog/product/b/7/b79e07b33f394c0ebc0055d87a71df33.jpg","affiliateLink":"https://www.awin1.com/pclick.php?p=40922855999&a=511345&m=19215","inStock":true},{"id":"43142135773","name":"Nike Baby Unisex Kids Infants Core Padded Jacket in Black - Size 4-5Y","description":"NIKE Hooded Chevron Puffer Jacket. - - . Features an all-over chevron stitch pattern and colour-block accent. - - . The full-zip closure makes layering easy and there are pockets to store your small e","price":45,"currency":"GBP","merchant":"Secret Sales","brand":"Secret Sales","category":"Children's Clothing","imageUrl":"https://media.secretsales.com/catalog/product/b/7/b79e07b33f394c0ebc0055d87a71df33.jpg","affiliateLink":"https://www.awin1.com/pclick.php?p=43142135773&a=511345&m=19215","inStock":true}]}