{"success":true,"query":"Barbie dolls","searchTerms":"Barbie barbie dolls","extractedParams":{"keywords":["barbie","dolls"],"brand":"Barbie"},"totalCount":216,"offset":10,"limit":10,"hasMore":true,"count":10,"products":[{"id":"38327195548","name":"Disney Barbie LED Watch, Multi","description":"Barbie LED watch with printed dial design, silver plastic casing, red digital light up display, date feature and fun printed strap design with traditional buckle fastening. Packaged in official brande","price":7.99,"currency":"GBP","merchant":"Robert Dyas","brand":"Disney","category":"Electronic Gadgets","imageUrl":"https://www.robertdyas.co.uk/media/catalog/product/4/7/478993_1_1.jpg","affiliateLink":"https://www.awin1.com/pclick.php?p=38327195548&a=511345&m=1528","inStock":true},{"id":"42762825553","name":"Harry Potter Spectacular Spell Wand","description":"Experience the magic of Harry Potter with the Spectacular Spell Wand!  Featuring authentic details, magical sounds and an exciting visual effect, this 11-inch replica Harry Potter wand is a must-have ","price":20,"currency":"GBP","merchant":"The Entertainer","brand":"The Entertainer","category":"Dolls","imageUrl":"https://www.thetoyshop.com//medias/515Wx515H-579525-Primary?context=bWFzdGVyfGltYWdlc3wxODM5M3xpbWFnZS9qcGVnfGFHSTFMMmhoTUM4eE1qWXhOamd5TkRjMU1ERXhNQzgxTVRWWGVEVXhOVWhmTlRjNU5USTFYMUJ5YVcxaGNua3wwZTVlZDM5YmI1MGUyMjQ2NmQ4ZGMzYmI4MGQxYWZhYzhjOThlZjIzOWM3ZTVjYzY5ODNlM2QxZTdlOGIxYmNi","affiliateLink":"https://www.awin1.com/pclick.php?p=42762825553&a=511345&m=1736","inStock":true},{"id":"42762825521","name":"Harry Potter Micro Magical Moments Mystery Figures (Styles Vary)","description":"Discover a new way to collect your favourite Harry Potter characters with Micro Magical Moments Quidditch 2-Packs.  Each surprise box 2-pack comes with 2 Quidditch-themed surprise 3.8-cm figures, an a","price":7,"currency":"GBP","merchant":"The Entertainer","brand":"The Entertainer","category":"Dolls","imageUrl":"https://www.thetoyshop.com//medias/515Wx515H-579528-Primary?context=bWFzdGVyfGltYWdlc3w3MzMyN3xpbWFnZS9qcGVnfGFEWXdMMmhsWkM4eE1qWXhOVEExTWpneU1EVXhNQzgxTVRWWGVEVXhOVWhmTlRjNU5USTRYMUJ5YVcxaGNua3wzNTU4ZWY5ZjFmMmQxM2NmOTRhNzUwMTdmOWVlMjQ1ZDNhMGMyYWU4OTI0M2RlNDMzNWZkOTIwMTYxZTEzMTJi","affiliateLink":"https://www.awin1.com/pclick.php?p=42762825521&a=511345&m=1736","inStock":true},{"id":"42672244105","name":"Little People Collector Harry Potter And The Deathly Hallows Figures","description":"From hunting Horcruxes and discovering the quest of the Deathly Hallows to the final battle against Lord Voldemort, relive all your favourite moments of the epic conclusion to the Harry Potter film se","price":26,"currency":"GBP","merchant":"The Entertainer","brand":"The Entertainer","category":"Dolls","imageUrl":"https://www.thetoyshop.com//medias/515Wx515H-579554-Primary?context=bWFzdGVyfGltYWdlc3wxMjYwNzh8aW1hZ2UvanBlZ3xhR0pqTDJoaE1TOHhNall3T1RVeU9EYzFPRE13TWk4MU1UVlhlRFV4TlVoZk5UYzVOVFUwWDFCeWFXMWhjbmt8OGY5ZjY4M2IyYWE1NmFiY2E1NGVmNDIyMGEyZjI5MDk1YTZlODcwMzgyZDMwYzUxNjg5OGExOGFmMjI5ZjVjYQ","affiliateLink":"https://www.awin1.com/pclick.php?p=42672244105&a=511345&m=1736","inStock":true},{"id":"43310629937","name":"Rubies Harry Potter Marauder’s Map Dress Up Costume Accessory Set","description":"Complete your wizarding look with this Harry Potter Accessory Set. This set comes with a scarf, glasses, and Marauder's Map with glow-in-the-dark foot steps, making it the perfect addition to any Harr","price":13,"currency":"GBP","merchant":"The Entertainer","brand":"The Entertainer","category":"Dolls","imageUrl":"https://www.thetoyshop.com//medias/515Wx515H-581793-Primary?context=bWFzdGVyfGltYWdlc3w1MjUwOXxpbWFnZS9qcGVnfGFEVmxMMmhqWlM4eE1qWTFNVEk0TWpVNU5UZzNNQzgxTVRWWGVEVXhOVWhmTlRneE56a3pYMUJ5YVcxaGNua3wzMTlkMWJjNjRlMDNhY2VmZDM4ZTcyZDA3YmY4M2Q5N2I5ZjdhMDYyNTUxMGM4MGExODEzOWIxNGY5YjhlOTJk","affiliateLink":"https://www.awin1.com/pclick.php?p=43310629937&a=511345&m=1736","inStock":true},{"id":"43310630062","name":"Rubies Harry Potter Travel Case Dress Up Costume Accessory Set","description":"Immerse yourself in the magical world of Harry Potter with this captivating case, robe, wand, glasses, and scarf dress up set. Every item is an invitation to embark on a journey of spellbinding advent","price":20,"currency":"GBP","merchant":"The Entertainer","brand":"The Entertainer","category":"Dolls","imageUrl":"https://www.thetoyshop.com//medias/515Wx515H-581795-Primary?context=bWFzdGVyfGltYWdlc3w1OTcxMnxpbWFnZS9qcGVnfGFEQmhMMmhqT0M4eE1qWTFNVEk0TXpVM09Ea3hNQzgxTVRWWGVEVXhOVWhmTlRneE56azFYMUJ5YVcxaGNua3wwYTI4YTE4NThmMjhjY2ZlZTk4NDkzMzU5NjhhZTJkZmQ2MjM0MzdlN2QwYThkNDkzNzFiOGVjOGZiZTAxNTQ3","affiliateLink":"https://www.awin1.com/pclick.php?p=43310630062&a=511345&m=1736","inStock":true},{"id":"36442316401","name":"Personalised Ballerina Doll With Dark Curly Hair, Pink","description":"Send them pirouetting across the floor in joy by adding this personalised ballerina doll to their soft toy collection. T Features: Can be personalised with up to 12 charactersPersonalisation is flockA","price":26,"currency":"GBP","merchant":"Not On The High Street","brand":"Not On The High Street","category":"Dolls","imageUrl":"https://assets-notonthehighstreet-com.s3.amazonaws.com/fs/90/04/d33a-a6ba-451a-9e43-6bada9cdc76f/original_personalised-ballerina-soft-doll-with-dark-hair.jpg","affiliateLink":"https://www.awin1.com/pclick.php?p=36442316401&a=511345&m=18484","inStock":true},{"id":"40018530638","name":"LEGO ǀ Disney Encanto Mini House Set with Mini-Dolls 43261","description":"Give any fan of imaginative play a treat with this LEGO ǀ Disney Encanto Mini House (43261) building toy set for 5 plus year old girls and boys. The micro dolls' house is a small LEGO set with a big w","price":14.99,"currency":"GBP","merchant":"Zavvi UK","brand":"LEGO","category":"Toys","imageUrl":"https://s4.thcdn.com/productimg/1600/1600/15833864-1405206998053175.jpg","affiliateLink":"https://www.awin1.com/pclick.php?p=40018530638&a=511345&m=2549","inStock":true},{"id":"43439774518","name":"LEGO Friends Liann’s Family House Toy with Mini Dolls 42687","description":"Welcome to LEGO Friends Liann’s Family House toy for 7+ year old girls and boys (42687), where kids create their own stories. Fans can explore the beautiful LEGO toy house with its kitchen, living are","price":59.99,"currency":"GBP","merchant":"Zavvi UK","brand":"LEGO","category":"Toys","imageUrl":"https://s4.thcdn.com/productimg/1600/1600/17650755-2125295832843896.jpg","affiliateLink":"https://www.awin1.com/pclick.php?p=43439774518&a=511345&m=2549","inStock":true},{"id":"43439774517","name":"LEGO Friends Fun Indoor Playground Toy with Mini Dolls 42686","description":"Let imaginations run free as little ones explore this LEGO Friends Fun Indoor Playground (42686) toy for 7+ year old girls and boys. The action-packed set includes 3 mini dolls and lots of accessories","price":54.99,"currency":"GBP","merchant":"Zavvi UK","brand":"LEGO","category":"Toys","imageUrl":"https://s4.thcdn.com/productimg/1600/1600/17650754-1955295831937428.jpg","affiliateLink":"https://www.awin1.com/pclick.php?p=43439774517&a=511345&m=2549","inStock":true}]}