{"success":true,"query":"kids books","searchTerms":"kids books","extractedParams":{"keywords":["kids","books"]},"totalCount":16087,"offset":10,"limit":10,"hasMore":true,"count":10,"products":[{"id":"38871532062","name":"The Holiday Bookshop","description":"Are you looking to start a new chapter?Role: Bookseller wanted! (3-month fixed-term contract)Location: A luxury resort on the island of Bounty Cove Cay. Skills required: The ideal candidate will have ","price":8.99,"currency":"GBP","merchant":"TGJones","brand":"TGJones","category":"Books","imageUrl":"https://whs.dmmserver.com/media/640/97815291/9781529157635.jpg","affiliateLink":"https://www.awin1.com/pclick.php?p=38871532062&a=511345&m=3017","inStock":true},{"id":"3450191291","name":"Hanns and Rudolf","description":"Book","price":12.99,"currency":"GBP","merchant":"Waterstones","brand":"Waterstones","category":"Books","imageUrl":"https://images2.productserve.com/noimage.gif","affiliateLink":"https://www.awin1.com/pclick.php?p=3450191291&a=511345&m=3787","inStock":true},{"id":"3450189991","name":"The Lie","description":"Book","price":9.99,"currency":"GBP","merchant":"Waterstones","brand":"Waterstones","category":"Books","imageUrl":"https://images2.productserve.com/noimage.gif","affiliateLink":"https://www.awin1.com/pclick.php?p=3450189991&a=511345&m=3787","inStock":true},{"id":"38871286779","name":"Little Book of Angels","description":"The follow up to Little Book Of Saints, this handsome little book featuring 75 beautiful illustrations and verses, poems and hymns about angels is the perfect gift for Easter, confirmation or just bec","price":16.99,"currency":"GBP","merchant":"TGJones","brand":"TGJones","category":"Books","imageUrl":"https://whs.dmmserver.com/media/640/97814521/9781452114415.jpg","affiliateLink":"https://www.awin1.com/pclick.php?p=38871286779&a=511345&m=3017","inStock":true},{"id":"39010949346","name":"Studio Ghibli: 100 Collectible Postcards","description":"Celebrate the art of Studio Ghibli, the beloved Japanese animation film studio, with this extensive collection of 100 full-color postcards showcasing final frames from all their feature-length films—f","price":22,"currency":"GBP","merchant":"TGJones","brand":"TGJones","category":"Books","imageUrl":"https://whs.dmmserver.com/media/640/97814521/9781452168661.jpg","affiliateLink":"https://www.awin1.com/pclick.php?p=39010949346&a=511345&m=3017","inStock":true},{"id":"38871518936","name":"Woman on the Edge of Time : The classic feminist dystopian novel","description":"'One of those rare novels that leave us different people at the end than we were at the beginning.' GLORIA STEINEM'She is a serious writer who deserves the sort of considered attention which, too ofte","price":9.99,"currency":"GBP","merchant":"TGJones","brand":"TGJones","category":"Books","imageUrl":"https://whs.dmmserver.com/media/640/97815291/9781529100570.jpg","affiliateLink":"https://www.awin1.com/pclick.php?p=38871518936&a=511345&m=3017","inStock":true},{"id":"38871518943","name":"A Deadly Education : A TikTok sensation and Sunday Times bestselling dark academia fantasy","description":"The Sunday Times bestseller!FINALIST FOR THE LODESTAR AWARDIn the start of an all-new trilogy, the bestselling author of Uprooted and Spinning Silver introduces you to a dangerous school for the magic","price":9.99,"currency":"GBP","merchant":"TGJones","brand":"TGJones","category":"Books","imageUrl":"https://whs.dmmserver.com/media/640/97815291/9781529100877.jpg","affiliateLink":"https://www.awin1.com/pclick.php?p=38871518943&a=511345&m=3017","inStock":true},{"id":"38871531579","name":"The Time Travel Twins","description":"All that stands between an evil villain and world domination is a pair of twelve-year-olds who just learned they’re time travellers.What could go wrong?Twins Pew and Basket Church dream of escaping th","price":8.99,"currency":"GBP","merchant":"TGJones","brand":"TGJones","category":"Books","imageUrl":"https://whs.dmmserver.com/media/640/97815291/9781529120745.jpg","affiliateLink":"https://www.awin1.com/pclick.php?p=38871531579&a=511345&m=3017","inStock":true},{"id":"38871501928","name":"Bulldozer’s Shapes: Goodnight, Goodnight, Construction Site","description":"Time for the construction site to SHAPE UP! Little construction fans will love learning their shapes by watching Bulldozer CIRCLE around, clearing away TRIANGLES of dirt until the perfect building spo","price":6.99,"currency":"GBP","merchant":"TGJones","brand":"TGJones","category":"Books","imageUrl":"https://whs.dmmserver.com/media/640/97814521/9781452153216.jpg","affiliateLink":"https://www.awin1.com/pclick.php?p=38871501928&a=511345&m=3017","inStock":true},{"id":"38871518976","name":"Book of Night","description":"'Dark, strange, thick with mystery and twists Book of Night is everything delicious and frightening I've come to expect from Holly Black.' Leigh Bardugo, Sunday Times bestselling author of Ninth House","price":9.99,"currency":"GBP","merchant":"TGJones","brand":"TGJones","category":"Books","imageUrl":"https://whs.dmmserver.com/media/640/97815291/9781529102390.jpg","affiliateLink":"https://www.awin1.com/pclick.php?p=38871518976&a=511345&m=3017","inStock":true}]}