{"success":true,"query":"board games","searchTerms":"board games","extractedParams":{"keywords":["board","games"]},"totalCount":3259,"offset":10,"limit":10,"hasMore":true,"count":10,"products":[{"id":"38871483328","name":"Platters and Boards: Beautiful, Casual Spreads for Every Occasion","description":"Bestselling cookbook shares the secrets to easy, attractive, and delicious spreadsWith 40 contemporary spreads to graze on presented with gorgeous photography, easy recipes, and helpful tipsAn inspiri","price":18.99,"currency":"GBP","merchant":"TGJones","brand":"TGJones","category":"Books","imageUrl":"https://whs.dmmserver.com/media/640/97814521/9781452164151.jpg","affiliateLink":"https://www.awin1.com/pclick.php?p=38871483328&a=511345&m=3017","inStock":true},{"id":"38871483496","name":"Bookscape Board Books: A Forest's Seasons","description":"Escape into a magical world with this adorable Bookscape Board Book!Discover a forest's seasons in this one-of-a-kind book.Each uniquely shaped page overlaps with the next to create a complete landsca","price":6.99,"currency":"GBP","merchant":"TGJones","brand":"TGJones","category":"Books","imageUrl":"https://whs.dmmserver.com/media/640/97814521/9781452174945.jpg","affiliateLink":"https://www.awin1.com/pclick.php?p=38871483496&a=511345&m=3017","inStock":true},{"id":"38906168474","name":"Box of Dares : 100 Sexy Prompts for Couples","description":"Perfect for newlyweds, couples looking to spice things up, couples who play card games and board games, and playful partners.Couples of all ages and stages of relationship will have a blast playing th","price":10,"currency":"GBP","merchant":"TGJones","brand":"TGJones","category":"Books","imageUrl":"https://whs.dmmserver.com/media/640/97814521/9781452172170.jpg","affiliateLink":"https://www.awin1.com/pclick.php?p=38906168474&a=511345&m=3017","inStock":true},{"id":"38871532312","name":"Last Summer on State Street","description":"State Street Chicago, 1999. One summer that changes everything. An unlikely trio: Felicia 'Fe Fe' Stevens, daughter of fiercely protective mother; Precious Brown, daughter of a prominent church Elder;","price":9.99,"currency":"GBP","merchant":"TGJones","brand":"TGJones","category":"Books","imageUrl":"https://whs.dmmserver.com/media/640/97815291/9781529197600.jpg","affiliateLink":"https://www.awin1.com/pclick.php?p=38871532312&a=511345&m=3017","inStock":true},{"id":"39308247847","name":"Authority : Essays on Being Right","description":"This highly anticipated book by the Pulitzer Prize winning critic Andrea Long Chu asks one of the most urgent questions of our time: what is authority when everyone has an opinion on everything?'A rig","price":20,"currency":"GBP","merchant":"TGJones","brand":"TGJones","category":"Books","imageUrl":"https://whs.dmmserver.com/media/640/97815291/9781529155112.jpg","affiliateLink":"https://www.awin1.com/pclick.php?p=39308247847&a=511345&m=3017","inStock":true},{"id":"39331259568","name":"My Other Heart","description":"For fans of The Vanishing Half and Little Fires Everywhere, a sweeping and heartfelt debut about finding your roots across borders and beyond blood-ties'A magical read ... that will break your heart t","price":18.99,"currency":"GBP","merchant":"TGJones","brand":"TGJones","category":"Books","imageUrl":"https://whs.dmmserver.com/media/640/97815291/9781529154061.jpg","affiliateLink":"https://www.awin1.com/pclick.php?p=39331259568&a=511345&m=3017","inStock":true},{"id":"40664087480","name":"Those Who Are About To Die : Gladiators and the Roman Mind","description":"Bestselling author Harry Sidebottom takes readers on a thrilling journey through a day in the life of the most iconic figure of the ancient world: the Roman gladiator‘Magnificent… Was I not entertaine","price":25,"currency":"GBP","merchant":"TGJones","brand":"TGJones","category":"Books","imageUrl":"https://whs.dmmserver.com/media/640/97815291/9781529154009.jpg","affiliateLink":"https://www.awin1.com/pclick.php?p=40664087480&a=511345&m=3017","inStock":true},{"id":"40452637840","name":"Fires Which Burned Brightly : A Life in Progress","description":"'A wise and heartfelt piece of writing' THE TIMES'Witty' INDEPENDENT'Wry and reflective . . . a soulful look at a life in words' i PAPER‘A wonderful portrait of an age, and of a writer’ RORY STEWART, ","price":20,"currency":"GBP","merchant":"TGJones","brand":"TGJones","category":"Books","imageUrl":"https://whs.dmmserver.com/media/640/97815291/9781529154658.jpg","affiliateLink":"https://www.awin1.com/pclick.php?p=40452637840&a=511345&m=3017","inStock":true},{"id":"38871532005","name":"The Night She Disappeared","description":"A cold case. An abandoned mansion. A family hiding a terrible secret. Prepare to be hooked . . . 'By far her best thriller yet.' Harlan Coben'Insane suspense.I loved it.' Lee Child'A gothic, multi-lay","price":9.99,"currency":"GBP","merchant":"TGJones","brand":"TGJones","category":"Books","imageUrl":"https://whs.dmmserver.com/media/640/97815291/9781529156270.jpg","affiliateLink":"https://www.awin1.com/pclick.php?p=38871532005&a=511345&m=3017","inStock":true},{"id":"38871531576","name":"Minerva Keen’s Detective Club","description":"Living in the luxurious Arcanum building - with its interior balconies perfect for playing tag, an elevator like an iron birdcage, and quirky neighbours behind every apartment door - has always been f","price":8.99,"currency":"GBP","merchant":"TGJones","brand":"TGJones","category":"Books","imageUrl":"https://whs.dmmserver.com/media/640/97815291/9781529120448.jpg","affiliateLink":"https://www.awin1.com/pclick.php?p=38871531576&a=511345&m=3017","inStock":true}]}