{"success":true,"query":"outdoor toys","searchTerms":"outdoor toys","extractedParams":{"keywords":["outdoor","toys"]},"totalCount":8346,"offset":10,"limit":10,"hasMore":true,"count":10,"products":[{"id":"26603964557","name":"LEGO DUPLO Tower Crane & Construction Vehicle Toys (10933)","description":"There's a full day of activities for little construction workers to explore at the bustling building site. With a big bulldozer with Push & Go motor, mini bulldozer, dump truck, digger and crane toys ","price":99.99,"currency":"GBP","merchant":"Zavvi UK","brand":"LEGO","category":"Creative & Construction","imageUrl":"https://s4.thcdn.com/productimg/1600/1600/12553291-1714767843426261.jpg","affiliateLink":"https://www.awin1.com/pclick.php?p=26603964557&a=511345&m=2549","inStock":true},{"id":"23976261865","name":"LEGO DC Batman Batcave Clayface Invasion Building Toys (76122)","description":"Quick! Transform Bruce Wayne™ into Batman™ to stop Clayface™ invading the LEGO® Batcave! Check the Batcomputer and dash to the Bat-Tank™. Fire the Bat-Tank's flick missiles, hook and stud shooters at ","price":79.99,"currency":"GBP","merchant":"Zavvi UK","brand":"LEGO","category":"Creative & Construction","imageUrl":"https://s4.thcdn.com/productimg/1600/1600/12041882-5254780560802146.jpg","affiliateLink":"https://www.awin1.com/pclick.php?p=23976261865&a=511345&m=2549","inStock":true},{"id":"23133148225","name":"LEGO Speed Champions: Mini Cooper Rally & Buggy Car Toys (75894)","description":"Compete in a classic vs. modern rally race with the LEGO® Speed Champions 75894 1967 Mini Cooper S Rally and 2018 MINI John Cooper Works Buggy! Choose your vehicle, jump in the cockpit and speed away.","price":42.99,"currency":"GBP","merchant":"Zavvi UK","brand":"LEGO","category":"Creative & Construction","imageUrl":"https://s4.thcdn.com/productimg/1600/1600/11885570-2804780552622538.jpg","affiliateLink":"https://www.awin1.com/pclick.php?p=23133148225&a=511345&m=2549","inStock":true},{"id":"25745843337","name":"LEGO Technic: Stunt Show Truck & Bike Toys Set (42106)","description":"It's the ultimate test of speed, skill and precision. Pull back the motorcycle to send it racing towards the ramp. Then watch as it soars through the ring of fire in a display of pure bravery. Just sw","price":35.99,"currency":"GBP","merchant":"Zavvi UK","brand":"LEGO","category":"Creative & Construction","imageUrl":"https://s4.thcdn.com/productimg/1600/1600/12385269-1214780556533431.jpg","affiliateLink":"https://www.awin1.com/pclick.php?p=25745843337&a=511345&m=2549","inStock":true},{"id":"37021070095","name":"LEGO DUPLO Water Park Bath Toys for Toddlers Aged 2+ 10989","description":"Looking for the best bath time toys for toddlers aged 2+? The LEGO DUPLO Town Water Park (10989) turns bath time into a fun learning time as kids explore this colourful water park. As well as introduc","price":31.99,"currency":"GBP","merchant":"Zavvi UK","brand":"LEGO","category":"Creative & Construction","imageUrl":"https://s4.thcdn.com/productimg/1600/1600/14222620-5855094713292216.jpg","affiliateLink":"https://www.awin1.com/pclick.php?p=37021070095&a=511345&m=2549","inStock":true},{"id":"30475803483","name":"Schleich Farm World Advent Calendar (2021)","description":"The new Schleich® FARM WORLD Advent calendar has fantastic surprises behind 24 little doors, thus shortening the wait for the big celebration! The Advent calendar contains lots of great animals and al","price":16.99,"currency":"GBP","merchant":"Zavvi UK","brand":"Zavvi UK","category":"Toys","imageUrl":"https://s4.thcdn.com/productimg/1600/1600/12871218-1924891519996815.jpg","affiliateLink":"https://www.awin1.com/pclick.php?p=30475803483&a=511345&m=2549","inStock":true},{"id":"26603964571","name":"LEGO Jurassic World: Pteranodon Dinosaur Breakout Toy (75940)","description":"Kids can build their own LEGO Jurassic World of dinosaur-chasing action with this Gallimimus and Pteranodon Breakout (75940) toy playset. It features a toy research vehicle with cool elements to chase","price":47.99,"currency":"GBP","merchant":"Zavvi UK","brand":"LEGO","category":"Creative & Construction","imageUrl":"https://s4.thcdn.com/productimg/1600/1600/12553338-1224887613530318.jpg","affiliateLink":"https://www.awin1.com/pclick.php?p=26603964571&a=511345&m=2549","inStock":true},{"id":"26603964569","name":"LEGO NINJAGO: Skull Sorcerers Dungeons Board Game Set (71722)","description":"Action-packed LEGO NINJAGO Skull Sorcerer's Dungeons (71722) playset contains 8 minifigures, including ninjas Hero Cole, Hero Zane and Hero Lloyd. The toy dungeons let creative kids enjoy countless ho","price":72.99,"currency":"GBP","merchant":"Zavvi UK","brand":"LEGO","category":"Creative & Construction","imageUrl":"https://s4.thcdn.com/productimg/1600/1600/12553336-8324774890081450.jpg","affiliateLink":"https://www.awin1.com/pclick.php?p=26603964569&a=511345&m=2549","inStock":true},{"id":"26603964565","name":"LEGO NINJAGO: Legacy Destiny's Bounty Ship Set (71705)","description":"Creative kids who love building classic LEGO NINJAGO Boat sets and are excited by playing with fun toys will love Destiny's Bounty (71705) ship playset. This detailed building set for kids features a ","price":99.99,"currency":"GBP","merchant":"Zavvi UK","brand":"LEGO","category":"Creative & Construction","imageUrl":"https://s4.thcdn.com/productimg/1600/1600/12553330-8664887619482597.jpg","affiliateLink":"https://www.awin1.com/pclick.php?p=26603964565&a=511345&m=2549","inStock":true},{"id":"26606356791","name":"LEGO Minecraft: The Crafting Box 3.0 Fortress Farm Set (21161)","description":"LEGO Minecraft The Crafting Box 3.0 (21161) building set brings the fun excitement of Minecraft into the real world with a diverse set of LEGO construction bricks and pieces.The Crafting Box set is bu","price":69.99,"currency":"GBP","merchant":"Zavvi UK","brand":"LEGO","category":"Creative & Construction","imageUrl":"https://s4.thcdn.com/productimg/1600/1600/12553293-1554767844778112.jpg","affiliateLink":"https://www.awin1.com/pclick.php?p=26606356791&a=511345&m=2549","inStock":true}]}