{"success":true,"query":"Marvel","searchTerms":"Marvel marvel","extractedParams":{"keywords":["marvel"],"brand":"Marvel"},"totalCount":1698,"offset":10,"limit":10,"hasMore":true,"count":10,"products":[{"id":"31356566391","name":"Marvel Studio's Iron Man 2 - Mondo #48 Zavvi Exclusive 4K Ultra HD Steelbook (Includes Blu-ray)","description":"Robert Downey Jr. returns as billionaire Tony Stark in this thrilling sequel to the world wide blockbuster. Now that his Super Hero secret has been revealed, Tony's life is more intense than ever. Eve","price":29.99,"currency":"GBP","merchant":"Zavvi UK","brand":"Marvel","category":"HD DVD","imageUrl":"https://s4.thcdn.com/productimg/1600/1600/13482991-2054911926174274.jpg","affiliateLink":"https://www.awin1.com/pclick.php?p=31356566391&a=511345&m=2549","inStock":true},{"id":"28609885091","name":"Marvel Studios' Avengers 1-4 - 4K Ultra HD Collection","description":"Avengers AssembleMarvel Studios presents Marvel's Avengers Assemble, the Super Hero team-up of a lifetime. Iconic Marvel Super Heroes Iron Man, The Incredible Hulk, Thor and Captain America assemble f","price":44.99,"currency":"GBP","merchant":"Zavvi UK","brand":"Marvel","category":"HD DVD","imageUrl":"https://s4.thcdn.com/productimg/1600/1600/12908834-1964844555519523.jpg","affiliateLink":"https://www.awin1.com/pclick.php?p=28609885091&a=511345&m=2549","inStock":true},{"id":"39305131418","name":"Marvel Figures Luke Cage & Iron Fist 2 Pack","description":"The Marvel Fact Files Specials bring you the Heroes for Hire available together in one boxset, at a specially discounted price. The figurines stand at approx. 4.6 inches tall on a Marvel branded base ","price":29.99,"currency":"GBP","merchant":"Zavvi UK","brand":"Marvel","category":"Action Figures","imageUrl":"https://s4.thcdn.com/productimg/1600/1600/12691792-7444829813139942.jpg","affiliateLink":"https://www.awin1.com/pclick.php?p=39305131418&a=511345&m=2549","inStock":true},{"id":"41895304825","name":"Marvel Studios Thor Ragnarok – Mondo #60 Steelbook 4K Ultra HD (Blu-ray inclus)","description":"In Marvel Studios' Thor: Ragnarok, Thor, imprisoned on the other side of the universe, must race against time to stop Ragnarok - the destruction of his world and the end of Asgardian civilisation at t","price":14.99,"currency":"GBP","merchant":"Zavvi UK","brand":"Marvel","category":"HD DVD","imageUrl":"https://s4.thcdn.com/productimg/1600/1600/14193272-1835005563473124.jpg","affiliateLink":"https://www.awin1.com/pclick.php?p=41895304825&a=511345&m=2549","inStock":true},{"id":"39378708206","name":"Marvel Iron Man Desk Lamp USB Powered, Red","description":"Light up your desk in superhero style with the Marvel Iron Man Gauntlet USB desk lamp! Officially licensed, it features adjustable brightness and a 15-minute auto-shutoff mode. Measuring approximately","price":35.99,"currency":"GBP","merchant":"Robert Dyas","brand":"Marvel","category":"Novelty Gifts","imageUrl":"https://www.robertdyas.co.uk/media/catalog/product/5/3/534912_1.jpg","affiliateLink":"https://www.awin1.com/pclick.php?p=39378708206&a=511345&m=1528","inStock":true},{"id":"25672969649","name":"LEGO Marvel Spider-Man Jet vs. Venom Mech Playset (76150)","description":"This enormous Venom mech gives kids a giant-sized bad guy to defeat. When they put the minifigure inside the mech, the mega mechanical monster can go anywhere and grab at anything - including Spider-M","price":32.99,"currency":"GBP","merchant":"Zavvi UK","brand":"LEGO","category":"Creative & Construction","imageUrl":"https://s4.thcdn.com/productimg/1600/1600/12385315-1864780554982017.jpg","affiliateLink":"https://www.awin1.com/pclick.php?p=25672969649&a=511345&m=2549","inStock":true},{"id":"36681478325","name":"LEGO Marvel Avengers Thor’s Hammer Infinity Saga Set (76209)","description":"Celebrate Marvel Studios’ Infinity Saga with LEGO Marvel Avengers Thor’s Hammer (76209) set for adults. This authentic recreation puts the power of Thor’s hammer into your hands. Designed with epic sc","price":104.99,"currency":"GBP","merchant":"Zavvi UK","brand":"LEGO","category":"Creative & Construction","imageUrl":"https://s4.thcdn.com/productimg/1600/1600/13634299-6734938175412940.jpg","affiliateLink":"https://www.awin1.com/pclick.php?p=36681478325&a=511345&m=2549","inStock":true},{"id":"43001732326","name":"LEGO Marvel Eternals In Arishams Shadow Set 76155, Multi","description":"6 movie minifigures for Marvel Studios&#146; The Eternals action!Combine all the fun elements of the Marvel Studios&#146; The Eternals movie in one awesome LEGO playset. In Arishem&#146;s Shadow (7615","price":51.99,"currency":"GBP","merchant":"Robert Dyas","brand":"LEGO","category":"Other Toys","imageUrl":"https://www.robertdyas.co.uk/media/catalog/product/7/9/793919_1.jpg","affiliateLink":"https://www.awin1.com/pclick.php?p=43001732326&a=511345&m=1528","inStock":true},{"id":"43001732325","name":"LEGO Marvel Super Heroes Eternals&#58; Rise Of The Domos Set 76156, Multi","description":"Marvel Studios&#146; The Eternals&#146; spaceship toy and superhero minifiguresLEGO Marvel Rise of the Domo (76156) lets kids explore the detailed interior of the Eternals&#146; spaceship then recreat","price":86.99,"currency":"GBP","merchant":"Robert Dyas","brand":"LEGO","category":"Other Toys","imageUrl":"https://www.robertdyas.co.uk/media/catalog/product/7/9/793918_1.jpg","affiliateLink":"https://www.awin1.com/pclick.php?p=43001732325&a=511345&m=1528","inStock":true},{"id":"43001732336","name":"LEGO Marvel Super Heroes King Namor's Throne Room Set 76213, Multi","description":"Underwater adventures aboard the Skirmisher submarineImaginative underwater action awaits young Super Heroes aged 7 and up in the LEGO Marvel King Namor&#146;s Throne Room (76213) set.Submarine advent","price":32.99,"currency":"GBP","merchant":"Robert Dyas","brand":"LEGO","category":"Other Toys","imageUrl":"https://www.robertdyas.co.uk/media/catalog/product/7/9/793940_1.jpg","affiliateLink":"https://www.awin1.com/pclick.php?p=43001732336&a=511345&m=1528","inStock":true}]}