{"success":true,"query":"Harry Potter","searchTerms":"harry potter","extractedParams":{"keywords":["harry","potter"]},"totalCount":2040,"offset":10,"limit":10,"hasMore":true,"count":10,"products":[{"id":"40833349050","name":"Harry Potter  BI1881  boys's Children's sweatshirt in Grey","description":"Harry Potter  BI1881  boys's Children's sweatshirt in Grey","price":24.58,"currency":"GBP","merchant":"Spartoo.co.uk","brand":"Spartoo.co.uk","category":"Children's Clothing","imageUrl":"https://photos6.spartoo.co.uk/photos/299/29938589/29938589_350_A.jpg","affiliateLink":"https://www.awin1.com/pclick.php?p=40833349050&a=511345&m=2638","inStock":true},{"id":"40833348811","name":"Harry Potter  BI1864  girls's Children's Sweatshirt in Black","description":"Harry Potter  BI1864  girls's Children's Sweatshirt in Black","price":24.58,"currency":"GBP","merchant":"Spartoo.co.uk","brand":"Spartoo.co.uk","category":"Children's Clothing","imageUrl":"https://photos6.spartoo.co.uk/photos/299/29938353/29938353_350_A.jpg","affiliateLink":"https://www.awin1.com/pclick.php?p=40833348811&a=511345&m=2638","inStock":true},{"id":"40833348859","name":"Harry Potter  BI1868  boys's Children's sweatshirt in Black","description":"Harry Potter  BI1868  boys's Children's sweatshirt in Black","price":24.58,"currency":"GBP","merchant":"Spartoo.co.uk","brand":"Spartoo.co.uk","category":"Children's Clothing","imageUrl":"https://photos6.spartoo.co.uk/photos/299/29938401/29938401_350_A.jpg","affiliateLink":"https://www.awin1.com/pclick.php?p=40833348859&a=511345&m=2638","inStock":true},{"id":"40833349009","name":"Harry Potter  Seeker  boys's Children's sweatshirt in Grey","description":"Harry Potter  Seeker  boys's Children's sweatshirt in Grey","price":24.58,"currency":"GBP","merchant":"Spartoo.co.uk","brand":"Spartoo.co.uk","category":"Children's Clothing","imageUrl":"https://photos6.spartoo.co.uk/photos/299/29938549/29938549_350_A.jpg","affiliateLink":"https://www.awin1.com/pclick.php?p=40833349009&a=511345&m=2638","inStock":true},{"id":"40833349016","name":"Harry Potter  BI1879  boys's Children's sweatshirt in Black","description":"Harry Potter  BI1879  boys's Children's sweatshirt in Black","price":24.58,"currency":"GBP","merchant":"Spartoo.co.uk","brand":"Spartoo.co.uk","category":"Children's Clothing","imageUrl":"https://photos6.spartoo.co.uk/photos/299/29938556/29938556_350_A.jpg","affiliateLink":"https://www.awin1.com/pclick.php?p=40833349016&a=511345&m=2638","inStock":true},{"id":"40833349019","name":"Harry Potter  BI1879  boys's Children's sweatshirt in White","description":"Harry Potter  BI1879  boys's Children's sweatshirt in White","price":23.76,"currency":"GBP","merchant":"Spartoo.co.uk","brand":"Spartoo.co.uk","category":"Children's Clothing","imageUrl":"https://photos6.spartoo.co.uk/photos/299/29938559/29938559_350_A.jpg","affiliateLink":"https://www.awin1.com/pclick.php?p=40833349019&a=511345&m=2638","inStock":true},{"id":"40833348987","name":"Harry Potter  BI1877  girls's Children's Sweatshirt in Black","description":"Harry Potter  BI1877  girls's Children's Sweatshirt in Black","price":24.58,"currency":"GBP","merchant":"Spartoo.co.uk","brand":"Spartoo.co.uk","category":"Children's Clothing","imageUrl":"https://photos6.spartoo.co.uk/photos/299/29938527/29938527_350_A.jpg","affiliateLink":"https://www.awin1.com/pclick.php?p=40833348987&a=511345&m=2638","inStock":true},{"id":"40833348988","name":"Harry Potter  BI1877  girls's Children's Sweatshirt in Grey","description":"Harry Potter  BI1877  girls's Children's Sweatshirt in Grey","price":24.58,"currency":"GBP","merchant":"Spartoo.co.uk","brand":"Spartoo.co.uk","category":"Children's Clothing","imageUrl":"https://photos6.spartoo.co.uk/photos/299/29938528/29938528_350_A.jpg","affiliateLink":"https://www.awin1.com/pclick.php?p=40833348988&a=511345&m=2638","inStock":true},{"id":"40833348933","name":"Harry Potter  BI1873  boys's Children's sweatshirt in Black","description":"Harry Potter  BI1873  boys's Children's sweatshirt in Black","price":24.58,"currency":"GBP","merchant":"Spartoo.co.uk","brand":"Spartoo.co.uk","category":"Children's Clothing","imageUrl":"https://photos6.spartoo.co.uk/photos/299/29938473/29938473_350_A.jpg","affiliateLink":"https://www.awin1.com/pclick.php?p=40833348933&a=511345&m=2638","inStock":true},{"id":"40833349017","name":"Harry Potter  BI1879  boys's Children's sweatshirt in Blue","description":"Harry Potter  BI1879  boys's Children's sweatshirt in Blue","price":24.58,"currency":"GBP","merchant":"Spartoo.co.uk","brand":"Spartoo.co.uk","category":"Children's Clothing","imageUrl":"https://photos6.spartoo.co.uk/photos/299/29938557/29938557_350_A.jpg","affiliateLink":"https://www.awin1.com/pclick.php?p=40833349017&a=511345&m=2638","inStock":true}]}