{"success":true,"query":"baby toddler","searchTerms":"baby toddler","extractedParams":{"keywords":["baby","toddler"]},"totalCount":9322,"offset":10,"limit":10,"hasMore":true,"count":10,"products":[{"id":"41740408939","name":"Personalised Hello World Home From The Hospital Baby Gift Set","description":"Make their very first hello even more magical with our personalised “Hello World” baby announcement set – a beautiful baby bundle perfect for their big debut. This adorable ivory set includes a long-s","price":29,"currency":"GBP","merchant":"My 1st Years","brand":"My 1st Years","category":"Gifts","imageUrl":"https://www.my1styears.com/media/catalog/product/s/e/se_30113446_hello-world---home-from-hosptial-set-1.jpg","affiliateLink":"https://www.awin1.com/pclick.php?p=41740408939&a=511345&m=3964","inStock":true},{"id":"41740408940","name":"Personalised Yellow Floral Home From The Hospital Baby Gift Set","description":"Welcome your little sunshine in the sweetest way with our personalised home from the hospital baby set. We think this beautiful little outfit is a heartwarming first outfit that’s made for those once-","price":29,"currency":"GBP","merchant":"My 1st Years","brand":"My 1st Years","category":"Gifts","imageUrl":"https://www.my1styears.com/media/catalog/product/s/e/se_30113447_yellow-floral-home-from-hosptial-set-1.jpg","affiliateLink":"https://www.awin1.com/pclick.php?p=41740408940&a=511345&m=3964","inStock":true},{"id":"41464174132","name":"Personalised Pink Heart Ivory Toddler High Top Trainers","description":"Let your little one add a sprinkle of love to every footstep with our personalised ivory high-top trainers, featuring adorable pink love hearts. This very cute pair are designed for toddlers taking th","price":29,"currency":"GBP","merchant":"My 1st Years","brand":"My 1st Years","category":"Children's Footwear","imageUrl":"https://www.my1styears.com/media/catalog/product/p/i/pink-heart-ivory-toddler-high-top-1.jpg","affiliateLink":"https://www.awin1.com/pclick.php?p=41464174132&a=511345&m=3964","inStock":true},{"id":"41740408928","name":"Personalised Harrods Exclusive New Baby Gift Set","description":"Snuggle with them in warmth and wonder with our Personalised Caramel Born To Be Loved Bean Bag Chair. Crafted from irresistibly soft borg fabric in a rich caramel shade, it’s the perfect spot for curl","price":29,"currency":"GBP","merchant":"My 1st Years","brand":"My 1st Years","category":"Gifts","imageUrl":"https://www.my1styears.com/media/catalog/product/s/e/se_ig80111247_harrods-exclusive-gft-set-1.jpg","affiliateLink":"https://www.awin1.com/pclick.php?p=41740408928&a=511345&m=3964","inStock":true},{"id":"41740408950","name":"Personalised Pink Giraffe Home From The Hospital Baby Gift Set","description":"Let little love’s see their home for the very first time in memorable style with our personalised pink giraffe home from the hospital set – a beautifully thoughtful first outfit designed to be cherish","price":29,"currency":"GBP","merchant":"My 1st Years","brand":"My 1st Years","category":"Gifts","imageUrl":"https://www.my1styears.com/media/catalog/product/s/e/se_30111058_pink_giraffe_home_from_hosptial_set-modeljpg.jpg","affiliateLink":"https://www.awin1.com/pclick.php?p=41740408950&a=511345&m=3964","inStock":true},{"id":"41886297453","name":"Personalised Penguin Baby Sock Tops","description":"Toes will be toasty on Christmas Eve with these personalised penguin sock top slippers. Designed in a sweet grey shade and featuring an adorable penguin face, pop these on to keep little toes happy al","price":22,"currency":"GBP","merchant":"My 1st Years","brand":"My 1st Years","category":"Children's Footwear","imageUrl":"https://www.my1styears.com/media/catalog/product/3/0/30111164penguin-sock-top-a.jpg","affiliateLink":"https://www.awin1.com/pclick.php?p=41886297453&a=511345&m=3964","inStock":true},{"id":"39583021625","name":"Personalised Born In 2025 Greeting Card","description":"Here’s the perfect way to say – hello little one, we’re so happy you’re here! This beautiful Born in 2025 greeting card is a sweet way to write all your lovely words and wishes for a new baby inside. ","price":3,"currency":"GBP","merchant":"My 1st Years","brand":"My 1st Years","category":"Gifts","imageUrl":"https://www.my1styears.com/media/catalog/product/s/e/se_40113610-born-in-2025---rectangle-card-1.jpg","affiliateLink":"https://www.awin1.com/pclick.php?p=39583021625&a=511345&m=3964","inStock":true},{"id":"41794115251","name":"Personalised 1st Birthday Blue Bodysuit","description":"Keep your baby comfortable all day long by dressing them in our super-comfy personalised blue birthday bodysuit. Your tot’s first birthday outfit should be just as exciting as the milestone you’re cel","price":16,"currency":"GBP","merchant":"My 1st Years","brand":"My 1st Years","category":"Gifts","imageUrl":"https://www.my1styears.com/media/catalog/product/s/e/se_30112064_birthday_bodysuit_-_blue_a.jpg","affiliateLink":"https://www.awin1.com/pclick.php?p=41794115251&a=511345&m=3964","inStock":true},{"id":"39337391777","name":"Personalised Born In 2025 Animal Letterbox Gift Set","description":"Celebrate the joy of a brand-new arrival with this oh so cute animal Born in 2025 gift set. Thoughtfully designed and filled with keepsakes – this set includes an adorable bodysuit, a bib and a greeti","price":3,"currency":"GBP","merchant":"My 1st Years","brand":"My 1st Years","category":"Gifts","imageUrl":"https://www.my1styears.com/media/catalog/product/i/g/ig80112342_born-in-2025---animal---letterbox-gift-set--1.jpg","affiliateLink":"https://www.awin1.com/pclick.php?p=39337391777&a=511345&m=3964","inStock":true},{"id":"41856245456","name":"Personalised Blue Spot Splash & Explore Gift Set","description":"Rainy days become the best kind of adventure thanks to our Personalised Blue Splash & Explore Gift Set! This terrific trio includes a baby-blue fleece-lined raincoat with reflective strips, a cosy pai","price":43,"currency":"GBP","merchant":"My 1st Years","brand":"My 1st Years","category":"Gifts","imageUrl":"https://www.my1styears.com/media/catalog/product/i/g/ig80111565_blue-spot-splash-_-explore_2.jpg","affiliateLink":"https://www.awin1.com/pclick.php?p=41856245456&a=511345&m=3964","inStock":true}]}