{"success":true,"query":"LEGO Star Wars","searchTerms":"LEGO lego star wars","extractedParams":{"keywords":["lego","star wars"],"brand":"LEGO"},"totalCount":6573,"offset":10,"limit":10,"hasMore":true,"count":10,"products":[{"id":"41226646974","name":"LEGO® Star Wars™ Death Trooper & Night Trooper Battle Pack Building Toy 75412","description":"Let kids build their own platoon and transport them into LEGO® Star Wars: Ahsoka™ battles with the Death Trooper & Night Trooper Battle Pack (75412). A cool small gift for boys, girls and any fans age","price":14.99,"currency":"GBP","merchant":"Zavvi UK","brand":"LEGO","category":"Toys","imageUrl":"https://s4.thcdn.com/productimg/1600/1600/16717334-1235240132117955.jpg","affiliateLink":"https://www.awin1.com/pclick.php?p=41226646974&a=511345&m=2549","inStock":true},{"id":"41047897507","name":"LEGO® Star Wars: Andor™ Rebel U-Wing Starfighter™ Buildable Vehicle Model 75399","description":"Kids team up with Cassian Andor and K-2SO to recreate Star Wars: Andor™ Season 2 scenes with this Rebel U-Wing Starfighter buildable model kit (75399). A playful Christmas or birthday gift for boys, g","price":49.99,"currency":"GBP","merchant":"Zavvi UK","brand":"LEGO","category":"Toys","imageUrl":"https://s4.thcdn.com/productimg/1600/1600/16583234-7935234409471537.jpg","affiliateLink":"https://www.awin1.com/pclick.php?p=41047897507&a=511345&m=2549","inStock":true},{"id":"42014732790","name":"LEGO Star Wars: The Clone Wars V-19 Torrent Starfighter 75432","description":"Team up with General Obi-Wan Kenobi against Asajj Ventress, and swoosh into action with the LEGO Star Wars V-19 Torrent Starfighter building toy for 9+ year old boys and girls (75432). An awesome Star","price":43.99,"currency":"GBP","merchant":"Zavvi UK","brand":"LEGO","category":"Toys","imageUrl":"https://s4.thcdn.com/productimg/1600/1600/17248280-2895261136614511.jpg","affiliateLink":"https://www.awin1.com/pclick.php?p=42014732790&a=511345&m=2549","inStock":true},{"id":"40691233166","name":"LEGO® Bluey Playground Fun with Bluey and Chloe Preschool Toy Building Kit 11201","description":"Playground Fun with Bluey and Chloe (11201) is a preschool toy for fans of the Bluey TV show and is designed to deliver endless creative-play possibilities that develop the confidence and problem-solv","price":17.99,"currency":"GBP","merchant":"Zavvi UK","brand":"LEGO","category":"Toys","imageUrl":"https://s4.thcdn.com/productimg/1600/1600/16282226-1805223280740243.jpg","affiliateLink":"https://www.awin1.com/pclick.php?p=40691233166&a=511345&m=2549","inStock":true},{"id":"40691233110","name":"LEGO DUPLO Peppa Pig Camping Trip Toddler Learning Toy 10452","description":"Toddlers embark on a fun adventure with the LEGO DUPLO Peppa Pig Camping Trip (10452) toddler learning toy for 2+ year old girls and boys. Through creative play, preschoolers explore how they feel abo","price":17.99,"currency":"GBP","merchant":"Zavvi UK","brand":"LEGO","category":"Toys","imageUrl":"https://s4.thcdn.com/productimg/1600/1600/16211486-7085222279244810.jpg","affiliateLink":"https://www.awin1.com/pclick.php?p=40691233110&a=511345&m=2549","inStock":true},{"id":"40691233113","name":"LEGO DUPLO | Disney Winnie the Pooh’s Birthday Party 10457","description":"Parents and little ones enjoy creative playtimes and learn through play with the LEGO DUPLO | Disney Winnie the Pooh’s Birthday Party (10457) building toy for 1.5 plus year old girls and boys. This ed","price":17.99,"currency":"GBP","merchant":"Zavvi UK","brand":"LEGO","category":"Toys","imageUrl":"https://s4.thcdn.com/productimg/1600/1600/16211489-2595222279344299.jpg","affiliateLink":"https://www.awin1.com/pclick.php?p=40691233113&a=511345&m=2549","inStock":true},{"id":"41226646971","name":"LEGO® Super Mario™: Mario Kart™ – Interactive LEGO® Mario™ & Standard Kart 72043","description":"Let kids create their own racetrack and team up with LEGO® Mario™ in his Standard Kart for interactive races with this brick-built Mario Kart™ toy playset (72043). A fantastic LEGO® Super Mario™ gift ","price":38.99,"currency":"GBP","merchant":"Zavvi UK","brand":"LEGO","category":"Toys","imageUrl":"https://s4.thcdn.com/productimg/1600/1600/16717331-1455240135036811.jpg","affiliateLink":"https://www.awin1.com/pclick.php?p=41226646971&a=511345&m=2549","inStock":true},{"id":"41226646944","name":"LEGO ǀ Disney Minnie’s Pet Hotel Building Toy 43274","description":"Fans of Disney’s Mickey Mouse Clubhouse can embrace nurturing play as they learn to build with this LEGO ǀ Disney Minnie’s Pet Hotel (43274) building toy for 4+ year old girls and boys.The buildable D","price":31.99,"currency":"GBP","merchant":"Zavvi UK","brand":"LEGO","category":"Toys","imageUrl":"https://s4.thcdn.com/productimg/1600/1600/16717304-1405240135006061.jpg","affiliateLink":"https://www.awin1.com/pclick.php?p=41226646944&a=511345&m=2549","inStock":true},{"id":"41226646912","name":"LEGO® Technic Aston Martin Valkyrie Buildable Car Model Kit 42208","description":"Give kids a thrilling project with this LEGO® Technic Aston Martin Valkyrie (42208) car model kit for boys and girls aged 9 and over. Inspired by the real-world Aston Martin, this model version will d","price":46.99,"currency":"GBP","merchant":"Zavvi UK","brand":"LEGO","category":"Toys","imageUrl":"https://s4.thcdn.com/productimg/1600/1600/16717272-1125240132070285.jpg","affiliateLink":"https://www.awin1.com/pclick.php?p=41226646912&a=511345&m=2549","inStock":true},{"id":"41047897512","name":"LEGO® Jurassic World Baby Dinosaur Dolores: Aquilops Toy Set 76970","description":"Adventures await kids and fans aged 7 and over who want to start or add to their dinosaur collection with this fun Baby Dinosaur Dolores: Aquilops (76970) LEGO® Jurassic World toy set. This play-and-d","price":18.99,"currency":"GBP","merchant":"Zavvi UK","brand":"LEGO","category":"Toys","imageUrl":"https://s4.thcdn.com/productimg/1600/1600/16583239-1415234410582026.jpg","affiliateLink":"https://www.awin1.com/pclick.php?p=41047897512&a=511345&m=2549","inStock":true}]}