{"success":true,"query":"Disney toys","searchTerms":"Disney disney toys","extractedParams":{"keywords":["disney","toys"],"brand":"Disney"},"totalCount":14762,"offset":10,"limit":10,"hasMore":true,"count":10,"products":[{"id":"40691233113","name":"LEGO DUPLO | Disney Winnie the Pooh’s Birthday Party 10457","description":"Parents and little ones enjoy creative playtimes and learn through play with the LEGO DUPLO | Disney Winnie the Pooh’s Birthday Party (10457) building toy for 1.5 plus year old girls and boys. This ed","price":17.99,"currency":"GBP","merchant":"Zavvi UK","brand":"LEGO","category":"Toys","imageUrl":"https://s4.thcdn.com/productimg/1600/1600/16211489-2595222279344299.jpg","affiliateLink":"https://www.awin1.com/pclick.php?p=40691233113&a=511345&m=2549","inStock":true},{"id":"40691233130","name":"LEGO ǀ Disney Villains Maleficent’s and Cruella De Vil’s Dresses 43262","description":"Inspire creativity in Disney fans with this LEGO | Disney Maleficent’s and Cruella De Vil’s Dresses (43262) building toy for 9+ year old girls and boys.  The building set features the iconic Disney vi","price":36.99,"currency":"GBP","merchant":"Zavvi UK","brand":"LEGO","category":"Toys","imageUrl":"https://s4.thcdn.com/productimg/1600/1600/16211506-1525222279442939.jpg","affiliateLink":"https://www.awin1.com/pclick.php?p=40691233130&a=511345&m=2549","inStock":true},{"id":"40691233131","name":"LEGO ǀ Disney Princess Cinderella’s Dress Building Toy 43266","description":"Celebrate fashion and 75 years of Disney’s Cinderella with this LEGO | Disney Cinderella’s Dress (43266) buildable princess toy for 9+ year old girls and boys.  The building set features a dress, a dr","price":24.99,"currency":"GBP","merchant":"Zavvi UK","brand":"LEGO","category":"Toys","imageUrl":"https://s4.thcdn.com/productimg/1600/1600/16211507-1885222280103836.jpg","affiliateLink":"https://www.awin1.com/pclick.php?p=40691233131&a=511345&m=2549","inStock":true},{"id":"41226646938","name":"LEGO | Disney Angel, Lilo & Stitch Building Toy Set 43257","description":"Thrill Lilo & Stitch fans with this detailed LEGO | Disney Angel figure (43257) building toy for 9+ year old girls and boys.Angel, from Disney’s Lilo & Stitch TV show, has movable ears and antennae on","price":49.99,"currency":"GBP","merchant":"Zavvi UK","brand":"LEGO","category":"Toys","imageUrl":"https://s4.thcdn.com/productimg/1600/1600/16717298-1045240134074585.jpg","affiliateLink":"https://www.awin1.com/pclick.php?p=41226646938&a=511345&m=2549","inStock":true},{"id":"41226646944","name":"LEGO ǀ Disney Minnie’s Pet Hotel Building Toy 43274","description":"Fans of Disney’s Mickey Mouse Clubhouse can embrace nurturing play as they learn to build with this LEGO ǀ Disney Minnie’s Pet Hotel (43274) building toy for 4+ year old girls and boys.The buildable D","price":31.99,"currency":"GBP","merchant":"Zavvi UK","brand":"LEGO","category":"Toys","imageUrl":"https://s4.thcdn.com/productimg/1600/1600/16717304-1405240135006061.jpg","affiliateLink":"https://www.awin1.com/pclick.php?p=41226646944&a=511345&m=2549","inStock":true},{"id":"40018530639","name":"LEGO ǀ Disney Arendelle Frozen Castle Building Toy Set 43265","description":"Winter adventures await kids and fans in this fun LEGO ǀ Disney Frozen Arendelle Frozen Castle (43265) set, featuring a buildable castle toy for 5 plus year old girls and boys, with opening doors, a d","price":18.99,"currency":"GBP","merchant":"Zavvi UK","brand":"LEGO","category":"Toys","imageUrl":"https://s4.thcdn.com/productimg/1600/1600/15833865-1115206998136872.jpg","affiliateLink":"https://www.awin1.com/pclick.php?p=40018530639&a=511345&m=2549","inStock":true},{"id":"41226646918","name":"LEGO DUPLO│Disney and Pixar Cars McQueen's Visit to Doc's Garage 10456","description":"Let preschoolers care for their favourite buildable race car toy with LEGO DUPLO│Disney and Pixar Cars McQueen's Visit to Doc's Garage (10456) buildable toddler toy for 2+ year old boys and girls. Thi","price":18.99,"currency":"GBP","merchant":"Zavvi UK","brand":"LEGO","category":"Toys","imageUrl":"https://s4.thcdn.com/productimg/1600/1600/16717278-6125240136029712.jpg","affiliateLink":"https://www.awin1.com/pclick.php?p=41226646918&a=511345&m=2549","inStock":true},{"id":"41226646943","name":"LEGO® ǀ Disney Frozen Advent Calendar 2025 Fantasy Toy Building Kit 43273","description":"Start the Christmas countdown for girls, boys and fans aged 5 plus with an exciting Disney’s Frozen Advent Calendar 2025 (43273) building kit, packed with buildable toys. This Advent calendar for kids","price":24.99,"currency":"GBP","merchant":"Zavvi UK","brand":"LEGO","category":"Toys","imageUrl":"https://s4.thcdn.com/productimg/1600/1600/16717303-1495240132700555.jpg","affiliateLink":"https://www.awin1.com/pclick.php?p=41226646943&a=511345&m=2549","inStock":true},{"id":"40836692864","name":"Disney  BI22661  girls's Children's Sweatshirt in Black","description":"Disney  BI22661  girls's Children's Sweatshirt in Black","price":24.58,"currency":"GBP","merchant":"Spartoo.co.uk","brand":"Disney","category":"Children's Clothing","imageUrl":"https://photos6.spartoo.co.uk/photos/299/29943944/29943944_350_A.jpg","affiliateLink":"https://www.awin1.com/pclick.php?p=40836692864&a=511345&m=2638","inStock":true},{"id":"40836692790","name":"Disney  Ohana  girls's Children's Sweatshirt in Black","description":"Disney  Ohana  girls's Children's Sweatshirt in Black","price":24.58,"currency":"GBP","merchant":"Spartoo.co.uk","brand":"Disney","category":"Children's Clothing","imageUrl":"https://photos6.spartoo.co.uk/photos/299/29943870/29943870_350_A.jpg","affiliateLink":"https://www.awin1.com/pclick.php?p=40836692790&a=511345&m=2638","inStock":true}]}