{"success":true,"query":"Nike trainers","searchTerms":"Nike nike trainers","extractedParams":{"keywords":["nike","trainers"],"brand":"Nike"},"totalCount":3901,"offset":10,"limit":10,"hasMore":true,"count":10,"products":[{"id":"42486544616","name":"Nike Boys Black & White Fabric Crew T-Shirt 2 Pack Size: 8-11 Years","description":"The Nike Kids Boys Crew T-Shirt 2 Pack comes in classic black and white, crafted from a soft fabric for lasting comfort. The iconic Nike logo adds sporty style, making them perfect for everyday wear o","price":12.99,"currency":"GBP","merchant":"Schuh","brand":"Schuh","category":"Boys' Clothes","imageUrl":"https://d2ob0iztsaxy5v.cloudfront.net/product/719500/7195007270_zm.jpg","affiliateLink":"https://www.awin1.com/pclick.php?p=42486544616&a=511345&m=2044","inStock":true},{"id":"42486544772","name":"Nike Boys Black & White Fabric Crew T-Shirt 2 Pack Size: 6-8 Years","description":"The Nike Kids Boys Crew T-Shirt 2 Pack comes in classic black and white, crafted from a soft fabric for lasting comfort. The iconic Nike logo adds sporty style, making them perfect for everyday wear o","price":12.99,"currency":"GBP","merchant":"Schuh","brand":"Schuh","category":"Boys' Clothes","imageUrl":"https://d2ob0iztsaxy5v.cloudfront.net/product/719500/7195007270_zm.jpg","affiliateLink":"https://www.awin1.com/pclick.php?p=42486544772&a=511345&m=2044","inStock":true},{"id":"42486544506","name":"Nike Boys Black & White Fabric Crew T-Shirt 2 Pack Size: 4-6 Years","description":"The Nike Kids Boys Crew T-Shirt 2 Pack comes in classic black and white, crafted from a soft fabric for lasting comfort. The iconic Nike logo adds sporty style, making them perfect for everyday wear o","price":12.99,"currency":"GBP","merchant":"Schuh","brand":"Schuh","category":"Boys' Clothes","imageUrl":"https://d2ob0iztsaxy5v.cloudfront.net/product/719500/7195007270_zm.jpg","affiliateLink":"https://www.awin1.com/pclick.php?p=42486544506&a=511345&m=2044","inStock":true},{"id":"43094455712","name":"Nike Black & White Boys Crew T-Shirt 2 Pack","description":"The Nike Kids Boys Crew T-Shirt 2 Pack comes in classic black and white, crafted from a soft fabric for lasting comfort. The iconic Nike logo adds sporty style, making them perfect for everyday wear o","price":12.99,"currency":"GBP","merchant":"Schuh","brand":"Schuh","category":"Boys' Clothes","imageUrl":"https://d2ob0iztsaxy5v.cloudfront.net/product/719500/7195007270_zm.jpg","affiliateLink":"https://www.awin1.com/pclick.php?p=43094455712&a=511345&m=2044","inStock":true},{"id":"40166458492","name":"adidas Pale Blue Handball Spezial Boys Junior Trainers","description":"The adidas Handball Spezial trainers with iconic adidas 3-stripes give kids comfy all-day wear. A premium blue suede upper and cushioned fit make playtime more fun, while the retro gum rubber sole kee","price":38.99,"currency":"GBP","merchant":"Schuh","brand":"Schuh","category":"Children's Footwear","imageUrl":"https://d2ob0iztsaxy5v.cloudfront.net/product/560154/5601545350_zm.jpg","affiliateLink":"https://www.awin1.com/pclick.php?p=40166458492&a=511345&m=2044","inStock":true},{"id":"39807244987","name":"adidas Navy & Red Tensaur Sport 2.0 Boys Toddler Trainers","description":"The Tensaur Sport 2.0 trainers from adidas have arrived in toddler sizes! Featuring a navy blue, red and white colourway - these easy-on trainers are perfect for standing out! Smooth man-made uppers a","price":12.99,"currency":"GBP","merchant":"Schuh","brand":"Schuh","category":"Children's Footwear","imageUrl":"https://d2ob0iztsaxy5v.cloudfront.net/product/550277/5502774360_zm.jpg","affiliateLink":"https://www.awin1.com/pclick.php?p=39807244987&a=511345&m=2044","inStock":true},{"id":"40272339146","name":"adidas Pale Blue Handball Spezial Boys Youth Trainers","description":"Premium comfort meets retro style in the light blue adidas Handball Spezial youth trainers! The premium suede construction, iconic three stripes and retro silhouette deliver versatile appeal, while cu","price":43.99,"currency":"GBP","merchant":"Schuh","brand":"Schuh","category":"Children's Footwear","imageUrl":"https://d2ob0iztsaxy5v.cloudfront.net/product/570154/5701545350_zm.jpg","affiliateLink":"https://www.awin1.com/pclick.php?p=40272339146&a=511345&m=2044","inStock":true},{"id":"39139766814","name":"adidas Navy & Black Handball Spezial Boys Youth Trainers","description":"The adidas Handball Spezials are here in youth sizes at schuh! These terrae trainers will be sure to keep you on-trend with their dark navy suede uppers, pale blue branding and retro gum soles. This s","price":70,"currency":"GBP","merchant":"Schuh","brand":"Schuh","category":"Children's Footwear","imageUrl":"https://d2ob0iztsaxy5v.cloudfront.net/product/570154/5701545750_zm.jpg","affiliateLink":"https://www.awin1.com/pclick.php?p=39139766814&a=511345&m=2044","inStock":true},{"id":"41522965440","name":"adidas Khaki Campus 00s Boys Youth Trainers","description":"These adidas Campus 00s trainers in khaki suede merge retro skate heritage with modern design. The off-white branding and gum rubber sole create a classic look, while superior cushioning ensures lasti","price":44.99,"currency":"GBP","merchant":"Schuh","brand":"Schuh","category":"Children's Footwear","imageUrl":"https://d2ob0iztsaxy5v.cloudfront.net/product/570077/5700774650_zm.jpg","affiliateLink":"https://www.awin1.com/pclick.php?p=41522965440&a=511345&m=2044","inStock":true},{"id":"40207619211","name":"adidas Navy & Black Handball Spezial Boys Junior Trainers","description":"Step out in style with these navy suede adidas Handball Spezial trainers for juniors. Featuring pale blue branding and a durable gum sole, they're built for active kids who love to play and explore in","price":50,"currency":"GBP","merchant":"Schuh","brand":"Schuh","category":"Children's Footwear","imageUrl":"https://d2ob0iztsaxy5v.cloudfront.net/product/560154/5601545750_zm.jpg","affiliateLink":"https://www.awin1.com/pclick.php?p=40207619211&a=511345&m=2044","inStock":true}]}