{"success":true,"query":"kids books","searchTerms":"kids books","extractedParams":{"keywords":["kids","books"]},"totalCount":16087,"offset":10,"limit":10,"hasMore":true,"count":10,"products":[{"id":"42966960841","name":"M&S Kids' Balaclava Hat (1-13 Yrs) Red","description":"This cosy balaclava-style hat is perfect for keeping kids warm on chilly days. Snug ribbed texture and made with added stretch for plenty of comfort.","price":5,"currency":"GBP","merchant":"Marks and Spencer UK","brand":"Marks and Spencer UK","category":"Children's Footwear","imageUrl":"https://assets.digitalcontent.marksandspencer.app/image/upload/w_1024,q_auto,f_auto/SD_04_T72_3125Y_B0_X_EC_90","affiliateLink":"https://www.awin1.com/pclick.php?p=42966960841&a=511345&m=1402","inStock":true},{"id":"42302729197","name":"M&S Kids' Wellies (4 Small - 2 Large) Green Mix","description":"Splashing through puddles is more fun with dinosaurs on their feet. These durable rubber wellies feature a standard fit. The pull-on design makes getting ready easy for kids, while the playful pattern","price":18,"currency":"GBP","merchant":"Marks and Spencer UK","brand":"Marks and Spencer UK","category":"Children's Footwear","imageUrl":"https://assets.digitalcontent.marksandspencer.app/image/upload/w_1024,q_auto,f_auto/SD_04_T72_1148W_J4_X_EC_0","affiliateLink":"https://www.awin1.com/pclick.php?p=42302729197&a=511345&m=1402","inStock":true},{"id":"40964448551","name":"M&S Kids Patent Leather School Shoes (8 Small - 1 Large) Black","description":"These sweet but sturdy patent leather shoes will help kids shine all day long. Available in multiple widths with a convenient and adjustable riptape fastening strap. Glittery floral detailing on the t","price":32,"currency":"GBP","merchant":"Marks and Spencer UK","brand":"Marks and Spencer UK","category":"Children's Footwear","imageUrl":"https://assets.digitalcontent.marksandspencer.app/image/upload/w_1024,q_auto,f_auto/SD_04_T72_8657B_Y0_X_EC_0","affiliateLink":"https://www.awin1.com/pclick.php?p=40964448551&a=511345&m=1402","inStock":true},{"id":"42302733395","name":"M&S Kids' Leather Riptape School Shoes (8 Small - 2 Large) Black","description":"These sporty leather school shoes are a great choice for active kids. The riptape fastenings make them easy to put on and take off. Our antibacterial Freshfeet™ finish combats odours to keep feet feel","price":32,"currency":"GBP","merchant":"Marks and Spencer UK","brand":"Marks and Spencer UK","category":"Children's Footwear","imageUrl":"https://assets.digitalcontent.marksandspencer.app/image/upload/w_1024,q_auto,f_auto/SD_04_T72_8562B_Y0_X_EC_0","affiliateLink":"https://www.awin1.com/pclick.php?p=42302733395&a=511345&m=1402","inStock":true},{"id":"42464742239","name":"Lego LEGO City Advent Calendar 2025 Toy for Kids 60475(5+ Yrs) Multi","description":"Start the Christmas countdown with the LEGO City Advent Calendar 2025 (60475) toy for 5+ year old boys and girls. This year's calendar is bursting with festive fun, including characters dressed in pol","price":19.99,"currency":"GBP","merchant":"Marks and Spencer UK","brand":"LEGO","category":"Baby Products","imageUrl":"https://assets.digitalcontent.marksandspencer.app/image/upload/w_1024,q_auto,f_auto/MS_10_T96_8141_ZZ_X_EC_0","affiliateLink":"https://www.awin1.com/pclick.php?p=42464742239&a=511345&m=1402","inStock":true},{"id":"43363032526","name":"M&S Kids' Plain Cuff Wellies (4 Small - 6 Large) Black","description":"These waterproof wellies are all ready for wet days and puddle splashes. Designed with a cosy lining and an adjustable cuff to keep them securely in place.","price":18,"currency":"GBP","merchant":"Marks and Spencer UK","brand":"Marks and Spencer UK","category":"Children's Footwear","imageUrl":"https://assets.digitalcontent.marksandspencer.app/image/upload/w_1024,q_auto,f_auto/SD_04_T72_1126W_Y0_X_EC_90","affiliateLink":"https://www.awin1.com/pclick.php?p=43363032526&a=511345&m=1402","inStock":true},{"id":"41817895903","name":"M&S Kids' Leather Mary Jane Cat School Shoes (8 Small - 2 Large) Black","description":"Sturdy shoes with playful cat details that make school days better. Riptape fastening gives little ones independence to put them on themselves, while the scuff-resistant finish keeps them looking smar","price":32,"currency":"GBP","merchant":"Marks and Spencer UK","brand":"Marks and Spencer UK","category":"Children's Footwear","imageUrl":"https://assets.digitalcontent.marksandspencer.app/image/upload/w_1024,q_auto,f_auto/SD_04_T72_8662B_Y0_X_EC_0","affiliateLink":"https://www.awin1.com/pclick.php?p=41817895903&a=511345&m=1402","inStock":true},{"id":"42302726065","name":"M&S Kids' Spider-Man™ Lunch Box Red","description":"Your young superhero will enjoy their meal with this Spider-Man™ lunch box. Thinsulate™ technology keeps food fresh and the seamless lining is wipe-clean. Secure zip fastening and carry handle. Can be","price":12,"currency":"GBP","merchant":"Marks and Spencer UK","brand":"Marks and Spencer UK","category":"Children's Footwear","imageUrl":"https://assets.digitalcontent.marksandspencer.app/image/upload/w_1024,q_auto,f_auto/SD_04_T72_6193B_B0_X_EC_90","affiliateLink":"https://www.awin1.com/pclick.php?p=42302726065&a=511345&m=1402","inStock":true},{"id":"42302726232","name":"M&S Kids' Wellies (3 Small - 2 Large) Lilac","description":"Puddle-ready style meets charm with these Chelsea bunny patterned wellies. Standard fit with easy pull-on design, these wellies keep little feet dry and comfortable while the playful pattern adds a sp","price":18,"currency":"GBP","merchant":"Marks and Spencer UK","brand":"Marks and Spencer UK","category":"Children's Footwear","imageUrl":"https://assets.digitalcontent.marksandspencer.app/image/upload/w_1024,q_auto,f_auto/SD_04_T72_1135W_G0_X_EC_0","affiliateLink":"https://www.awin1.com/pclick.php?p=42302726232&a=511345&m=1402","inStock":true},{"id":"42302726675","name":"M&S Kids' Squishmallows™ Lunch Box Pink Mix","description":"A soft Squishmallows™ lunch box that makes school days more fun while keeping food fresh. Lightweight with a zip fastening for easy access, and the clever Thinsulate™ lining maintains temperature whil","price":12,"currency":"GBP","merchant":"Marks and Spencer UK","brand":"Marks and Spencer UK","category":"Children's Footwear","imageUrl":"https://assets.digitalcontent.marksandspencer.app/image/upload/w_1024,q_auto,f_auto/SD_04_T72_6212B_A4_X_EC_90","affiliateLink":"https://www.awin1.com/pclick.php?p=42302726675&a=511345&m=1402","inStock":true}]}