{"success":true,"query":"board games family","searchTerms":"board games family","extractedParams":{"keywords":["board","games","family"]},"totalCount":7771,"offset":10,"limit":10,"hasMore":true,"count":10,"products":[{"id":"40357229820","name":"Prym Ironing Board Cover Fasteners","description":"Prym Ironing Board Cover Fasteners","price":8.99,"currency":"GBP","merchant":"Minerva","brand":"Minerva","category":"Arts & Crafts","imageUrl":"https://cdn.minerva.com/products/1000000/normal/image-sa-1151089-62521.jpg","affiliateLink":"https://www.awin1.com/pclick.php?p=40357229820&a=511345&m=5270","inStock":true},{"id":"36325882972","name":"M&S New Baby E-Gift Card","description":"Celebrate the arrival of the newest member of the family with a gift card. From cotton baby sleepsuits to a well-deserved sweet treat, the new parents can have fun choosing their present in-store or o","price":10,"currency":"GBP","merchant":"Marks and Spencer UK","brand":"Marks and Spencer UK","category":"Greeting Cards","imageUrl":"https://assets.digitalcontent.marksandspencer.app/image/upload/w_1024,q_auto,f_auto/MS_08_T46_4962X_NC_X_EC_0","affiliateLink":"https://www.awin1.com/pclick.php?p=36325882972&a=511345&m=1402","inStock":true},{"id":"40357250248","name":"Hemline Heat n Seal Lite","description":"Ideal for applique and craft. Bonds fabrics simply and easily by ironing. Suitable for fabrics, felt, cardboard, leather, ceramics etc. 1 sheet: 74 x 69cm 30 x 27in.","price":5.99,"currency":"GBP","merchant":"Minerva","brand":"Minerva","category":"Arts & Crafts","imageUrl":"https://cdn.minerva.com/products/1000000/normal/image-sa-1178182-30544.jpg","affiliateLink":"https://www.awin1.com/pclick.php?p=40357250248&a=511345&m=5270","inStock":true},{"id":"40357250249","name":"Hemline Heat n Seal Ultra","description":"Ideal for applique and craft. Bonds fabrics simply and easily by ironing. Suitable for fabrics, felt, cardboard, leather, ceramics etc. 1 sheet: 56 x 90cm 22 x 35in.","price":5.99,"currency":"GBP","merchant":"Minerva","brand":"Minerva","category":"Arts & Crafts","imageUrl":"https://cdn.minerva.com/products/1000000/normal/image-sa-1178183-86699.jpg","affiliateLink":"https://www.awin1.com/pclick.php?p=40357250249&a=511345&m=5270","inStock":true},{"id":"41557644673","name":"vidaXL Sandbox with Seats Grey Square Solid Wood Pine, Grey","description":"Whether it's scooping, sculpting, or sandcastle making, the wooden sandbox will inspire hours of creative and sensory play. Only for domestic use. Features: Solid pine wood: Solid pine wood is a beaut","price":151.99,"currency":"GBP","merchant":"Robert Dyas","brand":"Robert Dyas","category":"Outdoor Toys","imageUrl":"https://www.robertdyas.co.uk/media/catalog/product/4/3/433341_1.jpg","affiliateLink":"https://www.awin1.com/pclick.php?p=41557644673&a=511345&m=1528","inStock":true},{"id":"43276643582","name":"vidaXL Reindeer Family 3 pcs Cold white 68 x 26 x 127 cm, White","description":"Crafted for Christmas enthusiasts, the Morden Reindeer Family melds traditional festive charm with modern design principles. Suitable for indoor and sheltered outdoor use, these enchanting figures hol","price":118.99,"currency":"GBP","merchant":"Robert Dyas","brand":"Robert Dyas","category":"Decorations","imageUrl":"https://www.robertdyas.co.uk/media/catalog/product/8/1/810573_1.jpg","affiliateLink":"https://www.awin1.com/pclick.php?p=43276643582&a=511345&m=1528","inStock":true},{"id":"43276643583","name":"vidaXL Reindeer Family 3 pcs Warm white 68 x 26 x 127 cm, White","description":"Crafted for Christmas enthusiasts, the Morden Reindeer Family melds traditional festive charm with modern design principles. Suitable for indoor and sheltered outdoor use, these enchanting figures hol","price":118.99,"currency":"GBP","merchant":"Robert Dyas","brand":"Robert Dyas","category":"Decorations","imageUrl":"https://www.robertdyas.co.uk/media/catalog/product/8/1/810574_1.jpg","affiliateLink":"https://www.awin1.com/pclick.php?p=43276643583&a=511345&m=1528","inStock":true},{"id":"43276643571","name":"vidaXL Christmas Tree with 160 LEDs Warm white 150 cm Rattan (42018992), White","description":"The Christmas Tree Ornament presents a brilliant combination of style and function, perfectly capturing the holiday spirit with its modern, minimalist design. Featuring a warm white LED lighting syste","price":103.99,"currency":"GBP","merchant":"Robert Dyas","brand":"Robert Dyas","category":"Decorations","imageUrl":"https://www.robertdyas.co.uk/media/catalog/product/8/1/810561_1.jpg","affiliateLink":"https://www.awin1.com/pclick.php?p=43276643571&a=511345&m=1528","inStock":true},{"id":"43276643572","name":"vidaXL Christmas Tree with 240 LEDs Warm white 180 cm Rattan (42018993), White","description":"The Christmas Tree Ornament presents a brilliant combination of style and function, perfectly capturing the holiday spirit with its modern, minimalist design. Featuring a warm white LED lighting syste","price":125.99,"currency":"GBP","merchant":"Robert Dyas","brand":"Robert Dyas","category":"Decorations","imageUrl":"https://www.robertdyas.co.uk/media/catalog/product/8/1/810562_1.jpg","affiliateLink":"https://www.awin1.com/pclick.php?p=43276643572&a=511345&m=1528","inStock":true},{"id":"43276643575","name":"vidaXL Christmas Tree with 90 LEDs 3 pcs Blue 20 x 20 x 80 cm Acrylic, Blue","description":"The Modern Christmas Decoration is the ultimate blend of style and function, perfect for those seeking a contemporary twist for their festive décor. This Christmas ornament features premium acrylic ma","price":50.99,"currency":"GBP","merchant":"Robert Dyas","brand":"Robert Dyas","category":"Decorations","imageUrl":"https://www.robertdyas.co.uk/media/catalog/product/8/1/810565_1.jpg","affiliateLink":"https://www.awin1.com/pclick.php?p=43276643575&a=511345&m=1528","inStock":true}]}