{"success":true,"query":"outdoor garden toys","searchTerms":"outdoor garden toys","extractedParams":{"keywords":["outdoor","garden","toys"]},"totalCount":8911,"offset":10,"limit":10,"hasMore":true,"count":10,"products":[{"id":"43276643643","name":"vidaXL LED Reindeers with 60 LEDs 3 pcs Warm White (42019143), White","description":"The Modern Holiday Ornaments'Christmas Reindeer offers a harmonious blend of tradition and innovation, making it an essential addition to your festive decor. Its artistic, creatively designed structur","price":43.99,"currency":"GBP","merchant":"Robert Dyas","brand":"Robert Dyas","category":"Decorations","imageUrl":"https://www.robertdyas.co.uk/media/catalog/product/8/1/810644_1.jpg","affiliateLink":"https://www.awin1.com/pclick.php?p=43276643643&a=511345&m=1528","inStock":true},{"id":"43276643582","name":"vidaXL Reindeer Family 3 pcs Cold white 68 x 26 x 127 cm, White","description":"Crafted for Christmas enthusiasts, the Morden Reindeer Family melds traditional festive charm with modern design principles. Suitable for indoor and sheltered outdoor use, these enchanting figures hol","price":118.99,"currency":"GBP","merchant":"Robert Dyas","brand":"Robert Dyas","category":"Decorations","imageUrl":"https://www.robertdyas.co.uk/media/catalog/product/8/1/810573_1.jpg","affiliateLink":"https://www.awin1.com/pclick.php?p=43276643582&a=511345&m=1528","inStock":true},{"id":"43276643583","name":"vidaXL Reindeer Family 3 pcs Warm white 68 x 26 x 127 cm, White","description":"Crafted for Christmas enthusiasts, the Morden Reindeer Family melds traditional festive charm with modern design principles. Suitable for indoor and sheltered outdoor use, these enchanting figures hol","price":118.99,"currency":"GBP","merchant":"Robert Dyas","brand":"Robert Dyas","category":"Decorations","imageUrl":"https://www.robertdyas.co.uk/media/catalog/product/8/1/810574_1.jpg","affiliateLink":"https://www.awin1.com/pclick.php?p=43276643583&a=511345&m=1528","inStock":true},{"id":"43276643601","name":"vidaXL Reindeer Pull Sleigh Warm white 70 x 26 x 128.5 cm (42019079), White","description":"Transform your festive space with this Reindeer Pull Sleigh figurine, a must-have for holiday décor enthusiasts. Emitting a cozy glow, it enhances any room or outdoor setting, making it ideal for Chri","price":102.99,"currency":"GBP","merchant":"Robert Dyas","brand":"Robert Dyas","category":"Decorations","imageUrl":"https://www.robertdyas.co.uk/media/catalog/product/8/1/810592_1.jpg","affiliateLink":"https://www.awin1.com/pclick.php?p=43276643601&a=511345&m=1528","inStock":true},{"id":"43276643602","name":"vidaXL Reindeer Pull Sleigh Warm white 70 x 26 x 128.5 cm (42019080), White","description":"Transform your festive space with this Reindeer Pull Sleigh figurine, a must-have for holiday décor enthusiasts. Emitting a cozy glow, it enhances any room or outdoor setting, making it ideal for Chri","price":105.99,"currency":"GBP","merchant":"Robert Dyas","brand":"Robert Dyas","category":"Decorations","imageUrl":"https://www.robertdyas.co.uk/media/catalog/product/8/1/810593_1.jpg","affiliateLink":"https://www.awin1.com/pclick.php?p=43276643602&a=511345&m=1528","inStock":true},{"id":"43276643604","name":"vidaXL Reindeer Pull Sleigh Warm white 70 x 26 x 128.5 cm (42019082), White","description":"Transform your festive space with this Reindeer Pull Sleigh figurine, a must-have for holiday décor enthusiasts. Emitting a cozy glow, it enhances any room or outdoor setting, making it ideal for Chri","price":104.99,"currency":"GBP","merchant":"Robert Dyas","brand":"Robert Dyas","category":"Decorations","imageUrl":"https://www.robertdyas.co.uk/media/catalog/product/8/1/810595_1.jpg","affiliateLink":"https://www.awin1.com/pclick.php?p=43276643604&a=511345&m=1528","inStock":true},{"id":"43276643605","name":"vidaXL Reindeer Pull Sleigh Warm White 52.5 x 28 x 32.5 cm Rattan, White","description":"This Reindeer Pull Sleigh represents a charming blend of tradition and modern style, ideal for anyone looking to enhance their Christmas décor. Notable for its practical USB power source, this figurin","price":64.99,"currency":"GBP","merchant":"Robert Dyas","brand":"Robert Dyas","category":"Decorations","imageUrl":"https://www.robertdyas.co.uk/media/catalog/product/8/1/810596_1.jpg","affiliateLink":"https://www.awin1.com/pclick.php?p=43276643605&a=511345&m=1528","inStock":true},{"id":"43276643642","name":"vidaXL LED Reindeers with 40 LEDs 2 pcs Warm White (42019142), White","description":"Introducing the elegant Modern Christmas Reindeer, a masterpiece in seasonal décor. Ideal for decorating your living room, garden, or terrace, this reindeer is adorned with LED string lights, creative","price":36.99,"currency":"GBP","merchant":"Robert Dyas","brand":"Robert Dyas","category":"Decorations","imageUrl":"https://www.robertdyas.co.uk/media/catalog/product/8/1/810643_1.jpg","affiliateLink":"https://www.awin1.com/pclick.php?p=43276643642&a=511345&m=1528","inStock":true},{"id":"43276643669","name":"vidaXL Christmas Garland with 600 LEDs 2 pcs Green PVC (42016693), Green","description":"The Christmas Garland, a coveted piece for seasonal decoration, is perfect for creating visually stunning displays. Its lush, green texture complemented by vibrant color makes it a versatile addition ","price":194.99,"currency":"GBP","merchant":"Robert Dyas","brand":"Robert Dyas","category":"Decorations","imageUrl":"https://www.robertdyas.co.uk/media/catalog/product/8/1/810670_1.jpg","affiliateLink":"https://www.awin1.com/pclick.php?p=43276643669&a=511345&m=1528","inStock":true},{"id":"43276643667","name":"vidaXL Christmas Garland 2 pcs Green 20 m PVC, Green","description":"The Christmas Garland, a coveted piece for seasonal decoration, is perfect for creating visually stunning displays. Its lush, green texture complemented by vibrant color makes it a versatile addition ","price":98.99,"currency":"GBP","merchant":"Robert Dyas","brand":"Robert Dyas","category":"Decorations","imageUrl":"https://www.robertdyas.co.uk/media/catalog/product/8/1/810668_1.jpg","affiliateLink":"https://www.awin1.com/pclick.php?p=43276643667&a=511345&m=1528","inStock":true}]}