{"success":true,"query":"Marvel superhero","searchTerms":"marvel superhero","extractedParams":{"keywords":["marvel","superhero"]},"totalCount":1760,"offset":10,"limit":10,"hasMore":true,"count":10,"products":[{"id":"43276641168","name":"vidaXL Artificial Christmas Tree with LED Strip Lights Green 150 cm, Green","description":"The cone-shaped Modern Artificial Christmas Tree is the perfect centerpiece for any holiday setting, designed with lifelike PVC tips and LED strip lights. Providing a warm and inviting ambiance, it ut","price":83.99,"currency":"GBP","merchant":"Robert Dyas","brand":"Robert Dyas","category":"Decorations","imageUrl":"https://www.robertdyas.co.uk/media/catalog/product/8/0/807468_1.jpg","affiliateLink":"https://www.awin1.com/pclick.php?p=43276641168&a=511345&m=1528","inStock":true},{"id":"42067914154","name":"Costway 140cm Buffet Sideboard with 8-Bottle Wine Racks and 6 Rows of Wine Glass Holders-Rustic Brown","description":"Introducing the ultimate organizer for wine enthusiasts and kitchen gurus alike - our 140cm wine bar cabinet! Designed to captivate and impress, this versatile storage solution effortlessly showcases ","price":147.99,"currency":"GBP","merchant":"Robert Dyas","brand":"Robert Dyas","category":"Wine","imageUrl":"https://www.robertdyas.co.uk/media/catalog/product/7/1/717196_1.jpg","affiliateLink":"https://www.awin1.com/pclick.php?p=42067914154&a=511345&m=1528","inStock":true},{"id":"43104143573","name":"Beliani Clock Blatten 16 cm Black, Black","description":"The Blatten clock is a tiny marvel of modern design in a deep black finish. At just 16 cm, it is designed for intimate spaces, shelves, or bedside tables. This compact clock offers a bold, dark accent","price":47.99,"currency":"GBP","merchant":"Robert Dyas","brand":"Robert Dyas","category":"Decorations","imageUrl":"https://www.robertdyas.co.uk/media/catalog/product/7/8/783148_1.jpg","affiliateLink":"https://www.awin1.com/pclick.php?p=43104143573&a=511345&m=1528","inStock":true},{"id":"43220004731","name":"Beliani Decorative Vase THAPSUS Ceramic 39 cm White, White","description":"Precisely sculpted to form a marvellous composition of flowing lines, this decorative vase is a standout piece that instantly livens up any type of furniture. Solid colour combined with depths and pea","price":33.99,"currency":"GBP","merchant":"Robert Dyas","brand":"Robert Dyas","category":"Decorations","imageUrl":"https://www.robertdyas.co.uk/media/catalog/product/7/8/781302_1_1.jpg","affiliateLink":"https://www.awin1.com/pclick.php?p=43220004731&a=511345&m=1528","inStock":true},{"id":"43220004732","name":"Beliani Decorative Vase THAPSUS Ceramic 39 cm Black, Black","description":"Precisely sculpted to form a marvellous composition of flowing lines, this decorative vase is a standout piece that instantly livens up any type of furniture. Solid colour combined with depths and pea","price":39.99,"currency":"GBP","merchant":"Robert Dyas","brand":"Robert Dyas","category":"Decorations","imageUrl":"https://www.robertdyas.co.uk/media/catalog/product/7/8/781303_1_1.jpg","affiliateLink":"https://www.awin1.com/pclick.php?p=43220004732&a=511345&m=1528","inStock":true},{"id":"42067914232","name":"Costway 140cm Buffet Sideboard with 8-Bottle Wine Racks and 6 Rows of Wine Glass Holders-Grey, Grey","description":"Introducing the ultimate organizer for wine enthusiasts and kitchen gurus alike - our 140cm wine bar cabinet! Designed to captivate and impress, this versatile storage solution effortlessly showcases ","price":147.99,"currency":"GBP","merchant":"Robert Dyas","brand":"Robert Dyas","category":"Wine","imageUrl":"https://www.robertdyas.co.uk/media/catalog/product/7/1/717279_1.jpg","affiliateLink":"https://www.awin1.com/pclick.php?p=42067914232&a=511345&m=1528","inStock":true},{"id":"43220005072","name":"Beliani Set of 2 Decorative Cushions ROBBIE 45 x 45 cm Red Christmas Motif, Red","description":"Prepare your home for Christmas by adding a plethora of decor pieces that evoke the holiday spirit, such as these two marvellous cushions. They are made from durable polyester and high-quality cotton,","price":41.99,"currency":"GBP","merchant":"Robert Dyas","brand":"Robert Dyas","category":"Decorations","imageUrl":"https://www.robertdyas.co.uk/media/catalog/product/7/8/781673_1_1.jpg","affiliateLink":"https://www.awin1.com/pclick.php?p=43220005072&a=511345&m=1528","inStock":true},{"id":"38563442316","name":"Personalised Large Sage Cord Storage Bag","description":"Accent your tot’s space with this personalised large sage bag. This marvellous storage bag is lovingly crafted from a soft yet sturdy cord material, with lots of room for toys, games and clothes. A lo","price":38,"currency":"GBP","merchant":"My 1st Years","brand":"My 1st Years","category":"Gifts","imageUrl":"https://www.my1styears.com/media/catalog/product/s/e/se_50112788_central_namelarge-sage-cord-storage-bag_1.jpg","affiliateLink":"https://www.awin1.com/pclick.php?p=38563442316&a=511345&m=3964","inStock":true},{"id":"43220005762","name":"Beliani Throw Cushion DIANTHUS 60 x 60 cm Multicolour Geometric Pattern, Multi","description":"Experience modern sophistication with this marvellous scatter cushion. Crafted from a durable yet soft-to-the-touch blend of polyester and cotton with linen-like finish, it boasts inbuilt zipper for e","price":34.99,"currency":"GBP","merchant":"Robert Dyas","brand":"Robert Dyas","category":"Decorations","imageUrl":"https://www.robertdyas.co.uk/media/catalog/product/7/8/782462_1.jpg","affiliateLink":"https://www.awin1.com/pclick.php?p=43220005762&a=511345&m=1528","inStock":true},{"id":"43220005763","name":"Beliani Set of 2 Decorative Cushions DIANTHUS 60 x 60 cm Multicolour Geometric Pattern, Multi","description":"Experience modern sophistication with this set of 2 marvellous scatter cushions. Crafted from a durable yet soft-to-the-touch blend of polyester and cotton with a linen-like finish, they boast inbuilt","price":57.99,"currency":"GBP","merchant":"Robert Dyas","brand":"Robert Dyas","category":"Decorations","imageUrl":"https://www.robertdyas.co.uk/media/catalog/product/7/8/782463_1.jpg","affiliateLink":"https://www.awin1.com/pclick.php?p=43220005763&a=511345&m=1528","inStock":true}]}