{"success":true,"query":"Harry Potter gifts","searchTerms":"harry potter gifts","extractedParams":{"keywords":["harry","potter","gifts"]},"totalCount":7067,"offset":10,"limit":10,"hasMore":true,"count":10,"products":[{"id":"41817902125","name":"Personalised Peter Rabbit™ Garden Apron","description":"Let little chefs and garden helpers step into the world of Beatrix Potter with this adorable personalised garden apron. Featuring Peter Rabbit and Flopsy outside their greenhouse, the charming design ","price":20,"currency":"GBP","merchant":"My 1st Years","brand":"My 1st Years","category":"Gifts","imageUrl":"https://www.my1styears.com/media/catalog/product/s/e/se_30112363_dtr-peter-rabit-garden-apron-_-1.jpg","affiliateLink":"https://www.awin1.com/pclick.php?p=41817902125&a=511345&m=3964","inStock":true},{"id":"41740408939","name":"Personalised Hello World Home From The Hospital Baby Gift Set","description":"Make their very first hello even more magical with our personalised “Hello World” baby announcement set – a beautiful baby bundle perfect for their big debut. This adorable ivory set includes a long-s","price":29,"currency":"GBP","merchant":"My 1st Years","brand":"My 1st Years","category":"Gifts","imageUrl":"https://www.my1styears.com/media/catalog/product/s/e/se_30113446_hello-world---home-from-hosptial-set-1.jpg","affiliateLink":"https://www.awin1.com/pclick.php?p=41740408939&a=511345&m=3964","inStock":true},{"id":"41740408928","name":"Personalised Harrods Exclusive New Baby Gift Set","description":"Snuggle with them in warmth and wonder with our Personalised Caramel Born To Be Loved Bean Bag Chair. Crafted from irresistibly soft borg fabric in a rich caramel shade, it’s the perfect spot for curl","price":29,"currency":"GBP","merchant":"My 1st Years","brand":"My 1st Years","category":"Gifts","imageUrl":"https://www.my1styears.com/media/catalog/product/s/e/se_ig80111247_harrods-exclusive-gft-set-1.jpg","affiliateLink":"https://www.awin1.com/pclick.php?p=41740408928&a=511345&m=3964","inStock":true},{"id":"41740408940","name":"Personalised Yellow Floral Home From The Hospital Baby Gift Set","description":"Welcome your little sunshine in the sweetest way with our personalised home from the hospital baby set. We think this beautiful little outfit is a heartwarming first outfit that’s made for those once-","price":29,"currency":"GBP","merchant":"My 1st Years","brand":"My 1st Years","category":"Gifts","imageUrl":"https://www.my1styears.com/media/catalog/product/s/e/se_30113447_yellow-floral-home-from-hosptial-set-1.jpg","affiliateLink":"https://www.awin1.com/pclick.php?p=41740408940&a=511345&m=3964","inStock":true},{"id":"42071867792","name":"My Kids Personalised LOVE Rainbow Sweatshirt","description":"Your cool kid will radiate joy in this personalised ecru sweatshirt. Your child will be ready for anything, from hanging out with friends to relaxing at home, in this comfortable cotton-blend pullover","price":25,"currency":"GBP","merchant":"My 1st Years","brand":"My 1st Years","category":"Gifts","imageUrl":"https://www.my1styears.com/media/catalog/product/s/e/se_30113018_mykids-multi-coloured-love-ecru-sweat-1.jpg","affiliateLink":"https://www.awin1.com/pclick.php?p=42071867792&a=511345&m=3964","inStock":true},{"id":"41740408950","name":"Personalised Pink Giraffe Home From The Hospital Baby Gift Set","description":"Let little love’s see their home for the very first time in memorable style with our personalised pink giraffe home from the hospital set – a beautifully thoughtful first outfit designed to be cherish","price":29,"currency":"GBP","merchant":"My 1st Years","brand":"My 1st Years","category":"Gifts","imageUrl":"https://www.my1styears.com/media/catalog/product/s/e/se_30111058_pink_giraffe_home_from_hosptial_set-modeljpg.jpg","affiliateLink":"https://www.awin1.com/pclick.php?p=41740408950&a=511345&m=3964","inStock":true},{"id":"41756411476","name":"Personalised Home From The Hospital Blue Giraffe Gift Set","description":"Welcome your little one home in heart-melting style with our personalised blue giraffe home from the hospital set – the perfect first outfit for unforgettable cuddles and first moments. Thoughtfully d","price":29,"currency":"GBP","merchant":"My 1st Years","brand":"My 1st Years","category":"Gifts","imageUrl":"https://www.my1styears.com/media/catalog/product/s/e/se_30113449-blue-giraffe---home-from-hosptial-set-1.jpg","affiliateLink":"https://www.awin1.com/pclick.php?p=41756411476&a=511345&m=3964","inStock":true},{"id":"39583021625","name":"Personalised Born In 2025 Greeting Card","description":"Here’s the perfect way to say – hello little one, we’re so happy you’re here! This beautiful Born in 2025 greeting card is a sweet way to write all your lovely words and wishes for a new baby inside. ","price":3,"currency":"GBP","merchant":"My 1st Years","brand":"My 1st Years","category":"Gifts","imageUrl":"https://www.my1styears.com/media/catalog/product/s/e/se_40113610-born-in-2025---rectangle-card-1.jpg","affiliateLink":"https://www.awin1.com/pclick.php?p=39583021625&a=511345&m=3964","inStock":true},{"id":"41781907366","name":"Personalised Large Pink Polka Dot Storage Bag","description":"Make tidy up time a doddle with this personalised pink polka dot storage bag. Made with love, this storage bag is generously sized and sturdy enough to provide a comforting home for all of your little","price":38,"currency":"GBP","merchant":"My 1st Years","brand":"My 1st Years","category":"Gifts","imageUrl":"https://www.my1styears.com/media/catalog/product/l/a/large-spot-storage-bag---pink-a.jpg","affiliateLink":"https://www.awin1.com/pclick.php?p=41781907366&a=511345&m=3964","inStock":true},{"id":"41781907367","name":"Personalised Large Rainbow Polka Dot Storage Bag","description":"Add a dash of fun to tidy up time with this personalised rainbow polka dot storage bag. Made with love, this storage bag is generously sized and sturdy enough to provide a comforting home for all of y","price":38,"currency":"GBP","merchant":"My 1st Years","brand":"My 1st Years","category":"Gifts","imageUrl":"https://www.my1styears.com/media/catalog/product/l/a/large-spot-storage-bag---white-a.jpg","affiliateLink":"https://www.awin1.com/pclick.php?p=41781907367&a=511345&m=3964","inStock":true}]}