{"success":true,"query":"baby gifts","searchTerms":"baby gifts","extractedParams":{"keywords":["baby","gifts"]},"totalCount":13102,"offset":5,"limit":5,"hasMore":true,"count":5,"products":[{"id":"42816141237","name":"M&S Baby Riptape Faux Fur Pram Shoes (0-18 Months) Neutral","description":"These pram shoes are made from a borg fabric for a soft and cosy feel. They feature a practical riptape fastening and a pull tab at the back for easy on and off.","price":10,"currency":"GBP","merchant":"Marks and Spencer UK","brand":"Marks and Spencer UK","category":"Baby Clothes","imageUrl":"https://assets.digitalcontent.marksandspencer.app/image/upload/w_1024,q_auto,f_auto/SD_04_T72_3446P_NU_X_EC_0","affiliateLink":"https://www.awin1.com/pclick.php?p=42816141237&a=511345&m=1402","inStock":true},{"id":"42816148178","name":"M&S Baby Riptape Pram Shoes (0-18 Months) Soft Gold","description":"Tiny baby feet need supportive first steps. Standard fit with riptape velcro fastening for easy on and off. These trainers are designed for comfort and practicality, with a simple plain style that wor","price":10,"currency":"GBP","merchant":"Marks and Spencer UK","brand":"Marks and Spencer UK","category":"Baby Clothes","imageUrl":"https://assets.digitalcontent.marksandspencer.app/image/upload/w_1024,q_auto,f_auto/SD_04_T72_3457P_HG_X_EC_0","affiliateLink":"https://www.awin1.com/pclick.php?p=42816148178&a=511345&m=1402","inStock":true},{"id":"42464745961","name":"M&S Baby Riptape Faux Fur Pram Shoes (0-18 Months) Pink","description":"These pram shoes are made from a borg fabric for a soft and cosy feel. They feature a practical riptape fastening and a pull tab at the back for easy on and off.","price":10,"currency":"GBP","merchant":"Marks and Spencer UK","brand":"Marks and Spencer UK","category":"Baby Clothes","imageUrl":"https://assets.digitalcontent.marksandspencer.app/image/upload/w_1024,q_auto,f_auto/SD_04_T72_3446P_A0_X_EC_0","affiliateLink":"https://www.awin1.com/pclick.php?p=42464745961&a=511345&m=1402","inStock":true},{"id":"42302732295","name":"M&S Baby Riptape Pram Shoes (0-18 Months) Mink","description":"Tiny baby feet need supportive first steps. Standard fit with riptape velcro fastening for easy on and off. These trainers are designed for comfort and practicality, with a simple plain style that wor","price":10,"currency":"GBP","merchant":"Marks and Spencer UK","brand":"Marks and Spencer UK","category":"Baby Clothes","imageUrl":"https://assets.digitalcontent.marksandspencer.app/image/upload/w_1024,q_auto,f_auto/SD_04_T72_3457P_MG_X_EC_0","affiliateLink":"https://www.awin1.com/pclick.php?p=42302732295&a=511345&m=1402","inStock":true},{"id":"41858882905","name":"M&S Baby Ballet Pumps (0-18 Mths) White","description":"Sweet little ballet pumps designed for infant and toddler feet on the go. These flat dance-inspired shoes feature stretchy crossover straps to keep them secure during adventures, while the soft sole p","price":10,"currency":"GBP","merchant":"Marks and Spencer UK","brand":"Marks and Spencer UK","category":"Baby Clothes","imageUrl":"https://assets.digitalcontent.marksandspencer.app/image/upload/w_1024,q_auto,f_auto/SD_04_T72_3438P_Z0_X_EC_0","affiliateLink":"https://www.awin1.com/pclick.php?p=41858882905&a=511345&m=1402","inStock":true}]}