{"success":true,"query":"LEGO Star Wars","searchTerms":"LEGO lego star wars","extractedParams":{"keywords":["lego","star wars"],"brand":"LEGO"},"totalCount":6573,"offset":5,"limit":5,"hasMore":true,"count":5,"products":[{"id":"38022267829","name":"Star Wars Luke Skywalker X Wing Mech","description":"Kids become Rebel heroes in the exciting LEGO Star Wars universe when they build and play with the Luke Skywalker X-Wing Mech (75390). A cool creative gift for boys, girls and any young fan aged 6 and","price":17.99,"currency":"GBP","merchant":"Debenhams UK","brand":"Debenhams UK","category":"Toys","imageUrl":"https://mediahub.debenhams.com/m5702017584461_multi_xl","affiliateLink":"https://www.awin1.com/pclick.php?p=38022267829&a=511345&m=22735","inStock":true},{"id":"37724360389","name":"75333 Star Wars Obi-Wan Kenobi's Jedi Starfighter","description":"Thrill Star Wars: Attack of the Clones fans with a buildable toy of Obi-Wan Kenobis Jedi Starfighter with iconic minifigures and accessories.. The Star Wars buildable starfighter Toy features 2 stud s","price":34.99,"currency":"GBP","merchant":"Debenhams UK","brand":"Debenhams UK","category":"Toys","imageUrl":"https://mediahub.debenhams.com/m5702017155593_multi_xl","affiliateLink":"https://www.awin1.com/pclick.php?p=37724360389&a=511345&m=22735","inStock":true},{"id":"38275454797","name":"75378 Star Wars BARC Speeder Escape","description":"The Mandalorian fans can recreate the BARC Speeder escape flashback scene from Season 3 with this LEGO set.. 4 Star Wars characters  Kelleran Beq with blue and green lightsabers, and 2 501st Clone Tro","price":29.99,"currency":"GBP","merchant":"Debenhams UK","brand":"Debenhams UK","category":"Toys","imageUrl":"https://mediahub.debenhams.com/m5702017584362_multi_xl","affiliateLink":"https://www.awin1.com/pclick.php?p=38275454797&a=511345&m=22735","inStock":true},{"id":"41628106507","name":"Construction set Lego 43222 Disney Castle 4837 Pieces","description":"If you are looking for new market trending items, we present the Construction set Lego 43222 Disney Castle 4837 Pieces!. Colour: Multicolour. Type: Construction set. Recommended age: + 18 Years. Numbe","price":767.5,"currency":"GBP","merchant":"Dunleath DE","brand":"LEGO","category":"Games, Puzzles & Learning","imageUrl":"https://cdn.shopify.com/s/files/1/0769/2704/1855/files/5702017866949_S91118851_P00.jpg?v=1752921265","affiliateLink":"https://www.awin1.com/pclick.php?p=41628106507&a=511345&m=58637","inStock":true},{"id":"38871264569","name":"A Hanging Offense : The Strange Affair of the Warship Somers","description":"Mutiny on the Bounty is one of history's greatest naval stories—yet few know the similar tale from America's own fledgling navy in the dying days of the Age of Sail, a tale of mutiny and death at sea ","price":17.99,"currency":"GBP","merchant":"TGJones","brand":"TGJones","category":"Books","imageUrl":"https://whs.dmmserver.com/media/640/97807432/9780743256032.jpg","affiliateLink":"https://www.awin1.com/pclick.php?p=38871264569&a=511345&m=3017","inStock":true}]}