{"success":true,"query":"Disney toys","searchTerms":"Disney disney toys","extractedParams":{"keywords":["disney","toys"],"brand":"Disney"},"totalCount":14762,"offset":5,"limit":5,"hasMore":true,"count":5,"products":[{"id":"36658674391","name":"Disney Princess Comfy Squad Ariel Doll","description":"This Disney Princess Ariel doll is part of the Comfy Squad series as seen in the fantastic film Werewolf 2 where Vanellope meets the other Disney princesses. In this version, Ariel has a totally cosy ","price":14.29,"currency":"GBP","merchant":"Plusshop UK","brand":"Disney","category":"Toys","imageUrl":"https://uk.plusshop.com/media/catalog/product/d/i/disney-princess-comfy-squad-ariel-dukke-1.jpg","affiliateLink":"https://www.awin1.com/pclick.php?p=36658674391&a=511345&m=69306","inStock":true},{"id":"36658703068","name":"Disney Princess Comfy Squad Ariel Doll","description":"This Disney Princess Ariel doll is part of the Comfy Squad series as seen in the fantastic film Werewolf 2 where Vanellope meets the other Disney princesses. In this version, Ariel has a totally cosy ","price":10.09,"currency":"GBP","merchant":"Plusshop UK","brand":"Disney","category":"Toys","imageUrl":"https://uk.plusshop.com/media/catalog/product/d/i/disney-princess-comfy-squad-ariel-dukke-1.jpg","affiliateLink":"https://www.awin1.com/pclick.php?p=36658703068&a=511345&m=69306","inStock":true},{"id":"42575517414","name":"Disneywar : The Battle for the Magic Kingdom","description":"'When you wish upon a star', 'Whistle While You Work', 'The Happiest Place on Earth' - these are lyrics indelibly linked to Disney, one of the most admired and best-known companies in the world.So whe","price":20,"currency":"GBP","merchant":"TGJones","brand":"Disney","category":"Books","imageUrl":"https://whs.dmmserver.com/media/640/97807434/9780743496001.jpg","affiliateLink":"https://www.awin1.com/pclick.php?p=42575517414&a=511345&m=3017","inStock":true},{"id":"36658674390","name":"Disney Princess Belle Doll","description":"This fabulous Belle doll from Disney Princess is part of their Hair Style Creations range that lets you easily play and transform princesses' long hair. Wearing a beautiful gil dress with rose details","price":8.95,"currency":"GBP","merchant":"Plusshop UK","brand":"Disney","category":"Children's Clothing","imageUrl":"https://uk.plusshop.com/media/catalog/product/d/i/disney-princess-belle-dukke-1.jpg","affiliateLink":"https://www.awin1.com/pclick.php?p=36658674390&a=511345&m=69306","inStock":true},{"id":"36658687829","name":"Disney Princess Cinderella Magic Wand","description":"Beautiful and adorable wand from Disney Princess designed after Cinderella from the Disney film classic of the same name. The wand is made of plastic covered with fabric and decorated with glitter and","price":2.31,"currency":"GBP","merchant":"Plusshop UK","brand":"Disney","category":"Children's Clothing","imageUrl":"https://uk.plusshop.com/media/catalog/product/d/i/disney_princess_wand_cinderella.png","affiliateLink":"https://www.awin1.com/pclick.php?p=36658687829&a=511345&m=69306","inStock":true}]}