{"success":true,"query":"Nike trainers","searchTerms":"Nike nike trainers","extractedParams":{"keywords":["nike","trainers"],"brand":"Nike"},"totalCount":3901,"offset":5,"limit":5,"hasMore":true,"count":5,"products":[{"id":"34338433329","name":"Nike Zoom Mercurial Vapor 15 Elite CR7 FG Firm-Ground Football Boots - White","description":"Like Cristiano Ronaldo, Azulejo Tiles Are A Portuguese National Treasure. For The Nike Zoom Mercurial Vapor 15 Elite Cr7, We Took Visual Inspiration From The Portuguese Icons To Show What Can Be Achie","price":244.95,"currency":"GBP","merchant":"Nike UK","brand":"Nike UK","category":"Football","imageUrl":"http://images.nike.com/is/image/DotCom/DQ5299_182_A_PREM?wid=650&hei=650&qlt=90&fmt=png-alpha&op_sharpen=1","affiliateLink":"https://www.awin1.com/pclick.php?p=34338433329&a=511345&m=16327","inStock":true},{"id":"34338433259","name":"Nike Zoom Mercurial Vapor 15 Elite CR7 AG-Pro Artificial-Grass Football Boots - White","description":"Like Cristiano Ronaldo, Azulejo Tiles Are A Portuguese National Treasure. For The Nike Zoom Mercurial Vapor 15 Elite Cr7, We Took Visual Inspiration From The Portuguese Icons To Show What Can Be Achie","price":244.95,"currency":"GBP","merchant":"Nike UK","brand":"Nike UK","category":"Football","imageUrl":"http://images.nike.com/is/image/DotCom/DQ5298_182_A_PREM?wid=650&hei=650&qlt=90&fmt=png-alpha&op_sharpen=1","affiliateLink":"https://www.awin1.com/pclick.php?p=34338433259&a=511345&m=16327","inStock":true},{"id":"28643458369","name":"Nike Phantom GT Elite By You Custom Firm Ground Football Boot - Black","description":"Nike Phantom Gt Elite By You Custom Firm Ground Football Boot - Black","price":249.95,"currency":"GBP","merchant":"Nike UK","brand":"Nike UK","category":"Football","imageUrl":"http://static.nike.com/a/images/t_default/e962427f-2a19-4aad-849e-5ac10ce2924a/image.png","affiliateLink":"https://www.awin1.com/pclick.php?p=28643458369&a=511345&m=16327","inStock":true},{"id":"28643458327","name":"Nike Phantom GT Elite By You Custom Firm Ground Football Boot - White","description":"Nike Phantom Gt Elite By You Custom Firm Ground Football Boot - White","price":249.95,"currency":"GBP","merchant":"Nike UK","brand":"Nike UK","category":"Football","imageUrl":"http://static.nike.com/a/images/t_default/e8849966-f66c-47a7-b647-3a01ceda0389/image.png","affiliateLink":"https://www.awin1.com/pclick.php?p=28643458327&a=511345&m=16327","inStock":true},{"id":"28643458563","name":"Nike Phantom GT Elite By You Custom Firm Ground Football Boot - Grey","description":"Nike Phantom Gt Elite By You Custom Firm Ground Football Boot - Grey","price":249.95,"currency":"GBP","merchant":"Nike UK","brand":"Nike UK","category":"Football","imageUrl":"http://static.nike.com/a/images/t_default/3c49ad45-d77b-4933-80f8-72f09d01a0df/image.png","affiliateLink":"https://www.awin1.com/pclick.php?p=28643458563&a=511345&m=16327","inStock":true}]}