{"success":true,"query":"children books","searchTerms":"children books","extractedParams":{"keywords":["children","books"]},"totalCount":31108,"offset":5,"limit":5,"hasMore":true,"count":5,"products":[{"id":"3450227059","name":"Much Obliged, Jeeves","description":"Book","price":9.99,"currency":"GBP","merchant":"Waterstones","brand":"Waterstones","category":"Books","imageUrl":"https://images2.productserve.com/noimage.gif","affiliateLink":"https://www.awin1.com/pclick.php?p=3450227059&a=511345&m=3787","inStock":true},{"id":"38449001281","name":"Love Letters","description":"Book","price":9.99,"currency":"GBP","merchant":"Waterstones","brand":"Waterstones","category":"Books","imageUrl":"https://images2.productserve.com/noimage.gif","affiliateLink":"https://www.awin1.com/pclick.php?p=38449001281&a=511345&m=3787","inStock":true},{"id":"31585202567","name":"Myprotein The Build-Muscle Guide","description":"If you're looking to get stronger and build muscle, you've come to the right place.  We know there’s an overwhelming amount of information out there, so we’re bringing muscle-building back to basics, ","price":19.99,"currency":"GBP","merchant":"Myprotein International","brand":"Myprotein International","category":"Books","imageUrl":"https://s4.thcdn.com/productimg/1600/1600/12431846-1954851608574627.jpg","affiliateLink":"https://www.awin1.com/pclick.php?p=31585202567&a=511345&m=10423","inStock":true},{"id":"31585202563","name":"Myprotein The Vegan Guide","description":"Increasingly more people are deciding to ditch the meat and dairy in favour of a vegan diet.  Whether it’s for ethical, environmental, or health reasons, switching can feel more than a little daunting","price":19.99,"currency":"GBP","merchant":"Myprotein International","brand":"Myprotein International","category":"Books","imageUrl":"https://s4.thcdn.com/productimg/1600/1600/12431844-4714851608491251.jpg","affiliateLink":"https://www.awin1.com/pclick.php?p=31585202563&a=511345&m=10423","inStock":true},{"id":"31585202561","name":"Myprotein The Weight-Loss Guide","description":"Tried the latest fitness fads and back at square one? We feel you. It’s time to ditch the quick-fixes and crash diets and follow our guide to becoming forever fit.  The Weight-Loss Guide is all about ","price":19.99,"currency":"GBP","merchant":"Myprotein International","brand":"Myprotein International","category":"Books","imageUrl":"https://s4.thcdn.com/productimg/1600/1600/12431843-7844851608612217.jpg","affiliateLink":"https://www.awin1.com/pclick.php?p=31585202561&a=511345&m=10423","inStock":true}]}