{"success":true,"query":"family board games","searchTerms":"family board games","extractedParams":{"keywords":["family","board","games"]},"totalCount":7771,"offset":5,"limit":5,"hasMore":true,"count":5,"products":[{"id":"37724234304","name":"Cluedo","description":"Dark forces are at work A friend has seemingly vanished. Playing Harry, Ron, Hermione, Ginny, Luna or Neville, you must try to discover WHO did it, WHAT spell or item they used and WHERE the student w","price":20,"currency":"GBP","merchant":"Debenhams UK","brand":"Debenhams UK","category":"Games, Puzzles & Learning","imageUrl":"https://mediahub.debenhams.com/m5036905037198_multi_xl","affiliateLink":"https://www.awin1.com/pclick.php?p=37724234304&a=511345&m=22735","inStock":true},{"id":"38346918141","name":"14 Gram Texas Holdem Poker Chip Set 300 Pieces Claytec Chips w/ Aluminum Case","description":"This 300-piece poker chip set is an ultimate choice for any poker enthusiast. With 300 high-quality chips, 2 decks of casino-level playing cards, 5 dices, and 3 dealer buttons, this set has everything","price":54.95,"currency":"GBP","merchant":"Debenhams UK","brand":"Debenhams UK","category":"Games, Puzzles & Learning","imageUrl":"https://mediahub.debenhams.com/m7984700555202_black_xl","affiliateLink":"https://www.awin1.com/pclick.php?p=38346918141&a=511345&m=22735","inStock":true},{"id":"40691233165","name":"LEGO® DUPLO® Bluey: Bluey’s Family House with Memory Game Interactive Toy 10459","description":"Introduce toddlers to a fun building set that packs in double the fun! Bluey’s Family House with Memory Game (10459) interactive toy delivers 2 fun activities in one colourful construction set.This in","price":49.99,"currency":"GBP","merchant":"Zavvi UK","brand":"LEGO","category":"Toys","imageUrl":"https://s4.thcdn.com/productimg/1600/1600/16282225-1885223279837042.jpg","affiliateLink":"https://www.awin1.com/pclick.php?p=40691233165&a=511345&m=2549","inStock":true},{"id":"41226646937","name":"LEGO® Friends Family Holiday Beach Resort Building Set 42673","description":"Enjoy family fun, holiday style with this action-packed kids’ building set toy for girls and boys aged 8 years old and over. The LEGO® Friends Family Holiday Beach Resort (42673) is full of stories an","price":99.99,"currency":"GBP","merchant":"Zavvi UK","brand":"LEGO","category":"Toys","imageUrl":"https://s4.thcdn.com/productimg/1600/1600/16717297-1655240131867125.jpg","affiliateLink":"https://www.awin1.com/pclick.php?p=41226646937&a=511345&m=2549","inStock":true},{"id":"43439774518","name":"LEGO Friends Liann’s Family House Toy with Mini Dolls 42687","description":"Welcome to LEGO Friends Liann’s Family House toy for 7+ year old girls and boys (42687), where kids create their own stories. Fans can explore the beautiful LEGO toy house with its kitchen, living are","price":59.99,"currency":"GBP","merchant":"Zavvi UK","brand":"LEGO","category":"Toys","imageUrl":"https://s4.thcdn.com/productimg/1600/1600/17650755-2125295832843896.jpg","affiliateLink":"https://www.awin1.com/pclick.php?p=43439774518&a=511345&m=2549","inStock":true}]}