{"success":true,"query":"garden toys","searchTerms":"garden toys","extractedParams":{"keywords":["garden","toys"]},"totalCount":6933,"offset":5,"limit":5,"hasMore":true,"count":5,"products":[{"id":"40018530609","name":"LEGO DUPLO Creative Garden & Flowers Stacking Toys Set 10444","description":"Help your child's creative and fine motor skills blossom with the LEGO DUPLO Town Creative Garden & Flowers (10444) stacking toy for 2 plus year old girls and boys. With 45 LEGO DUPLO bricks to build ","price":17.99,"currency":"GBP","merchant":"Zavvi UK","brand":"LEGO","category":"Toys","imageUrl":"https://s4.thcdn.com/productimg/1600/1600/15833828-9505207470037520.jpg","affiliateLink":"https://www.awin1.com/pclick.php?p=40018530609&a=511345&m=2549","inStock":true},{"id":"39605126986","name":"LEGO® Icons Fountain Garden Home and Office Decor, Building Set for Adults 10359","description":"Enjoy a mindful project with the LEGO Icons Fountain Garden (10359) home and office decor building set for adults. Unwind as you create each intricate detail, rearrange the trees, LEGO flowers and per","price":74.99,"currency":"GBP","merchant":"Zavvi UK","brand":"LEGO","category":"Toys","imageUrl":"https://s4.thcdn.com/productimg/1600/1600/15821904-1865198136821262.jpg","affiliateLink":"https://www.awin1.com/pclick.php?p=39605126986&a=511345&m=2549","inStock":true},{"id":"39605126993","name":"LEGO® Sonic the Hedgehog™ Cyclone vs. Metal Sonic Toys 77002","description":"Appeal to kids and Sonic fans who love cool video game-inspired toys with this LEGO Sonic the Hedgehog Cyclone vs. Metal Sonic (77002) building toy for 8+ year old boys and girls. This LEGO Sonic the ","price":22.99,"currency":"GBP","merchant":"Zavvi UK","brand":"LEGO","category":"Toys","imageUrl":"https://s4.thcdn.com/productimg/1600/1600/15821911-3345198136841011.jpg","affiliateLink":"https://www.awin1.com/pclick.php?p=39605126993&a=511345&m=2549","inStock":true},{"id":"40018530644","name":"LEGO City Lifeguard Beach Rescue Truck & Shark Toys 60453","description":"Beach rescue adventures are on the horizon with the LEGO City Lifeguard Beach Rescue Truck toy for 6 plus year old boys and girls (60453). This cool kids' toy truck with opening doors, tailgate and su","price":15.99,"currency":"GBP","merchant":"Zavvi UK","brand":"LEGO","category":"Toys","imageUrl":"https://s4.thcdn.com/productimg/1600/1600/15833870-1125206997511153.jpg","affiliateLink":"https://www.awin1.com/pclick.php?p=40018530644&a=511345&m=2549","inStock":true},{"id":"40018530647","name":"LEGO City Red Farm Tractor with Trailer & Sheep Toys 60461","description":"Bring the charm of the countryside to your child’s playtime with the LEGO City Red Farm Tractor with Trailer & Sheep (60461) building toy for 4+ year old boys and girls. This LEGO 4+ farm toy set incl","price":17.99,"currency":"GBP","merchant":"Zavvi UK","brand":"LEGO","category":"Toys","imageUrl":"https://s4.thcdn.com/productimg/1600/1600/15833873-8785206996994331.jpg","affiliateLink":"https://www.awin1.com/pclick.php?p=40018530647&a=511345&m=2549","inStock":true}]}