{"success":true,"query":"Marvel","searchTerms":"Marvel marvel","extractedParams":{"keywords":["marvel"],"brand":"Marvel"},"totalCount":1698,"offset":5,"limit":5,"hasMore":true,"count":5,"products":[{"id":"41670199055","name":"Kids' Marvel Comic T-Shirt - White, White","description":"This cosy kids' T-shirt is made from soft cotton and features a colourful printed design featuring their favourite Marvel characters. It's finished with short sleeves and a crewneck collar, ideal for ","price":5.97,"currency":"GBP","merchant":"Millets","brand":"Marvel","category":"Boys' Clothes","imageUrl":"http://cdn.media.amplience.net/i/jpl/bl_754620_a","affiliateLink":"https://www.awin1.com/pclick.php?p=41670199055&a=511345&m=1521","inStock":true},{"id":"39301411218","name":"Marvel Figures Luke Cage & Iron Fist 2 Pack","description":"IWOOT - Stuff you really, really wantThe Marvel Fact Files Specials bring you the Heroes for Hire available together in one boxset, at a specially discounted price. The figurines stand at approx. 4.6 ","price":29.99,"currency":"GBP","merchant":"Iwantoneofthose.com UK","brand":"Marvel","category":"Action Figures","imageUrl":"https://s4.thcdn.com/productimg/1600/1600/12691792-7444829813139942.jpg","affiliateLink":"https://www.awin1.com/pclick.php?p=39301411218&a=511345&m=1202","inStock":true},{"id":"38871532107","name":"Theatre of Marvels : A thrilling and absorbing tale set in Victorian London","description":"'Richly evocative and glittering with atmosphere, this tale of ambition and identity had me gripped from start to finish' STACEY HALLS, Sunday Times bestselling author of The Familiars'Theatre of Marv","price":9.99,"currency":"GBP","merchant":"TGJones","brand":"Marvel","category":"Books","imageUrl":"https://whs.dmmserver.com/media/640/97815291/9781529158595.jpg","affiliateLink":"https://www.awin1.com/pclick.php?p=38871532107&a=511345&m=3017","inStock":true},{"id":"32876091501","name":"Marvel Studio's Eternals","description":"A brilliant ensemble stars in this enthralling film from Marvel Studios. ETERNALS follows a group of ancient heroes from beyond the stars who have protected humanity since the dawn of our existence. W","price":5.99,"currency":"GBP","merchant":"Zavvi UK","brand":"Marvel","category":"Blu-Ray","imageUrl":"https://s4.thcdn.com/productimg/1600/1600/13508765-3444918232825607.jpg","affiliateLink":"https://www.awin1.com/pclick.php?p=32876091501&a=511345&m=2549","inStock":true},{"id":"32805355863","name":"Marvel Studio's Eternals - 4K Ultra HD (Includes Blu-ray)","description":"A brilliant ensemble stars in this enthralling film from Marvel Studios. ETERNALS follows a group of ancient heroes from beyond the stars who have protected humanity since the dawn of our existence. W","price":19.99,"currency":"GBP","merchant":"Zavvi UK","brand":"Marvel","category":"HD DVD","imageUrl":"https://s4.thcdn.com/productimg/1600/1600/13508766-1104918232893527.jpg","affiliateLink":"https://www.awin1.com/pclick.php?p=32805355863&a=511345&m=2549","inStock":true}]}