{"success":true,"query":"Harry Potter","searchTerms":"harry potter","extractedParams":{"keywords":["harry","potter"]},"totalCount":2040,"offset":5,"limit":5,"hasMore":true,"count":5,"products":[{"id":"40833349468","name":"Harry Potter  Gryffindor  boys's Children's sweatshirt in Grey","description":"Harry Potter  Gryffindor  boys's Children's sweatshirt in Grey","price":24.58,"currency":"GBP","merchant":"Spartoo.co.uk","brand":"Spartoo.co.uk","category":"Children's Clothing","imageUrl":"https://photos6.spartoo.co.uk/photos/299/29939004/29939004_350_A.jpg","affiliateLink":"https://www.awin1.com/pclick.php?p=40833349468&a=511345&m=2638","inStock":true},{"id":"40833351901","name":"Harry Potter  Witch In Training  girls's Children's Sweatshirt in Grey","description":"Harry Potter  Witch In Training  girls's Children's Sweatshirt in Grey","price":17.81,"currency":"GBP","merchant":"Spartoo.co.uk","brand":"Spartoo.co.uk","category":"Children's Clothing","imageUrl":"https://photos6.spartoo.co.uk/photos/299/29941435/29941435_350_A.jpg","affiliateLink":"https://www.awin1.com/pclick.php?p=40833351901&a=511345&m=2638","inStock":true},{"id":"40833349467","name":"Harry Potter  Gryffindor  boys's Children's sweatshirt in Black","description":"Harry Potter  Gryffindor  boys's Children's sweatshirt in Black","price":24.58,"currency":"GBP","merchant":"Spartoo.co.uk","brand":"Spartoo.co.uk","category":"Children's Clothing","imageUrl":"https://photos6.spartoo.co.uk/photos/299/29939003/29939003_350_A.jpg","affiliateLink":"https://www.awin1.com/pclick.php?p=40833349467&a=511345&m=2638","inStock":true},{"id":"40833351873","name":"Harry Potter  Hogwarts  girls's Children's Sweatshirt in White","description":"Harry Potter  Hogwarts  girls's Children's Sweatshirt in White","price":23.76,"currency":"GBP","merchant":"Spartoo.co.uk","brand":"Spartoo.co.uk","category":"Children's Clothing","imageUrl":"https://photos6.spartoo.co.uk/photos/299/29941407/29941407_350_A.jpg","affiliateLink":"https://www.awin1.com/pclick.php?p=40833351873&a=511345&m=2638","inStock":true},{"id":"40833351902","name":"Harry Potter  Witch In Training  girls's Children's Sweatshirt in White","description":"Harry Potter  Witch In Training  girls's Children's Sweatshirt in White","price":23.76,"currency":"GBP","merchant":"Spartoo.co.uk","brand":"Spartoo.co.uk","category":"Children's Clothing","imageUrl":"https://photos6.spartoo.co.uk/photos/299/29941436/29941436_350_A.jpg","affiliateLink":"https://www.awin1.com/pclick.php?p=40833351902&a=511345&m=2638","inStock":true}]}